\relax 
\providecommand\hyper@newdestlabel[2]{}
\@writefile{toc}{\contentsline {chapter}{\numberline {1}Workshop preface}{5}{chapter.1}\protected@file@percent }
\@writefile{lof}{\addvspace {10\p@ }}
\@writefile{lot}{\addvspace {10\p@ }}
\@writefile{toc}{\contentsline {section}{\numberline {1.1}Introduction}{5}{section.1.1}\protected@file@percent }
\@writefile{toc}{\contentsline {section}{\numberline {1.2}Organization}{6}{section.1.2}\protected@file@percent }
\@writefile{toc}{\contentsline {subsection}{\numberline {1.2.1}DSP miniproject}{6}{subsection.1.2.1}\protected@file@percent }
\@writefile{toc}{\contentsline {subsection}{\numberline {1.2.2}Quiz}{6}{subsection.1.2.2}\protected@file@percent }
\@writefile{toc}{\contentsline {subsection}{\numberline {1.2.3}Schedule}{7}{subsection.1.2.3}\protected@file@percent }
\newlabel{tab:workshop_schedule}{{1.2.3}{7}{Schedule}{subsection.1.2.3}{}}
\@writefile{toc}{\contentsline {section}{\numberline {1.3}Matlab}{8}{section.1.3}\protected@file@percent }
\@writefile{toc}{\contentsline {section}{\numberline {1.4}More information}{8}{section.1.4}\protected@file@percent }
\@setckpt{Ch00_preface}{
\setcounter{page}{9}
\setcounter{equation}{0}
\setcounter{enumi}{0}
\setcounter{enumii}{0}
\setcounter{enumiii}{0}
\setcounter{enumiv}{0}
\setcounter{footnote}{0}
\setcounter{mpfootnote}{0}
\setcounter{part}{0}
\setcounter{chapter}{1}
\setcounter{section}{4}
\setcounter{subsection}{0}
\setcounter{subsubsection}{0}
\setcounter{paragraph}{0}
\setcounter{subparagraph}{0}
\setcounter{figure}{0}
\setcounter{table}{0}
\setcounter{Item}{0}
\setcounter{Hfootnote}{0}
\setcounter{bookmark@seq@number}{8}
\setcounter{parentequation}{0}
\setcounter{lstnumber}{1}
\setcounter{section@level}{1}
\setcounter{lstlisting}{0}
}
