\relax 
\providecommand\hyper@newdestlabel[2]{}
\@writefile{toc}{\contentsline {chapter}{\numberline {2}The basics}{9}{chapter.2}\protected@file@percent }
\@writefile{lof}{\addvspace {10\p@ }}
\@writefile{lot}{\addvspace {10\p@ }}
\newlabel{chap:basics}{{2}{9}{The basics}{chapter.2}{}}
\@writefile{toc}{\contentsline {section}{\numberline {2.1}Introduction}{9}{section.2.1}\protected@file@percent }
\@writefile{lot}{\contentsline {table}{\numberline {2.1}{\ignorespaces A few diverse DSP applications.}}{10}{table.2.1}\protected@file@percent }
\newlabel{tab:DSP_applications}{{2.1}{10}{A few diverse DSP applications}{table.2.1}{}}
\@writefile{toc}{\contentsline {section}{\numberline {2.2}Digital signals}{10}{section.2.2}\protected@file@percent }
\@writefile{toc}{\contentsline {subsection}{\numberline {2.2.1}Signal sampling}{11}{subsection.2.2.1}\protected@file@percent }
\@writefile{lof}{\contentsline {figure}{\numberline {2.1}{\ignorespaces Signal sampling representation. (\small  {source: \href  []{en.wikipedia.org/wiki/File:Signal_Sampling.png}{Wikipedia}}).}}{11}{figure.2.1}\protected@file@percent }
\newlabel{fig:Signal_Sampling}{{2.1}{11}{Signal sampling representation. (\small {source: \href []{en.wikipedia.org/wiki/File:Signal_Sampling.png}{Wikipedia}})}{figure.2.1}{}}
\@writefile{lof}{\contentsline {figure}{\numberline {2.2}{\ignorespaces Graphical representation of a time-discrete signal.}}{12}{figure.2.2}\protected@file@percent }
\newlabel{fig:stem}{{2.2}{12}{Graphical representation of a time-discrete signal}{figure.2.2}{}}
\@writefile{toc}{\contentsline {subsection}{\numberline {2.2.2}Discrete-time signal representation}{12}{subsection.2.2.2}\protected@file@percent }
\newlabel{eq:sampling}{{2.1}{12}{Discrete-time signal representation}{equation.2.2.1}{}}
\newlabel{code:stem}{{2.1}{13}{Matlab script for producing a plot of a discrete-time signal}{lstlisting.2.1}{}}
\@writefile{lol}{\contentsline {lstlisting}{\numberline {2.1}Matlab script for producing a plot of a discrete-time signal.}{13}{lstlisting.2.1}\protected@file@percent }
\newlabel{fig:sequence}{{2.2.2}{13}{Discrete-time signal representation}{equation.2.2.2}{}}
\@writefile{lof}{\contentsline {figure}{\numberline {2.3}{\ignorespaces Graphical representation of a time-discrete signal.}}{13}{figure.2.3}\protected@file@percent }
\newlabel{eq:kron_delta}{{2.2}{13}{Discrete-time signal representation}{equation.2.2.2}{}}
\@writefile{lof}{\contentsline {figure}{\numberline {2.4}{\ignorespaces A continuous sinusoid being quantized with 3-bit resolution (\small  {source: \href  []{en.wikipedia.org/wiki/Quantization_(signal_processing)}{Wikipedia}}).}}{14}{figure.2.4}\protected@file@percent }
\newlabel{fig:quantization}{{2.4}{14}{A continuous sinusoid being quantized with 3-bit resolution (\small {source: \href []{en.wikipedia.org/wiki/Quantization_(signal_processing)}{Wikipedia}})}{figure.2.4}{}}
\newlabel{code:sequence}{{2.2}{14}{Matlab script for producing a plot of a discrete-time signal}{lstlisting.2.2}{}}
\@writefile{lol}{\contentsline {lstlisting}{\numberline {2.2}Matlab script for producing a plot of a discrete-time signal.}{14}{lstlisting.2.2}\protected@file@percent }
\@writefile{toc}{\contentsline {subsection}{\numberline {2.2.3}Quantization}{14}{subsection.2.2.3}\protected@file@percent }
\@writefile{lof}{\contentsline {figure}{\numberline {2.5}{\ignorespaces 3-bit resolution results in an 8-level ADC coding scheme (\small  {source: \href  []{en.wikipedia.org/wiki/Analog-to-digital_converter}{Wikipedia}}).}}{15}{figure.2.5}\protected@file@percent }
\newlabel{fig:ADC_coding}{{2.5}{15}{3-bit resolution results in an 8-level ADC coding scheme (\small {source: \href []{en.wikipedia.org/wiki/Analog-to-digital_converter}{Wikipedia}})}{figure.2.5}{}}
\@writefile{toc}{\contentsline {subsection}{\numberline {2.2.4}Aliasing}{15}{subsection.2.2.4}\protected@file@percent }
\newlabel{eq:Nyquist}{{2.3}{15}{Aliasing}{equation.2.2.3}{}}
\@writefile{lof}{\contentsline {figure}{\numberline {2.6}{\ignorespaces Aliasing: two different sinusoids that fit the same set of samples. (\small  {source: \href  []{en.wikipedia.org/wiki/Aliasing}{Wikipedia}}).}}{16}{figure.2.6}\protected@file@percent }
\newlabel{fig:aliasing}{{2.6}{16}{Aliasing: two different sinusoids that fit the same set of samples. (\small {source: \href []{en.wikipedia.org/wiki/Aliasing}{Wikipedia}})}{figure.2.6}{}}
\@writefile{toc}{\contentsline {section}{\numberline {2.3}Digital signal processing systems}{16}{section.2.3}\protected@file@percent }
\@writefile{lof}{\contentsline {figure}{\numberline {2.7}{\ignorespaces Blockdiagram of the complete DSP system.}}{16}{figure.2.7}\protected@file@percent }
\newlabel{fig:DSP_system}{{2.7}{16}{Blockdiagram of the complete DSP system}{figure.2.7}{}}
\@writefile{toc}{\contentsline {section}{\numberline {2.4}Further reading}{17}{section.2.4}\protected@file@percent }
\@setckpt{Ch01_introduction}{
\setcounter{page}{18}
\setcounter{equation}{3}
\setcounter{enumi}{0}
\setcounter{enumii}{0}
\setcounter{enumiii}{0}
\setcounter{enumiv}{0}
\setcounter{footnote}{0}
\setcounter{mpfootnote}{0}
\setcounter{part}{0}
\setcounter{chapter}{2}
\setcounter{section}{4}
\setcounter{subsection}{0}
\setcounter{subsubsection}{0}
\setcounter{paragraph}{0}
\setcounter{subparagraph}{0}
\setcounter{figure}{7}
\setcounter{table}{1}
\setcounter{Item}{0}
\setcounter{Hfootnote}{0}
\setcounter{bookmark@seq@number}{17}
\setcounter{parentequation}{0}
\setcounter{lstnumber}{9}
\setcounter{section@level}{1}
\setcounter{lstlisting}{2}
}
