\relax 
\providecommand\hyper@newdestlabel[2]{}
\@writefile{toc}{\contentsline {chapter}{\numberline {3}The discrete-time domain}{19}{chapter.3}\protected@file@percent }
\@writefile{lof}{\addvspace {10\p@ }}
\@writefile{lot}{\addvspace {10\p@ }}
\newlabel{chap:discrete-time_domain}{{3}{19}{The discrete-time domain}{chapter.3}{}}
\@writefile{toc}{\contentsline {section}{\numberline {3.1}Introduction}{19}{section.3.1}\protected@file@percent }
\@writefile{lof}{\contentsline {figure}{\numberline {3.1}{\ignorespaces Blockdiagram of a discrete-time filter.}}{19}{figure.3.1}\protected@file@percent }
\newlabel{fig:DT_filter}{{3.1}{19}{Blockdiagram of a discrete-time filter}{figure.3.1}{}}
\@writefile{lot}{\contentsline {table}{\numberline {3.1}{\ignorespaces Basic components of discrete-time filters.}}{20}{table.3.1}\protected@file@percent }
\newlabel{tab:filter_components}{{3.1}{20}{Basic components of discrete-time filters}{table.3.1}{}}
\newlabel{eq:MA_coeff}{{3.1}{20}{Introduction}{equation.3.1.1}{}}
\@writefile{lof}{\contentsline {figure}{\numberline {3.2}{\ignorespaces Blockdiagram of a Moving Average (MA) filter with $P=2$.}}{20}{figure.3.2}\protected@file@percent }
\newlabel{fig:Blockdiagram_MA_filter}{{3.2}{20}{Blockdiagram of a Moving Average (MA) filter with $P=2$}{figure.3.2}{}}
\@writefile{lof}{\contentsline {figure}{\numberline {3.3}{\ignorespaces Response of a Moving Average (MA) filter with $P=2$ to an input sequence.}}{21}{figure.3.3}\protected@file@percent }
\newlabel{fig:Response_MA_filter}{{3.3}{21}{Response of a Moving Average (MA) filter with $P=2$ to an input sequence}{figure.3.3}{}}
\@writefile{toc}{\contentsline {section}{\numberline {3.2}Linear time-invariant (LTI) systems}{21}{section.3.2}\protected@file@percent }
\@writefile{toc}{\contentsline {subsection}{\numberline {3.2.1}Linearity}{21}{subsection.3.2.1}\protected@file@percent }
\@writefile{lof}{\contentsline {figure}{\numberline {3.4}{\ignorespaces A DT filter is linear.}}{21}{figure.3.4}\protected@file@percent }
\newlabel{fig:Linearity}{{3.4}{21}{A DT filter is linear}{figure.3.4}{}}
\@writefile{toc}{\contentsline {subsection}{\numberline {3.2.2}Time-invariance}{22}{subsection.3.2.2}\protected@file@percent }
\@writefile{lof}{\contentsline {figure}{\numberline {3.5}{\ignorespaces A DT filter is time-invariant.}}{22}{figure.3.5}\protected@file@percent }
\newlabel{fig:Time-invariance}{{3.5}{22}{A DT filter is time-invariant}{figure.3.5}{}}
\@writefile{toc}{\contentsline {section}{\numberline {3.3}Difference equations}{22}{section.3.3}\protected@file@percent }
\newlabel{eq:diff_eq}{{3.2}{22}{Difference equations}{equation.3.3.2}{}}
\newlabel{eq:diff_eq_cond}{{3.4}{22}{Difference equations}{equation.3.3.4}{}}
\newlabel{eq:diff_eq_bal}{{3.5}{23}{Difference equations}{equation.3.3.5}{}}
\@writefile{lot}{\contentsline {table}{\numberline {3.2}{\ignorespaces Sample values in a second order MA filter.}}{23}{table.3.2}\protected@file@percent }
\newlabel{tab:MA_filter_content}{{3.2}{23}{Sample values in a second order MA filter}{table.3.2}{}}
\@writefile{toc}{\contentsline {section}{\numberline {3.4}Impulse response and convolution}{24}{section.3.4}\protected@file@percent }
\newlabel{eq:discrete_convolution}{{3.6}{24}{Impulse response and convolution}{equation.3.4.6}{}}
\newlabel{eq:imp_resp}{{3.7}{24}{Impulse response and convolution}{equation.3.4.7}{}}
\@writefile{toc}{\contentsline {subsection}{\numberline {3.4.1}Causality}{24}{subsection.3.4.1}\protected@file@percent }
\@writefile{toc}{\contentsline {subsection}{\numberline {3.4.2}Stability}{25}{subsection.3.4.2}\protected@file@percent }
\newlabel{eq:DT_stability}{{3.8}{25}{Stability}{equation.3.4.8}{}}
\@writefile{toc}{\contentsline {section}{\numberline {3.5}Finite impulse response (FIR) filters}{25}{section.3.5}\protected@file@percent }
\@writefile{lof}{\contentsline {figure}{\numberline {3.6}{\ignorespaces A direct form discrete-time FIR filter of order $P$. The top part is an $P$-stage delay line with $P+1$ taps.}}{26}{figure.3.6}\protected@file@percent }
\newlabel{fig:Blockdiagram_FIR_filter}{{3.6}{26}{A direct form discrete-time FIR filter of order $P$. The top part is an $P$-stage delay line with $P+1$ taps}{figure.3.6}{}}
\newlabel{eq:IR_FIR}{{3.9}{26}{Finite impulse response (FIR) filters}{equation.3.5.9}{}}
\@writefile{lof}{\contentsline {figure}{\numberline {3.7}{\ignorespaces Impulse response of a Moving Average (MA) filter with $P=2$.}}{26}{figure.3.7}\protected@file@percent }
\newlabel{fig:IR_MA_filter}{{3.7}{26}{Impulse response of a Moving Average (MA) filter with $P=2$}{figure.3.7}{}}
\@writefile{toc}{\contentsline {section}{\numberline {3.6}Infinite impulse response (IIR) filters}{27}{section.3.6}\protected@file@percent }
\@writefile{lof}{\contentsline {figure}{\numberline {3.8}{\ignorespaces A direct form discrete-time IIR filter.}}{28}{figure.3.8}\protected@file@percent }
\newlabel{fig:Blockdiagram_IIR_filter}{{3.8}{28}{A direct form discrete-time IIR filter}{figure.3.8}{}}
\@writefile{lof}{\contentsline {figure}{\numberline {3.9}{\ignorespaces Blockdiagram of an IIR high-pass filter.}}{29}{figure.3.9}\protected@file@percent }
\newlabel{fig:Blockdiagram_DC_remover}{{3.9}{29}{Blockdiagram of an IIR high-pass filter}{figure.3.9}{}}
\@writefile{lot}{\contentsline {table}{\numberline {3.3}{\ignorespaces Sample values in an IIR HPF filter.}}{29}{table.3.3}\protected@file@percent }
\@writefile{toc}{\contentsline {section}{\numberline {3.7}Further reading}{29}{section.3.7}\protected@file@percent }
\@writefile{lof}{\contentsline {figure}{\numberline {3.10}{\ignorespaces Impulse response of an IIR high-pass filter, with $a=0.5$.}}{30}{figure.3.10}\protected@file@percent }
\newlabel{fig:IR_DC_remover}{{3.10}{30}{Impulse response of an IIR high-pass filter, with $a=0.5$}{figure.3.10}{}}
\@setckpt{Ch02_DT_systems}{
\setcounter{page}{31}
\setcounter{equation}{9}
\setcounter{enumi}{0}
\setcounter{enumii}{0}
\setcounter{enumiii}{0}
\setcounter{enumiv}{0}
\setcounter{footnote}{0}
\setcounter{mpfootnote}{0}
\setcounter{part}{0}
\setcounter{chapter}{3}
\setcounter{section}{7}
\setcounter{subsection}{0}
\setcounter{subsubsection}{0}
\setcounter{paragraph}{0}
\setcounter{subparagraph}{0}
\setcounter{figure}{10}
\setcounter{table}{3}
\setcounter{Item}{0}
\setcounter{Hfootnote}{0}
\setcounter{bookmark@seq@number}{29}
\setcounter{parentequation}{0}
\setcounter{lstnumber}{9}
\setcounter{section@level}{1}
\setcounter{lstlisting}{0}
}
