\relax 
\providecommand\hyper@newdestlabel[2]{}
\@writefile{toc}{\contentsline {chapter}{\numberline {4}The z-domain}{31}{chapter.4}\protected@file@percent }
\@writefile{lof}{\addvspace {10\p@ }}
\@writefile{lot}{\addvspace {10\p@ }}
\newlabel{chap:z_domain}{{4}{31}{The z-domain}{chapter.4}{}}
\@writefile{toc}{\contentsline {section}{\numberline {4.1}Introduction}{31}{section.4.1}\protected@file@percent }
\@writefile{toc}{\contentsline {section}{\numberline {4.2}The z-transform}{31}{section.4.2}\protected@file@percent }
\newlabel{eq:z_transform}{{4.1}{31}{The z-transform}{equation.4.2.1}{}}
\newlabel{eq:def_z}{{4.2}{31}{The z-transform}{equation.4.2.2}{}}
\@writefile{lot}{\contentsline {table}{\numberline {4.1}{\ignorespaces Properties of the z-transform.}}{32}{table.4.1}\protected@file@percent }
\newlabel{tab:z_transform_properties}{{4.1}{32}{Properties of the z-transform}{table.4.1}{}}
\newlabel{eq:unit_step}{{4.3}{32}{The z-transform}{equation.4.2.3}{}}
\@writefile{lot}{\contentsline {table}{\numberline {4.2}{\ignorespaces z-transform pairs.}}{33}{table.4.2}\protected@file@percent }
\newlabel{tab:z_transform_pairs}{{4.2}{33}{z-transform pairs}{table.4.2}{}}
\@writefile{toc}{\contentsline {section}{\numberline {4.3}Transfer functions}{34}{section.4.3}\protected@file@percent }
\newlabel{eq:transfer_function}{{4.4}{34}{Transfer functions}{equation.4.3.4}{}}
\@writefile{lof}{\contentsline {figure}{\numberline {4.1}{\ignorespaces Blockdiagram of a discrete-time filter.}}{35}{figure.4.1}\protected@file@percent }
\newlabel{fig:DT_filter_z_domain}{{4.1}{35}{Blockdiagram of a discrete-time filter}{figure.4.1}{}}
\@writefile{lot}{\contentsline {table}{\numberline {4.3}{\ignorespaces Basic components of discrete-time filters in the z-domain.}}{35}{table.4.3}\protected@file@percent }
\newlabel{tab:z_filter_components}{{4.3}{35}{Basic components of discrete-time filters in the z-domain}{table.4.3}{}}
\@writefile{lof}{\contentsline {figure}{\numberline {4.2}{\ignorespaces Blockdiagram of an MA filter.}}{36}{figure.4.2}\protected@file@percent }
\newlabel{fig:Blockdiagram_z_MA_filter}{{4.2}{36}{Blockdiagram of an MA filter}{figure.4.2}{}}
\newlabel{eq:TF_MA}{{4.6}{36}{Transfer functions}{equation.4.3.6}{}}
\newlabel{eq:TF_DC_blocker}{{4.7}{36}{Transfer functions}{equation.4.3.7}{}}
\@writefile{lof}{\contentsline {figure}{\numberline {4.3}{\ignorespaces Blockdiagram of an IIR high-pass filter.}}{36}{figure.4.3}\protected@file@percent }
\newlabel{fig:Blockdiagram_z_DC_remover}{{4.3}{36}{Blockdiagram of an IIR high-pass filter}{figure.4.3}{}}
\@writefile{lof}{\contentsline {figure}{\numberline {4.4}{\ignorespaces Blockdiagram of an IIR high-pass filter.}}{37}{figure.4.4}\protected@file@percent }
\newlabel{fig:Blockdiagram_z_Goertzel}{{4.4}{37}{Blockdiagram of an IIR high-pass filter}{figure.4.4}{}}
\@writefile{toc}{\contentsline {section}{\numberline {4.4}The z-plane}{37}{section.4.4}\protected@file@percent }
\newlabel{eq:transfer_function_poles_zeroes}{{4.8}{37}{The z-plane}{equation.4.4.8}{}}
\@writefile{lof}{\contentsline {figure}{\numberline {4.5}{\ignorespaces Pole-zero plot in the complex z-plane of a 3-point MA filter.}}{38}{figure.4.5}\protected@file@percent }
\newlabel{fig:z_plot_MA_filter}{{4.5}{38}{Pole-zero plot in the complex z-plane of a 3-point MA filter}{figure.4.5}{}}
\newlabel{code:MA_zplane}{{4.1}{39}{Matlab script for producing a pole-zero plot of first order IIR filter}{lstlisting.4.1}{}}
\@writefile{lol}{\contentsline {lstlisting}{\numberline {4.1}Matlab script for producing a pole-zero plot of first order IIR filter.}{39}{lstlisting.4.1}\protected@file@percent }
\newlabel{eq:TF_IIR2}{{4.9}{39}{The z-plane}{equation.4.4.9}{}}
\@writefile{lof}{\contentsline {figure}{\numberline {4.6}{\ignorespaces Pole-zero plot in the complex z-plane of an IIR high-pass filter.}}{40}{figure.4.6}\protected@file@percent }
\newlabel{fig:z_plot_DC_remover}{{4.6}{40}{Pole-zero plot in the complex z-plane of an IIR high-pass filter}{figure.4.6}{}}
\newlabel{code:IIR1_zplane}{{4.2}{40}{Matlab script for producing a pole-zero plot of second order filter}{lstlisting.4.2}{}}
\@writefile{lol}{\contentsline {lstlisting}{\numberline {4.2}Matlab script for producing a pole-zero plot of second order filter.}{40}{lstlisting.4.2}\protected@file@percent }
\@writefile{toc}{\contentsline {section}{\numberline {4.5}Return to the time-domain}{40}{section.4.5}\protected@file@percent }
\@writefile{lof}{\contentsline {figure}{\numberline {4.7}{\ignorespaces Pole-zero plot in the complex z-plane of Equation \ref  {eq:TF_IIR2}.}}{41}{figure.4.7}\protected@file@percent }
\newlabel{fig:IIR2_ZP_plot}{{4.7}{41}{Pole-zero plot in the complex z-plane of Equation \ref {eq:TF_IIR2}}{figure.4.7}{}}
\newlabel{code:IIR2_zplane}{{4.3}{41}{Matlab script for producing a pole-zero plot of an MA filter}{lstlisting.4.3}{}}
\@writefile{lol}{\contentsline {lstlisting}{\numberline {4.3}Matlab script for producing a pole-zero plot of an MA filter.}{41}{lstlisting.4.3}\protected@file@percent }
\@writefile{toc}{\contentsline {section}{\numberline {4.6}Stability}{42}{section.4.6}\protected@file@percent }
\@writefile{lof}{\contentsline {figure}{\numberline {4.8}{\ignorespaces Stable and unstable regions for pole locations in the z-plane.}}{43}{figure.4.8}\protected@file@percent }
\newlabel{fig:stability_zplane}{{4.8}{43}{Stable and unstable regions for pole locations in the z-plane}{figure.4.8}{}}
\@writefile{toc}{\contentsline {section}{\numberline {4.7}Further reading}{43}{section.4.7}\protected@file@percent }
\@setckpt{Ch03_Z_domain}{
\setcounter{page}{44}
\setcounter{equation}{9}
\setcounter{enumi}{0}
\setcounter{enumii}{0}
\setcounter{enumiii}{0}
\setcounter{enumiv}{0}
\setcounter{footnote}{0}
\setcounter{mpfootnote}{0}
\setcounter{part}{0}
\setcounter{chapter}{4}
\setcounter{section}{7}
\setcounter{subsection}{0}
\setcounter{subsubsection}{0}
\setcounter{paragraph}{0}
\setcounter{subparagraph}{0}
\setcounter{figure}{8}
\setcounter{table}{3}
\setcounter{Item}{0}
\setcounter{Hfootnote}{0}
\setcounter{bookmark@seq@number}{37}
\setcounter{parentequation}{0}
\setcounter{lstnumber}{1}
\setcounter{section@level}{1}
\setcounter{lstlisting}{3}
}
