\relax 
\providecommand\hyper@newdestlabel[2]{}
\@writefile{toc}{\contentsline {chapter}{\numberline {5}The frequency domain}{45}{chapter.5}\protected@file@percent }
\@writefile{lof}{\addvspace {10\p@ }}
\@writefile{lot}{\addvspace {10\p@ }}
\newlabel{chap:frequency_domain}{{5}{45}{The frequency domain}{chapter.5}{}}
\@writefile{toc}{\contentsline {section}{\numberline {5.1}Introduction}{45}{section.5.1}\protected@file@percent }
\@writefile{toc}{\contentsline {section}{\numberline {5.2}From the z-domain to the frequency domain}{45}{section.5.2}\protected@file@percent }
\newlabel{eq:DTFT_transform}{{5.2}{45}{From the z-domain to the frequency domain}{equation.5.2.2}{}}
\@writefile{lof}{\contentsline {figure}{\numberline {5.1}{\ignorespaces Frequencies in the z-plane.}}{46}{figure.5.1}\protected@file@percent }
\newlabel{fig:z_plane_freq}{{5.1}{46}{Frequencies in the z-plane}{figure.5.1}{}}
\@writefile{lot}{\contentsline {table}{\numberline {5.1}{\ignorespaces Rotating counterclockwise over the unit circle.}}{47}{table.5.1}\protected@file@percent }
\newlabel{tab:z_vs_omega}{{5.1}{47}{Rotating counterclockwise over the unit circle}{table.5.1}{}}
\@writefile{lof}{\contentsline {figure}{\numberline {5.2}{\ignorespaces Example of a signal amplitude spectrum on the fundamental interval (solid lines) and the replicas (dotted lines) of that same spectrum if higher frequencies are considered.}}{47}{figure.5.2}\protected@file@percent }
\newlabel{fig:spectrum_interval}{{5.2}{47}{Example of a signal amplitude spectrum on the fundamental interval (solid lines) and the replicas (dotted lines) of that same spectrum if higher frequencies are considered}{figure.5.2}{}}
\@writefile{toc}{\contentsline {section}{\numberline {5.3}Frequency responses}{47}{section.5.3}\protected@file@percent }
\newlabel{eq:magnitude_from_zp_plot}{{5.4}{47}{Frequency responses}{equation.5.3.4}{}}
\@writefile{lof}{\contentsline {figure}{\numberline {5.3}{\ignorespaces Pole-zero plot of a first-order IIR filter.}}{48}{figure.5.3}\protected@file@percent }
\newlabel{fig:z_plot_DC_remover_pz_distance}{{5.3}{48}{Pole-zero plot of a first-order IIR filter}{figure.5.3}{}}
\@writefile{lof}{\contentsline {figure}{\numberline {5.4}{\ignorespaces Pole-zero plot of a discrete-time system $H(z)$.}}{49}{figure.5.4}\protected@file@percent }
\newlabel{fig:z_plot_exmp1}{{5.4}{49}{Pole-zero plot of a discrete-time system $H(z)$}{figure.5.4}{}}
\newlabel{eq:MA_freq_response}{{5.5}{50}{Frequency responses}{equation.5.3.5}{}}
\newlabel{eq:MA_amp_response}{{5.6}{50}{Frequency responses}{equation.5.3.6}{}}
\@writefile{lof}{\contentsline {figure}{\numberline {5.5}{\ignorespaces MA filter amplitude response vs normalized frequency for various filter orders.}}{51}{figure.5.5}\protected@file@percent }
\newlabel{fig:MA_ampl_response}{{5.5}{51}{MA filter amplitude response vs normalized frequency for various filter orders}{figure.5.5}{}}
\@writefile{lof}{\contentsline {figure}{\numberline {5.6}{\ignorespaces Bode diagram of a second order IIR filter.}}{51}{figure.5.6}\protected@file@percent }
\newlabel{fig:IIR_freqz_plot}{{5.6}{51}{Bode diagram of a second order IIR filter}{figure.5.6}{}}
\@writefile{toc}{\contentsline {section}{\numberline {5.4}Aliasing revisited}{51}{section.5.4}\protected@file@percent }
\@writefile{toc}{\contentsline {subsection}{\numberline {5.4.1}Aliasing frequency}{52}{subsection.5.4.1}\protected@file@percent }
\@writefile{lof}{\contentsline {figure}{\numberline {5.7}{\ignorespaces Two different sinusoids that fit the same set of samples. (\small  {source: \href  []{http://en.wikipedia.org/wiki/Aliasing}{Wikipedia}}).}}{52}{figure.5.7}\protected@file@percent }
\newlabel{eq:aliasing_freqs}{{5.8}{52}{Aliasing frequency}{equation.5.4.8}{}}
\newlabel{code:IIR3_zplane}{{5.1}{52}{Matlab script for producing a frequency plot of an IIR filter}{lstlisting.5.1}{}}
\@writefile{lol}{\contentsline {lstlisting}{\numberline {5.1}Matlab script for producing a frequency plot of an IIR filter.}{52}{lstlisting.5.1}\protected@file@percent }
\@writefile{toc}{\contentsline {subsection}{\numberline {5.4.2}Folding}{53}{subsection.5.4.2}\protected@file@percent }
\@writefile{lof}{\contentsline {figure}{\numberline {5.8}{\ignorespaces Sketch of spectral folding.}}{53}{figure.5.8}\protected@file@percent }
\newlabel{fig:folding}{{5.8}{53}{Sketch of spectral folding}{figure.5.8}{}}
\@writefile{toc}{\contentsline {section}{\numberline {5.5}The discrete Fourier transform (DFT)}{53}{section.5.5}\protected@file@percent }
\newlabel{eq:DFT}{{5.9}{54}{The discrete Fourier transform (DFT)}{equation.5.5.9}{}}
\@writefile{lof}{\contentsline {figure}{\numberline {5.9}{\ignorespaces Sketch of a DFT of a discrete-time signal.}}{54}{figure.5.9}\protected@file@percent }
\newlabel{fig:DFT}{{5.9}{54}{Sketch of a DFT of a discrete-time signal}{figure.5.9}{}}
\@writefile{lof}{\contentsline {figure}{\numberline {5.10}{\ignorespaces Example of a signal corrupted by noise.}}{55}{figure.5.10}\protected@file@percent }
\newlabel{fig:exp_sig_noise}{{5.10}{55}{Example of a signal corrupted by noise}{figure.5.10}{}}
\@writefile{toc}{\contentsline {section}{\numberline {5.6}Return to the time-domain}{55}{section.5.6}\protected@file@percent }
\newlabel{eq:iDFT}{{5.10}{55}{Return to the time-domain}{equation.5.6.10}{}}
\newlabel{code:noisy_FFT}{{5.2}{56}{Matlab script for FFT of a noisy signal {source: \href []{http://nl.mathworks.com/help/matlab/ref/fft.html}{MATLAB}})}{lstlisting.5.2}{}}
\@writefile{lol}{\contentsline {lstlisting}{\numberline {5.2}Matlab script for FFT of a noisy signal {source: \href  []{http://nl.mathworks.com/help/matlab/ref/fft.html}{MATLAB}}).}{56}{lstlisting.5.2}\protected@file@percent }
\@writefile{lof}{\contentsline {figure}{\numberline {5.11}{\ignorespaces Single-sided amplitude spectrum of the signal depicted in Figure \ref  {fig:exp_sig_noise}.}}{57}{figure.5.11}\protected@file@percent }
\newlabel{fig:FFT_exp_sig_noise}{{5.11}{57}{Single-sided amplitude spectrum of the signal depicted in Figure \ref {fig:exp_sig_noise}}{figure.5.11}{}}
\@writefile{toc}{\contentsline {section}{\numberline {5.7}Further reading}{57}{section.5.7}\protected@file@percent }
\@setckpt{Ch04_frequency_domain}{
\setcounter{page}{58}
\setcounter{equation}{10}
\setcounter{enumi}{0}
\setcounter{enumii}{0}
\setcounter{enumiii}{0}
\setcounter{enumiv}{0}
\setcounter{footnote}{0}
\setcounter{mpfootnote}{0}
\setcounter{part}{0}
\setcounter{chapter}{5}
\setcounter{section}{7}
\setcounter{subsection}{0}
\setcounter{subsubsection}{0}
\setcounter{paragraph}{0}
\setcounter{subparagraph}{0}
\setcounter{figure}{11}
\setcounter{table}{1}
\setcounter{Item}{0}
\setcounter{Hfootnote}{0}
\setcounter{bookmark@seq@number}{47}
\setcounter{parentequation}{0}
\setcounter{lstnumber}{33}
\setcounter{section@level}{1}
\setcounter{lstlisting}{2}
}
