\relax 
\providecommand\hyper@newdestlabel[2]{}
\@writefile{toc}{\contentsline {chapter}{\numberline {6}Discrete-time filter design}{59}{chapter.6}\protected@file@percent }
\@writefile{lof}{\addvspace {10\p@ }}
\@writefile{lot}{\addvspace {10\p@ }}
\newlabel{chap:filter_design}{{6}{59}{Discrete-time filter design}{chapter.6}{}}
\@writefile{toc}{\contentsline {section}{\numberline {6.1}Introduction}{59}{section.6.1}\protected@file@percent }
\@writefile{toc}{\contentsline {subsubsection}{Frequency response}{60}{section*.1}\protected@file@percent }
\@writefile{toc}{\contentsline {subsubsection}{Phase and group delay}{60}{section*.2}\protected@file@percent }
\@writefile{lof}{\contentsline {figure}{\numberline {6.1}{\ignorespaces Bands in the frequency response of a low-pass filter. (\small  {source: \href  []{http://en.wikipedia.org/wiki/Transition_band}{Wikipedia}})}}{60}{figure.6.1}\protected@file@percent }
\newlabel{fig:filter_bands}{{6.1}{60}{Bands in the frequency response of a low-pass filter. (\small {source: \href []{http://en.wikipedia.org/wiki/Transition_band}{Wikipedia}})}{figure.6.1}{}}
\@writefile{lof}{\contentsline {figure}{\numberline {6.2}{\ignorespaces Practical (blue) and ideal (red) response of a low-pass filter. (\small  {source: \href  []{http://nl.mathworks.com/help/signal/filter-design.html}{MATLAB} })}}{61}{figure.6.2}\protected@file@percent }
\newlabel{fig:non_ideal_filter_bands}{{6.2}{61}{Practical (blue) and ideal (red) response of a low-pass filter. (\small {source: \href []{http://nl.mathworks.com/help/signal/filter-design.html}{MATLAB} })}{figure.6.2}{}}
\@writefile{toc}{\contentsline {subsubsection}{Causality}{61}{section*.3}\protected@file@percent }
\@writefile{toc}{\contentsline {subsubsection}{Stability}{61}{section*.4}\protected@file@percent }
\@writefile{lof}{\contentsline {figure}{\numberline {6.3}{\ignorespaces Filter design triangle. (\small  {source: \href  []{http://nl.mathworks.com/help/signal/filter-design.html}{MATLAB} })}}{62}{figure.6.3}\protected@file@percent }
\newlabel{fig:design_triangle}{{6.3}{62}{Filter design triangle. (\small {source: \href []{http://nl.mathworks.com/help/signal/filter-design.html}{MATLAB} })}{figure.6.3}{}}
\@writefile{toc}{\contentsline {subsubsection}{Locality}{62}{section*.5}\protected@file@percent }
\@writefile{toc}{\contentsline {subsubsection}{Computational complexity}{62}{section*.6}\protected@file@percent }
\@writefile{toc}{\contentsline {section}{\numberline {6.2}FIR filter design}{62}{section.6.2}\protected@file@percent }
\@writefile{toc}{\contentsline {subsection}{\numberline {6.2.1}Window design method}{62}{subsection.6.2.1}\protected@file@percent }
\@writefile{lof}{\contentsline {figure}{\numberline {6.4}{\ignorespaces Impulse response of a low-pass FIR filter example.}}{63}{figure.6.4}\protected@file@percent }
\newlabel{fig:sync_filter_imp}{{6.4}{63}{Impulse response of a low-pass FIR filter example}{figure.6.4}{}}
\@writefile{lof}{\contentsline {figure}{\numberline {6.5}{\ignorespaces Impulse response of a low-pass FIR filter example.}}{64}{figure.6.5}\protected@file@percent }
\newlabel{fig:sync_filter_freq}{{6.5}{64}{Impulse response of a low-pass FIR filter example}{figure.6.5}{}}
\newlabel{code:sync_FIR}{{6.1}{64}{Matlab script for windowed sync FIR filter design}{lstlisting.6.1}{}}
\@writefile{lol}{\contentsline {lstlisting}{\numberline {6.1}Matlab script for windowed sync FIR filter design.}{64}{lstlisting.6.1}\protected@file@percent }
\@writefile{lof}{\contentsline {figure}{\numberline {6.6}{\ignorespaces Example of a filter designed by the Parks–McClellan algorithm. (\small  {source: \href  []{http://en.wikipedia.org/wiki/Parks\%E2\%80\%93McClellan_filter_design_algorithm}{Wikipedia}})}}{65}{figure.6.6}\protected@file@percent }
\newlabel{fig:PM_algorithm}{{6.6}{65}{Example of a filter designed by the Parks–McClellan algorithm. (\small {source: \href []{http://en.wikipedia.org/wiki/Parks\%E2\%80\%93McClellan_filter_design_algorithm}{Wikipedia}})}{figure.6.6}{}}
\@writefile{toc}{\contentsline {subsection}{\numberline {6.2.2}Parks-McClellan method}{65}{subsection.6.2.2}\protected@file@percent }
\@writefile{lof}{\contentsline {figure}{\numberline {6.7}{\ignorespaces Example response of an equiripple LPF.}}{66}{figure.6.7}\protected@file@percent }
\newlabel{fig:designfilt_FIR}{{6.7}{66}{Example response of an equiripple LPF}{figure.6.7}{}}
\newlabel{code:PM_FIR}{{6.2}{66}{Matlab script for equiripple FIR filter design}{lstlisting.6.2}{}}
\@writefile{lol}{\contentsline {lstlisting}{\numberline {6.2}Matlab script for equiripple FIR filter design.}{66}{lstlisting.6.2}\protected@file@percent }
\@writefile{toc}{\contentsline {subsection}{\numberline {6.2.3}Implementation}{67}{subsection.6.2.3}\protected@file@percent }
\@writefile{lof}{\contentsline {figure}{\numberline {6.8}{\ignorespaces Example of a circular buffer for $N=8$. The pointer points to the oldest sample, which will be overwritten when a new one arrives.}}{67}{figure.6.8}\protected@file@percent }
\newlabel{fig:ring_buffer}{{6.8}{67}{Example of a circular buffer for $N=8$. The pointer points to the oldest sample, which will be overwritten when a new one arrives}{figure.6.8}{}}
\@writefile{toc}{\contentsline {section}{\numberline {6.3}IIR filter design}{67}{section.6.3}\protected@file@percent }
\newlabel{code:FIR}{{6.3}{68}{FIR filter code snippet utilizing a circular buffer}{lstlisting.6.3}{}}
\@writefile{lol}{\contentsline {lstlisting}{\numberline {6.3}FIR filter code snippet utilizing a circular buffer.}{68}{lstlisting.6.3}\protected@file@percent }
\newlabel{fig:from_s_to_z_plane}{{6.3.1}{69}{Bilinear transform}{subsection.6.3.1}{}}
\@writefile{lof}{\contentsline {figure}{\numberline {6.9}{\ignorespaces From s-plane to the z-plane.}}{69}{figure.6.9}\protected@file@percent }
\@writefile{toc}{\contentsline {subsection}{\numberline {6.3.1}Bilinear transform}{69}{subsection.6.3.1}\protected@file@percent }
\newlabel{eq:bilinear_transform}{{6.3}{69}{Bilinear transform}{equation.6.3.3}{}}
\@writefile{lof}{\contentsline {figure}{\numberline {6.10}{\ignorespaces Series RC circuit. (\small  {source: \href  []{http://en.wikipedia.org/wiki/RC_circuit}{Wikipedia}})}}{70}{figure.6.10}\protected@file@percent }
\newlabel{fig:RC_circuit}{{6.10}{70}{Series RC circuit. (\small {source: \href []{http://en.wikipedia.org/wiki/RC_circuit}{Wikipedia}})}{figure.6.10}{}}
\@writefile{toc}{\contentsline {subsubsection}{Frequency warping}{70}{section*.7}\protected@file@percent }
\newlabel{eq:warping}{{6.4}{71}{Frequency warping}{equation.6.3.4}{}}
\newlabel{eq:_modified_bilinear_transform}{{6.5}{71}{Frequency warping}{equation.6.3.5}{}}
\@writefile{toc}{\contentsline {subsection}{\numberline {6.3.2}Digital biquad filters}{71}{subsection.6.3.2}\protected@file@percent }
\newlabel{code:IIR_design}{{6.4}{72}{Matlab script for Butterworth IIR filter design}{lstlisting.6.4}{}}
\@writefile{lol}{\contentsline {lstlisting}{\numberline {6.4}Matlab script for Butterworth IIR filter design.}{72}{lstlisting.6.4}\protected@file@percent }
\@writefile{lof}{\contentsline {figure}{\numberline {6.11}{\ignorespaces Example responses of several filter templates. (\small  {source: \href  []{http://nl.mathworks.com/help/signal/filter-design.html}{MATLAB}})}}{72}{figure.6.11}\protected@file@percent }
\newlabel{fig:designfilt_IIR_comparison}{{6.11}{72}{Example responses of several filter templates. (\small {source: \href []{http://nl.mathworks.com/help/signal/filter-design.html}{MATLAB}})}{figure.6.11}{}}
\newlabel{eq:biquad}{{6.6}{72}{Digital biquad filters}{equation.6.3.6}{}}
\@writefile{lof}{\contentsline {figure}{\numberline {6.12}{\ignorespaces Pole-zero plot of a Biquad filter.}}{73}{figure.6.12}\protected@file@percent }
\newlabel{code:biquad}{{6.5}{74}{Biquad filter code snippet}{lstlisting.6.5}{}}
\@writefile{lol}{\contentsline {lstlisting}{\numberline {6.5}Biquad filter code snippet.}{74}{lstlisting.6.5}\protected@file@percent }
\@writefile{toc}{\contentsline {subsection}{\numberline {6.3.3}Implementation}{74}{subsection.6.3.3}\protected@file@percent }
\@writefile{toc}{\contentsline {section}{\numberline {6.4}Further reading}{74}{section.6.4}\protected@file@percent }
\@writefile{lof}{\contentsline {figure}{\numberline {6.13}{\ignorespaces DF I (left) and DF II (right) implementations of a biquad filter.}}{74}{figure.6.13}\protected@file@percent }
\newlabel{fig:biquad_DF}{{6.13}{74}{DF I (left) and DF II (right) implementations of a biquad filter}{figure.6.13}{}}
\@setckpt{Ch05_filter_design}{
\setcounter{page}{76}
\setcounter{equation}{6}
\setcounter{enumi}{0}
\setcounter{enumii}{0}
\setcounter{enumiii}{0}
\setcounter{enumiv}{0}
\setcounter{footnote}{0}
\setcounter{mpfootnote}{0}
\setcounter{part}{0}
\setcounter{chapter}{6}
\setcounter{section}{4}
\setcounter{subsection}{0}
\setcounter{subsubsection}{0}
\setcounter{paragraph}{0}
\setcounter{subparagraph}{0}
\setcounter{figure}{13}
\setcounter{table}{0}
\setcounter{Item}{0}
\setcounter{Hfootnote}{0}
\setcounter{bookmark@seq@number}{58}
\setcounter{parentequation}{0}
\setcounter{lstnumber}{10}
\setcounter{section@level}{1}
\setcounter{lstlisting}{5}
}
