%!PS-Adobe-3.0 EPSF-3.0
%%Creator: (MATLAB, The Mathworks, Inc. Version 9.3.0.713579 \(R2017b\). Operating System: Windows 10)
%%Title: C:/surfdrive/HAN/DSPIPS/Material/DSPIPS_workshopNotes/figures/IIR_freqz.eps
%%CreationDate: 2019-01-09T11:03:44
%%Pages: (atend)
%%BoundingBox: 0 0 420 315
%%LanguageLevel: 3
%%EndComments
%%BeginProlog
%%BeginResource: procset (Apache XML Graphics Std ProcSet) 1.2 0
%%Version: 1.2 0
%%Copyright: (Copyright 2001-2003,2010 The Apache Software Foundation. License terms: http://www.apache.org/licenses/LICENSE-2.0)
/bd{bind def}bind def
/ld{load def}bd
/GR/grestore ld
/GS/gsave ld
/RM/rmoveto ld
/C/curveto ld
/t/show ld
/L/lineto ld
/ML/setmiterlimit ld
/CT/concat ld
/f/fill ld
/N/newpath ld
/S/stroke ld
/CC/setcmykcolor ld
/A/ashow ld
/cp/closepath ld
/RC/setrgbcolor ld
/LJ/setlinejoin ld
/GC/setgray ld
/LW/setlinewidth ld
/M/moveto ld
/re {4 2 roll M
1 index 0 rlineto
0 exch rlineto
neg 0 rlineto
cp } bd
/_ctm matrix def
/_tm matrix def
/BT { _ctm currentmatrix pop matrix _tm copy pop 0 0 moveto } bd
/ET { _ctm setmatrix } bd
/iTm { _ctm setmatrix _tm concat } bd
/Tm { _tm astore pop iTm 0 0 moveto } bd
/ux 0.0 def
/uy 0.0 def
/F {
  /Tp exch def
  /Tf exch def
  Tf findfont Tp scalefont setfont
  /cf Tf def  /cs Tp def
} bd
/ULS {currentpoint /uy exch def /ux exch def} bd
/ULE {
  /Tcx currentpoint pop def
  gsave
  newpath
  cf findfont cs scalefont dup
  /FontMatrix get 0 get /Ts exch def /FontInfo get dup
  /UnderlinePosition get Ts mul /To exch def
  /UnderlineThickness get Ts mul /Tt exch def
  ux uy To add moveto  Tcx uy To add lineto
  Tt setlinewidth stroke
  grestore
} bd
/OLE {
  /Tcx currentpoint pop def
  gsave
  newpath
  cf findfont cs scalefont dup
  /FontMatrix get 0 get /Ts exch def /FontInfo get dup
  /UnderlinePosition get Ts mul /To exch def
  /UnderlineThickness get Ts mul /Tt exch def
  ux uy To add cs add moveto Tcx uy To add cs add lineto
  Tt setlinewidth stroke
  grestore
} bd
/SOE {
  /Tcx currentpoint pop def
  gsave
  newpath
  cf findfont cs scalefont dup
  /FontMatrix get 0 get /Ts exch def /FontInfo get dup
  /UnderlinePosition get Ts mul /To exch def
  /UnderlineThickness get Ts mul /Tt exch def
  ux uy To add cs 10 mul 26 idiv add moveto Tcx uy To add cs 10 mul 26 idiv add lineto
  Tt setlinewidth stroke
  grestore
} bd
/QT {
/Y22 exch store
/X22 exch store
/Y21 exch store
/X21 exch store
currentpoint
/Y21 load 2 mul add 3 div exch
/X21 load 2 mul add 3 div exch
/X21 load 2 mul /X22 load add 3 div
/Y21 load 2 mul /Y22 load add 3 div
/X22 load /Y22 load curveto
} bd
/SSPD {
dup length /d exch dict def
{
/v exch def
/k exch def
currentpagedevice k known {
/cpdv currentpagedevice k get def
v cpdv ne {
/upd false def
/nullv v type /nulltype eq def
/nullcpdv cpdv type /nulltype eq def
nullv nullcpdv or
{
/upd true def
} {
/sametype v type cpdv type eq def
sametype {
v type /arraytype eq {
/vlen v length def
/cpdvlen cpdv length def
vlen cpdvlen eq {
0 1 vlen 1 sub {
/i exch def
/obj v i get def
/cpdobj cpdv i get def
obj cpdobj ne {
/upd true def
exit
} if
} for
} {
/upd true def
} ifelse
} {
v type /dicttype eq {
v {
/dv exch def
/dk exch def
/cpddv cpdv dk get def
dv cpddv ne {
/upd true def
exit
} if
} forall
} {
/upd true def
} ifelse
} ifelse
} if
} ifelse
upd true eq {
d k v put
} if
} if
} if
} forall
d length 0 gt {
d setpagedevice
} if
} bd
/RE { % /NewFontName [NewEncodingArray] /FontName RE -
  findfont dup length dict begin
  {
    1 index /FID ne
    {def} {pop pop} ifelse
  } forall
  /Encoding exch def
  /FontName 1 index def
  currentdict definefont pop
  end
} bind def
%%EndResource
%%BeginResource: procset (Apache XML Graphics EPS ProcSet) 1.0 0
%%Version: 1.0 0
%%Copyright: (Copyright 2002-2003 The Apache Software Foundation. License terms: http://www.apache.org/licenses/LICENSE-2.0)
/BeginEPSF { %def
/b4_Inc_state save def         % Save state for cleanup
/dict_count countdictstack def % Count objects on dict stack
/op_count count 1 sub def      % Count objects on operand stack
userdict begin                 % Push userdict on dict stack
/showpage { } def              % Redefine showpage, { } = null proc
0 setgray 0 setlinecap         % Prepare graphics state
1 setlinewidth 0 setlinejoin
10 setmiterlimit [ ] 0 setdash newpath
/languagelevel where           % If level not equal to 1 then
{pop languagelevel             % set strokeadjust and
1 ne                           % overprint to their defaults.
{false setstrokeadjust false setoverprint
} if
} if
} bd
/EndEPSF { %def
count op_count sub {pop} repeat            % Clean up stacks
countdictstack dict_count sub {end} repeat
b4_Inc_state restore
} bd
%%EndResource
%FOPBeginFontDict
%%IncludeResource: font Courier-Oblique
%%IncludeResource: font Courier-BoldOblique
%%IncludeResource: font Courier-Bold
%%IncludeResource: font ZapfDingbats
%%IncludeResource: font Symbol
%%IncludeResource: font Helvetica
%%IncludeResource: font Helvetica-Oblique
%%IncludeResource: font Helvetica-Bold
%%IncludeResource: font Helvetica-BoldOblique
%%IncludeResource: font Times-Roman
%%IncludeResource: font Times-Italic
%%IncludeResource: font Times-Bold
%%IncludeResource: font Times-BoldItalic
%%IncludeResource: font Courier
%FOPEndFontDict
%%BeginResource: encoding WinAnsiEncoding
/WinAnsiEncoding [
/.notdef /.notdef /.notdef /.notdef /.notdef
/.notdef /.notdef /.notdef /.notdef /.notdef
/.notdef /.notdef /.notdef /.notdef /.notdef
/.notdef /.notdef /.notdef /.notdef /.notdef
/.notdef /.notdef /.notdef /.notdef /.notdef
/.notdef /.notdef /.notdef /.notdef /.notdef
/.notdef /.notdef /space /exclam /quotedbl
/numbersign /dollar /percent /ampersand /quotesingle
/parenleft /parenright /asterisk /plus /comma
/hyphen /period /slash /zero /one
/two /three /four /five /six
/seven /eight /nine /colon /semicolon
/less /equal /greater /question /at
/A /B /C /D /E
/F /G /H /I /J
/K /L /M /N /O
/P /Q /R /S /T
/U /V /W /X /Y
/Z /bracketleft /backslash /bracketright /asciicircum
/underscore /quoteleft /a /b /c
/d /e /f /g /h
/i /j /k /l /m
/n /o /p /q /r
/s /t /u /v /w
/x /y /z /braceleft /bar
/braceright /asciitilde /bullet /Euro /bullet
/quotesinglbase /florin /quotedblbase /ellipsis /dagger
/daggerdbl /circumflex /perthousand /Scaron /guilsinglleft
/OE /bullet /Zcaron /bullet /bullet
/quoteleft /quoteright /quotedblleft /quotedblright /bullet
/endash /emdash /asciitilde /trademark /scaron
/guilsinglright /oe /bullet /zcaron /Ydieresis
/space /exclamdown /cent /sterling /currency
/yen /brokenbar /section /dieresis /copyright
/ordfeminine /guillemotleft /logicalnot /sfthyphen /registered
/macron /degree /plusminus /twosuperior /threesuperior
/acute /mu /paragraph /middot /cedilla
/onesuperior /ordmasculine /guillemotright /onequarter /onehalf
/threequarters /questiondown /Agrave /Aacute /Acircumflex
/Atilde /Adieresis /Aring /AE /Ccedilla
/Egrave /Eacute /Ecircumflex /Edieresis /Igrave
/Iacute /Icircumflex /Idieresis /Eth /Ntilde
/Ograve /Oacute /Ocircumflex /Otilde /Odieresis
/multiply /Oslash /Ugrave /Uacute /Ucircumflex
/Udieresis /Yacute /Thorn /germandbls /agrave
/aacute /acircumflex /atilde /adieresis /aring
/ae /ccedilla /egrave /eacute /ecircumflex
/edieresis /igrave /iacute /icircumflex /idieresis
/eth /ntilde /ograve /oacute /ocircumflex
/otilde /odieresis /divide /oslash /ugrave
/uacute /ucircumflex /udieresis /yacute /thorn
/ydieresis
] def
%%EndResource
%FOPBeginFontReencode
/Courier-Oblique findfont
dup length dict begin
  {1 index /FID ne {def} {pop pop} ifelse} forall
  /Encoding WinAnsiEncoding def
  currentdict
end
/Courier-Oblique exch definefont pop
/Courier-BoldOblique findfont
dup length dict begin
  {1 index /FID ne {def} {pop pop} ifelse} forall
  /Encoding WinAnsiEncoding def
  currentdict
end
/Courier-BoldOblique exch definefont pop
/Courier-Bold findfont
dup length dict begin
  {1 index /FID ne {def} {pop pop} ifelse} forall
  /Encoding WinAnsiEncoding def
  currentdict
end
/Courier-Bold exch definefont pop
/Helvetica findfont
dup length dict begin
  {1 index /FID ne {def} {pop pop} ifelse} forall
  /Encoding WinAnsiEncoding def
  currentdict
end
/Helvetica exch definefont pop
/Helvetica-Oblique findfont
dup length dict begin
  {1 index /FID ne {def} {pop pop} ifelse} forall
  /Encoding WinAnsiEncoding def
  currentdict
end
/Helvetica-Oblique exch definefont pop
/Helvetica-Bold findfont
dup length dict begin
  {1 index /FID ne {def} {pop pop} ifelse} forall
  /Encoding WinAnsiEncoding def
  currentdict
end
/Helvetica-Bold exch definefont pop
/Helvetica-BoldOblique findfont
dup length dict begin
  {1 index /FID ne {def} {pop pop} ifelse} forall
  /Encoding WinAnsiEncoding def
  currentdict
end
/Helvetica-BoldOblique exch definefont pop
/Times-Roman findfont
dup length dict begin
  {1 index /FID ne {def} {pop pop} ifelse} forall
  /Encoding WinAnsiEncoding def
  currentdict
end
/Times-Roman exch definefont pop
/Times-Italic findfont
dup length dict begin
  {1 index /FID ne {def} {pop pop} ifelse} forall
  /Encoding WinAnsiEncoding def
  currentdict
end
/Times-Italic exch definefont pop
/Times-Bold findfont
dup length dict begin
  {1 index /FID ne {def} {pop pop} ifelse} forall
  /Encoding WinAnsiEncoding def
  currentdict
end
/Times-Bold exch definefont pop
/Times-BoldItalic findfont
dup length dict begin
  {1 index /FID ne {def} {pop pop} ifelse} forall
  /Encoding WinAnsiEncoding def
  currentdict
end
/Times-BoldItalic exch definefont pop
/Courier findfont
dup length dict begin
  {1 index /FID ne {def} {pop pop} ifelse} forall
  /Encoding WinAnsiEncoding def
  currentdict
end
/Courier exch definefont pop
%FOPEndFontReencode
%%EndProlog
%%Page: 1 1
%%PageBoundingBox: 0 0 420 315
%%BeginPageSetup
[1 0 0 -1 0 315] CT
%%EndPageSetup
GS
[0.6 0 0 0.6 0 0] CT
1 GC
N
0 0 700 525 re
f
GR
GS
[0.6 0 0 0.6 0 0] CT
1 GC
N
0 0 700 525 re
f
GR
GS
[0.6 0 0 0.6 0 0] CT
1 GC
N
91 467 M
634 467 L
634 288 L
91 288 L
cp
f
GR
GS
[0.6 0 0 0.6 0 0] CT
0.873 GC
1 LJ
0.833 LW
N
91 467 M
91 288 L
S
GR
GS
[0.6 0 0 0.6 0 0] CT
0.873 GC
1 LJ
0.833 LW
N
145.3 467 M
145.3 288 L
S
GR
GS
[0.6 0 0 0.6 0 0] CT
0.873 GC
1 LJ
0.833 LW
N
199.6 467 M
199.6 288 L
S
GR
GS
[0.6 0 0 0.6 0 0] CT
0.873 GC
1 LJ
0.833 LW
N
253.9 467 M
253.9 288 L
S
GR
GS
[0.6 0 0 0.6 0 0] CT
0.873 GC
1 LJ
0.833 LW
N
308.2 467 M
308.2 288 L
S
GR
GS
[0.6 0 0 0.6 0 0] CT
0.873 GC
1 LJ
0.833 LW
N
362.5 467 M
362.5 288 L
S
GR
GS
[0.6 0 0 0.6 0 0] CT
0.873 GC
1 LJ
0.833 LW
N
416.8 467 M
416.8 288 L
S
GR
GS
[0.6 0 0 0.6 0 0] CT
0.873 GC
1 LJ
0.833 LW
N
471.1 467 M
471.1 288 L
S
GR
GS
[0.6 0 0 0.6 0 0] CT
0.873 GC
1 LJ
0.833 LW
N
525.4 467 M
525.4 288 L
S
GR
GS
[0.6 0 0 0.6 0 0] CT
0.873 GC
1 LJ
0.833 LW
N
579.7 467 M
579.7 288 L
S
GR
GS
[0.6 0 0 0.6 0 0] CT
0.873 GC
1 LJ
0.833 LW
N
634 467 M
634 288 L
S
GR
GS
[0.6 0 0 0.6 0 0] CT
0.873 GC
1 LJ
0.833 LW
N
634 467 M
91 467 L
S
GR
GS
[0.6 0 0 0.6 0 0] CT
0.873 GC
1 LJ
0.833 LW
N
634 422.25 M
91 422.25 L
S
GR
GS
[0.6 0 0 0.6 0 0] CT
0.873 GC
1 LJ
0.833 LW
N
634 377.5 M
91 377.5 L
S
GR
GS
[0.6 0 0 0.6 0 0] CT
0.873 GC
1 LJ
0.833 LW
N
634 332.75 M
91 332.75 L
S
GR
GS
[0.6 0 0 0.6 0 0] CT
0.873 GC
1 LJ
0.833 LW
N
634 288 M
91 288 L
S
GR
GS
[0.6 0 0 0.6 0 0] CT
0.149 GC
2 setlinecap
1 LJ
0.833 LW
N
91 467 M
634 467 L
S
GR
GS
[0.6 0 0 0.6 0 0] CT
0.149 GC
2 setlinecap
1 LJ
0.833 LW
N
91 288 M
634 288 L
S
GR
GS
[0.6 0 0 0.6 0 0] CT
0.149 GC
2 setlinecap
1 LJ
0.833 LW
N
91 467 M
91 461.57 L
S
GR
GS
[0.6 0 0 0.6 0 0] CT
0.149 GC
2 setlinecap
1 LJ
0.833 LW
N
145.3 467 M
145.3 461.57 L
S
GR
GS
[0.6 0 0 0.6 0 0] CT
0.149 GC
2 setlinecap
1 LJ
0.833 LW
N
199.6 467 M
199.6 461.57 L
S
GR
GS
[0.6 0 0 0.6 0 0] CT
0.149 GC
2 setlinecap
1 LJ
0.833 LW
N
253.9 467 M
253.9 461.57 L
S
GR
GS
[0.6 0 0 0.6 0 0] CT
0.149 GC
2 setlinecap
1 LJ
0.833 LW
N
308.2 467 M
308.2 461.57 L
S
GR
GS
[0.6 0 0 0.6 0 0] CT
0.149 GC
2 setlinecap
1 LJ
0.833 LW
N
362.5 467 M
362.5 461.57 L
S
GR
GS
[0.6 0 0 0.6 0 0] CT
0.149 GC
2 setlinecap
1 LJ
0.833 LW
N
416.8 467 M
416.8 461.57 L
S
GR
GS
[0.6 0 0 0.6 0 0] CT
0.149 GC
2 setlinecap
1 LJ
0.833 LW
N
471.1 467 M
471.1 461.57 L
S
GR
GS
[0.6 0 0 0.6 0 0] CT
0.149 GC
2 setlinecap
1 LJ
0.833 LW
N
525.4 467 M
525.4 461.57 L
S
GR
GS
[0.6 0 0 0.6 0 0] CT
0.149 GC
2 setlinecap
1 LJ
0.833 LW
N
579.7 467 M
579.7 461.57 L
S
GR
GS
[0.6 0 0 0.6 0 0] CT
0.149 GC
2 setlinecap
1 LJ
0.833 LW
N
634 467 M
634 461.57 L
S
GR
GS
[0.6 0 0 0.6 0 0] CT
0.149 GC
2 setlinecap
1 LJ
0.833 LW
N
91 288 M
91 293.43 L
S
GR
GS
[0.6 0 0 0.6 0 0] CT
0.149 GC
2 setlinecap
1 LJ
0.833 LW
N
145.3 288 M
145.3 293.43 L
S
GR
GS
[0.6 0 0 0.6 0 0] CT
0.149 GC
2 setlinecap
1 LJ
0.833 LW
N
199.6 288 M
199.6 293.43 L
S
GR
GS
[0.6 0 0 0.6 0 0] CT
0.149 GC
2 setlinecap
1 LJ
0.833 LW
N
253.9 288 M
253.9 293.43 L
S
GR
GS
[0.6 0 0 0.6 0 0] CT
0.149 GC
2 setlinecap
1 LJ
0.833 LW
N
308.2 288 M
308.2 293.43 L
S
GR
GS
[0.6 0 0 0.6 0 0] CT
0.149 GC
2 setlinecap
1 LJ
0.833 LW
N
362.5 288 M
362.5 293.43 L
S
GR
GS
[0.6 0 0 0.6 0 0] CT
0.149 GC
2 setlinecap
1 LJ
0.833 LW
N
416.8 288 M
416.8 293.43 L
S
GR
GS
[0.6 0 0 0.6 0 0] CT
0.149 GC
2 setlinecap
1 LJ
0.833 LW
N
471.1 288 M
471.1 293.43 L
S
GR
GS
[0.6 0 0 0.6 0 0] CT
0.149 GC
2 setlinecap
1 LJ
0.833 LW
N
525.4 288 M
525.4 293.43 L
S
GR
GS
[0.6 0 0 0.6 0 0] CT
0.149 GC
2 setlinecap
1 LJ
0.833 LW
N
579.7 288 M
579.7 293.43 L
S
GR
GS
[0.6 0 0 0.6 0 0] CT
0.149 GC
2 setlinecap
1 LJ
0.833 LW
N
634 288 M
634 293.43 L
S
GR
GS
[0.6 0 0 0.6 54.6 284.19999] CT
0.149 GC
/Helvetica 16.667 F
GS
[1 0 0 1 0 0] CT
-5 17 moveto 
1 -1 scale
(0) t 
GR
GR
GS
[0.6 0 0 0.6 87.18 284.19999] CT
0.149 GC
/Helvetica 16.667 F
GS
[1 0 0 1 0 0] CT
-12 17 moveto 
1 -1 scale
(0.1) t 
GR
GR
GS
[0.6 0 0 0.6 119.76 284.19999] CT
0.149 GC
/Helvetica 16.667 F
GS
[1 0 0 1 0 0] CT
-12 17 moveto 
1 -1 scale
(0.2) t 
GR
GR
GS
[0.6 0 0 0.6 152.34001 284.19999] CT
0.149 GC
/Helvetica 16.667 F
GS
[1 0 0 1 0 0] CT
-12 17 moveto 
1 -1 scale
(0.3) t 
GR
GR
GS
[0.6 0 0 0.6 184.92001 284.19999] CT
0.149 GC
/Helvetica 16.667 F
GS
[1 0 0 1 0 0] CT
-12 17 moveto 
1 -1 scale
(0.4) t 
GR
GR
GS
[0.6 0 0 0.6 217.5 284.19999] CT
0.149 GC
/Helvetica 16.667 F
GS
[1 0 0 1 0 0] CT
-12 17 moveto 
1 -1 scale
(0.5) t 
GR
GR
GS
[0.6 0 0 0.6 250.08001 284.19999] CT
0.149 GC
/Helvetica 16.667 F
GS
[1 0 0 1 0 0] CT
-12 17 moveto 
1 -1 scale
(0.6) t 
GR
GR
GS
[0.6 0 0 0.6 282.66 284.19999] CT
0.149 GC
/Helvetica 16.667 F
GS
[1 0 0 1 0 0] CT
-12 17 moveto 
1 -1 scale
(0.7) t 
GR
GR
GS
[0.6 0 0 0.6 315.24001 284.19999] CT
0.149 GC
/Helvetica 16.667 F
GS
[1 0 0 1 0 0] CT
-12 17 moveto 
1 -1 scale
(0.8) t 
GR
GR
GS
[0.6 0 0 0.6 347.82001 284.19999] CT
0.149 GC
/Helvetica 16.667 F
GS
[1 0 0 1 0 0] CT
-12 17 moveto 
1 -1 scale
(0.9) t 
GR
GR
GS
[0.6 0 0 0.6 380.4 284.19999] CT
0.149 GC
/Helvetica 16.667 F
GS
[1 0 0 1 0 0] CT
-5 17 moveto 
1 -1 scale
(1) t 
GR
GR
GS
[0.6 0 0 0.6 118.8 309] CT
0.149 GC
/Helvetica 18.333 F
GS
[1 0 0 1 0 0] CT
0 0 moveto 
1 -1 scale
(Normalized Frequency  \() t 
GR
GR
GS
[0.6 0 0 0.6 239.4 309] CT
0.149 GC
N
2.641 -0.516 M
2.641 -0.656 2.734 -0.781 QT
6.484 -4.5 L
2.734 -8.25 L
2.641 -8.328 2.641 -8.484 QT
2.641 -8.609 2.75 -8.727 QT
2.859 -8.844 3 -8.844 QT
3.125 -8.844 3.281 -8.734 QT
7 -5 L
10.719 -8.734 L
10.859 -8.844 10.984 -8.844 QT
11.125 -8.844 11.234 -8.734 QT
11.344 -8.625 11.344 -8.484 QT
11.344 -8.328 11.25 -8.25 QT
7.5 -4.5 L
11.25 -0.781 L
11.344 -0.656 11.344 -0.516 QT
11.344 -0.375 11.234 -0.266 QT
11.125 -0.156 10.984 -0.156 QT
10.844 -0.156 10.719 -0.297 QT
7 -4 L
3.281 -0.297 L
3.141 -0.156 3 -0.156 QT
2.859 -0.156 2.75 -0.273 QT
2.641 -0.391 2.641 -0.516 QT
cp
f
GR
GS
[0.6 0 0 0.6 248.4 309] CT
0.149 GC
N
1.813 -0.313 M
1.813 -0.406 1.891 -0.594 QT
2.391 -1.641 2.828 -2.648 QT
3.266 -3.656 3.609 -4.609 QT
3.953 -5.563 4.25 -6.641 QT
3.094 -6.641 L
2.438 -6.641 1.867 -6.227 QT
1.297 -5.813 0.922 -5.188 QT
0.875 -5.109 0.813 -5.109 QT
0.594 -5.109 L
0.438 -5.109 0.438 -5.297 QT
0.438 -5.328 0.469 -5.391 QT
1.063 -6.406 1.734 -7.086 QT
2.406 -7.766 3.25 -7.766 QT
9.781 -7.766 L
9.953 -7.766 10.086 -7.641 QT
10.219 -7.516 10.219 -7.297 QT
10.219 -7.047 10.031 -6.844 QT
9.844 -6.641 9.578 -6.641 QT
7.281 -6.641 L
7 -5.234 6.969 -3.891 QT
6.969 -2.156 7.578 -0.75 QT
7.625 -0.656 7.625 -0.531 QT
7.625 -0.344 7.516 -0.18 QT
7.406 -0.016 7.227 0.094 QT
7.047 0.203 6.844 0.203 QT
6.359 0.203 6.188 -0.57 QT
6.016 -1.344 6.016 -2.078 QT
6.016 -3.109 6.188 -4.063 QT
6.359 -5.016 6.75 -6.641 QT
4.797 -6.641 L
3.359 -0.875 3.078 -0.297 QT
2.828 0.203 2.375 0.203 QT
2.156 0.203 1.984 0.055 QT
1.813 -0.094 1.813 -0.313 QT
cp
f
GR
GS
[0.6 0 0 0.6 255 309] CT
0.149 GC
/Helvetica 18.333 F
GS
[1 0 0 1 0 0] CT
0 0 moveto 
1 -1 scale
( rad/sample\)) t 
GR
GR
GS
[0.6 0 0 0.6 0 0] CT
0.149 GC
2 setlinecap
1 LJ
0.833 LW
N
91 467 M
91 288 L
S
GR
GS
[0.6 0 0 0.6 0 0] CT
0.149 GC
2 setlinecap
1 LJ
0.833 LW
N
634 467 M
634 288 L
S
GR
GS
[0.6 0 0 0.6 0 0] CT
0.149 GC
2 setlinecap
1 LJ
0.833 LW
N
91 467 M
96.43 467 L
S
GR
GS
[0.6 0 0 0.6 0 0] CT
0.149 GC
2 setlinecap
1 LJ
0.833 LW
N
91 422.25 M
96.43 422.25 L
S
GR
GS
[0.6 0 0 0.6 0 0] CT
0.149 GC
2 setlinecap
1 LJ
0.833 LW
N
91 377.5 M
96.43 377.5 L
S
GR
GS
[0.6 0 0 0.6 0 0] CT
0.149 GC
2 setlinecap
1 LJ
0.833 LW
N
91 332.75 M
96.43 332.75 L
S
GR
GS
[0.6 0 0 0.6 0 0] CT
0.149 GC
2 setlinecap
1 LJ
0.833 LW
N
91 288 M
96.43 288 L
S
GR
GS
[0.6 0 0 0.6 0 0] CT
0.149 GC
2 setlinecap
1 LJ
0.833 LW
N
634 467 M
628.57 467 L
S
GR
GS
[0.6 0 0 0.6 0 0] CT
0.149 GC
2 setlinecap
1 LJ
0.833 LW
N
634 422.25 M
628.57 422.25 L
S
GR
GS
[0.6 0 0 0.6 0 0] CT
0.149 GC
2 setlinecap
1 LJ
0.833 LW
N
634 377.5 M
628.57 377.5 L
S
GR
GS
[0.6 0 0 0.6 0 0] CT
0.149 GC
2 setlinecap
1 LJ
0.833 LW
N
634 332.75 M
628.57 332.75 L
S
GR
GS
[0.6 0 0 0.6 0 0] CT
0.149 GC
2 setlinecap
1 LJ
0.833 LW
N
634 288 M
628.57 288 L
S
GR
GS
[0.6 0 0 0.6 50.6 280.2] CT
0.149 GC
/Helvetica 16.667 F
GS
[1 0 0 1 0 0] CT
-34 6.5 moveto 
1 -1 scale
(-100) t 
GR
GR
GS
[0.6 0 0 0.6 50.6 253.35] CT
0.149 GC
/Helvetica 16.667 F
GS
[1 0 0 1 0 0] CT
-25 6.5 moveto 
1 -1 scale
(-50) t 
GR
GR
GS
[0.6 0 0 0.6 50.6 226.5] CT
0.149 GC
/Helvetica 16.667 F
GS
[1 0 0 1 0 0] CT
-10 6.5 moveto 
1 -1 scale
(0) t 
GR
GR
GS
[0.6 0 0 0.6 50.6 199.65] CT
0.149 GC
/Helvetica 16.667 F
GS
[1 0 0 1 0 0] CT
-19 6.5 moveto 
1 -1 scale
(50) t 
GR
GR
GS
[0.6 0 0 0.6 50.6 172.8] CT
0.149 GC
/Helvetica 16.667 F
GS
[1 0 0 1 0 0] CT
-28 6.5 moveto 
1 -1 scale
(100) t 
GR
GR
GS
[0 -0.6 0.6 0 27.2 226.49995] CT
0.149 GC
/Helvetica 18.333 F
GS
[1 0 0 1 0 0] CT
-68 -5 moveto 
1 -1 scale
(Phase \(degrees\)) t 
GR
GR
GS
[0.6 0 0 0.6 0 0] CT
0 0.447 0.741 RC
1 LJ
0.833 LW
N
92.061 297.013 M
93.121 297.076 L
94.182 297.139 L
95.242 297.202 L
96.303 297.265 L
97.363 297.328 L
98.424 297.391 L
99.484 297.454 L
100.545 297.517 L
101.605 297.58 L
102.666 297.643 L
103.727 297.706 L
104.787 297.769 L
105.848 297.832 L
106.908 297.895 L
107.969 297.958 L
109.029 298.021 L
110.09 298.084 L
111.15 298.148 L
112.211 298.211 L
113.271 298.274 L
114.332 298.337 L
115.393 298.401 L
116.453 298.464 L
117.514 298.528 L
118.574 298.591 L
119.635 298.655 L
120.695 298.718 L
121.756 298.782 L
122.816 298.846 L
123.877 298.909 L
124.938 298.973 L
125.998 299.037 L
127.059 299.101 L
128.119 299.165 L
129.18 299.229 L
130.24 299.293 L
131.301 299.357 L
132.361 299.421 L
133.422 299.486 L
134.482 299.55 L
135.543 299.614 L
136.604 299.679 L
137.664 299.743 L
138.725 299.808 L
139.785 299.873 L
140.846 299.938 L
141.906 300.003 L
142.967 300.067 L
144.027 300.133 L
145.088 300.198 L
146.148 300.263 L
147.209 300.328 L
148.27 300.394 L
149.33 300.459 L
150.391 300.525 L
151.451 300.591 L
152.512 300.656 L
153.572 300.722 L
154.633 300.788 L
155.693 300.855 L
156.754 300.921 L
157.814 300.987 L
158.875 301.054 L
159.936 301.12 L
160.996 301.187 L
162.057 301.254 L
163.117 301.321 L
164.178 301.388 L
165.238 301.455 L
166.299 301.523 L
167.359 301.59 L
168.42 301.658 L
169.48 301.726 L
170.541 301.794 L
171.602 301.862 L
172.662 301.93 L
173.723 301.998 L
174.783 302.067 L
175.844 302.135 L
176.904 302.204 L
177.965 302.273 L
179.025 302.342 L
180.086 302.412 L
181.146 302.481 L
182.207 302.551 L
183.268 302.621 L
184.328 302.691 L
185.389 302.761 L
186.449 302.831 L
187.51 302.902 L
188.57 302.972 L
189.631 303.043 L
190.691 303.114 L
191.752 303.185 L
192.813 303.257 L
193.873 303.329 L
194.934 303.4 L
195.994 303.472 L
197.055 303.545 L
198.115 303.617 L
199.176 303.69 L
200.236 303.763 L
201.297 303.836 L
202.357 303.909 L
203.418 303.983 L
204.479 304.056 L
205.539 304.13 L
206.6 304.205 L
207.66 304.279 L
208.721 304.354 L
209.781 304.429 L
210.842 304.504 L
211.902 304.579 L
212.963 304.655 L
214.023 304.731 L
215.084 304.807 L
216.145 304.884 L
217.205 304.96 L
218.266 305.037 L
219.326 305.115 L
220.387 305.192 L
221.447 305.27 L
222.508 305.348 L
223.568 305.426 L
224.629 305.505 L
225.689 305.584 L
226.75 305.663 L
227.811 305.743 L
228.871 305.823 L
229.932 305.903 L
230.992 305.984 L
232.053 306.064 L
233.113 306.146 L
234.174 306.227 L
235.234 306.309 L
236.295 306.391 L
237.355 306.474 L
238.416 306.556 L
239.477 306.64 L
240.537 306.723 L
241.598 306.807 L
242.658 306.891 L
243.719 306.976 L
244.779 307.061 L
245.84 307.146 L
246.9 307.232 L
247.961 307.318 L
249.021 307.405 L
250.082 307.492 L
251.143 307.579 L
252.203 307.667 L
253.264 307.755 L
254.324 307.844 L
255.385 307.933 L
256.445 308.022 L
257.506 308.112 L
258.566 308.203 L
259.627 308.294 L
260.688 308.385 L
261.748 308.477 L
262.809 308.569 L
263.869 308.662 L
264.93 308.755 L
265.99 308.848 L
267.051 308.943 L
268.111 309.037 L
269.172 309.132 L
270.232 309.228 L
271.293 309.324 L
272.354 309.421 L
273.414 309.518 L
274.475 309.616 L
275.535 309.714 L
276.596 309.813 L
277.656 309.913 L
278.717 310.013 L
279.777 310.113 L
280.838 310.215 L
281.898 310.316 L
282.959 310.419 L
284.02 310.522 L
285.08 310.626 L
286.141 310.73 L
287.201 310.835 L
288.262 310.941 L
289.322 311.047 L
290.383 311.154 L
291.443 311.261 L
292.504 311.37 L
293.564 311.479 L
294.625 311.588 L
295.686 311.699 L
296.746 311.81 L
297.807 311.922 L
298.867 312.035 L
299.928 312.148 L
300.988 312.262 L
302.049 312.377 L
303.109 312.493 L
304.17 312.609 L
305.23 312.727 L
306.291 312.845 L
307.352 312.964 L
308.412 313.084 L
309.473 313.205 L
310.533 313.327 L
311.594 313.449 L
312.654 313.573 L
313.715 313.697 L
314.775 313.822 L
315.836 313.949 L
316.896 314.076 L
317.957 314.204 L
319.018 314.333 L
320.078 314.464 L
321.139 314.595 L
322.199 314.727 L
323.26 314.861 L
324.32 314.995 L
325.381 315.131 L
326.441 315.267 L
327.502 315.405 L
328.563 315.544 L
329.623 315.684 L
330.684 315.825 L
331.744 315.968 L
332.805 316.112 L
333.865 316.257 L
334.926 316.403 L
335.986 316.55 L
337.047 316.699 L
338.107 316.849 L
339.168 317.001 L
340.229 317.154 L
341.289 317.308 L
342.35 317.464 L
343.41 317.621 L
344.471 317.779 L
345.531 317.939 L
346.592 318.101 L
347.652 318.264 L
348.713 318.429 L
349.773 318.595 L
350.834 318.763 L
351.895 318.932 L
352.955 319.104 L
354.016 319.277 L
355.076 319.451 L
356.137 319.628 L
357.197 319.806 L
358.258 319.986 L
359.318 320.168 L
360.379 320.352 L
361.439 320.538 L
362.5 320.726 L
363.561 320.916 L
364.621 321.107 L
365.682 321.301 L
366.742 321.497 L
367.803 321.696 L
368.863 321.896 L
369.924 322.099 L
370.984 322.304 L
372.045 322.511 L
373.105 322.72 L
374.166 322.932 L
375.227 323.147 L
376.287 323.364 L
377.348 323.584 L
378.408 323.806 L
379.469 324.031 L
380.529 324.258 L
381.59 324.488 L
382.65 324.722 L
383.711 324.958 L
384.771 325.196 L
385.832 325.438 L
386.893 325.683 L
387.953 325.931 L
389.014 326.183 L
390.074 326.437 L
391.135 326.695 L
392.195 326.956 L
393.256 327.22 L
394.316 327.489 L
395.377 327.76 L
396.438 328.035 L
397.498 328.314 L
398.559 328.597 L
399.619 328.884 L
400.68 329.174 L
401.74 329.469 L
402.801 329.768 L
403.861 330.071 L
404.922 330.378 L
405.982 330.69 L
407.043 331.006 L
408.104 331.326 L
409.164 331.652 L
410.225 331.982 L
411.285 332.317 L
412.346 332.657 L
413.406 333.001 L
414.467 333.352 L
415.527 333.707 L
416.588 334.068 L
417.648 334.434 L
418.709 334.806 L
419.77 335.183 L
420.83 335.567 L
421.891 335.956 L
422.951 336.352 L
424.012 336.753 L
425.072 337.161 L
426.133 337.576 L
427.193 337.997 L
428.254 338.425 L
429.314 338.859 L
430.375 339.301 L
431.436 339.75 L
432.496 340.206 L
433.557 340.669 L
434.617 341.14 L
435.678 341.619 L
436.738 342.105 L
437.799 342.6 L
438.859 343.103 L
439.92 343.614 L
440.98 344.133 L
442.041 344.661 L
443.102 345.197 L
444.162 345.743 L
445.223 346.297 L
446.283 346.861 L
447.344 347.434 L
448.404 348.016 L
449.465 348.607 L
450.525 349.209 L
451.586 349.82 L
452.646 350.441 L
453.707 351.072 L
454.768 351.713 L
455.828 352.364 L
456.889 353.026 L
457.949 353.698 L
459.01 354.38 L
460.07 355.073 L
461.131 355.776 L
462.191 356.49 L
463.252 357.215 L
464.313 357.95 L
465.373 358.696 L
466.434 359.453 L
467.494 360.22 L
468.555 360.998 L
469.615 361.786 L
470.676 362.585 L
471.736 363.394 L
472.797 364.213 L
473.857 365.042 L
474.918 365.881 L
475.979 366.73 L
477.039 367.588 L
478.1 368.456 L
479.16 369.332 L
480.221 370.217 L
481.281 371.11 L
482.342 372.012 L
483.402 372.921 L
484.463 373.838 L
485.523 374.761 L
486.584 375.691 L
487.645 376.627 L
488.705 377.569 L
489.766 378.516 L
490.826 379.467 L
491.887 380.423 L
492.947 381.382 L
494.008 382.344 L
495.068 383.309 L
496.129 384.276 L
497.189 385.244 L
498.25 386.213 L
499.311 387.183 L
500.371 388.152 L
501.432 389.12 L
502.492 390.087 L
503.553 391.052 L
504.613 392.015 L
505.674 392.975 L
506.734 393.931 L
507.795 394.883 L
508.855 395.83 L
509.916 396.772 L
510.977 397.709 L
512.037 398.64 L
513.098 399.565 L
514.158 400.483 L
515.219 401.394 L
516.279 402.298 L
517.34 403.194 L
518.4 404.081 L
519.461 404.961 L
520.521 405.831 L
521.582 406.693 L
522.643 407.546 L
523.703 408.39 L
524.764 409.224 L
525.824 410.049 L
526.885 410.864 L
527.945 411.669 L
529.006 412.465 L
530.066 413.25 L
531.127 414.026 L
532.188 414.791 L
533.248 415.547 L
534.309 416.293 L
535.369 417.028 L
536.43 417.754 L
537.49 418.47 L
538.551 419.176 L
539.611 419.872 L
540.672 420.559 L
541.732 421.236 L
542.793 421.903 L
543.854 422.561 L
544.914 423.21 L
545.975 423.85 L
547.035 424.48 L
548.096 425.102 L
549.156 425.715 L
550.217 426.319 L
551.277 426.915 L
552.338 427.502 L
553.398 428.081 L
554.459 428.652 L
555.52 429.215 L
556.58 429.77 L
557.641 430.318 L
558.701 430.858 L
559.762 431.39 L
560.822 431.916 L
561.883 432.435 L
562.943 432.946 L
564.004 433.451 L
565.064 433.949 L
566.125 434.441 L
567.186 434.927 L
568.246 435.406 L
569.307 435.88 L
570.367 436.347 L
571.428 436.809 L
572.488 437.265 L
573.549 437.716 L
574.609 438.162 L
575.67 438.602 L
576.73 439.037 L
577.791 439.468 L
578.852 439.893 L
579.912 440.314 L
580.973 440.73 L
582.033 441.142 L
583.094 441.55 L
584.154 441.954 L
585.215 442.353 L
586.275 442.749 L
587.336 443.14 L
588.396 443.528 L
589.457 443.913 L
590.518 444.294 L
591.578 444.671 L
592.639 445.045 L
593.699 445.417 L
594.76 445.784 L
595.82 446.15 L
596.881 446.512 L
597.941 446.871 L
599.002 447.228 L
600.063 447.582 L
601.123 447.933 L
602.184 448.283 L
603.244 448.629 L
604.305 448.974 L
605.365 449.316 L
606.426 449.657 L
607.486 449.995 L
608.547 450.332 L
609.607 450.667 L
610.668 451 L
611.729 451.331 L
612.789 451.661 L
613.85 451.99 L
614.91 452.317 L
615.971 452.642 L
617.031 452.967 L
618.092 453.29 L
619.152 453.612 L
620.213 453.933 L
621.273 454.254 L
622.334 454.573 L
623.395 454.892 L
624.455 455.21 L
625.516 455.527 L
626.576 455.843 L
627.637 456.16 L
628.697 456.475 L
629.758 456.791 L
630.818 457.106 L
631.879 457.421 L
632.939 457.735 L
S
GR
GS
[0.6 0 0 0.6 0 0] CT
1 GC
N
91 218 M
634 218 L
634 39 L
91 39 L
cp
f
GR
GS
[0.6 0 0 0.6 0 0] CT
0.873 GC
1 LJ
0.833 LW
N
91 218 M
91 39 L
S
GR
GS
[0.6 0 0 0.6 0 0] CT
0.873 GC
1 LJ
0.833 LW
N
145.3 218 M
145.3 39 L
S
GR
GS
[0.6 0 0 0.6 0 0] CT
0.873 GC
1 LJ
0.833 LW
N
199.6 218 M
199.6 39 L
S
GR
GS
[0.6 0 0 0.6 0 0] CT
0.873 GC
1 LJ
0.833 LW
N
253.9 218 M
253.9 39 L
S
GR
GS
[0.6 0 0 0.6 0 0] CT
0.873 GC
1 LJ
0.833 LW
N
308.2 218 M
308.2 39 L
S
GR
GS
[0.6 0 0 0.6 0 0] CT
0.873 GC
1 LJ
0.833 LW
N
362.5 218 M
362.5 39 L
S
GR
GS
[0.6 0 0 0.6 0 0] CT
0.873 GC
1 LJ
0.833 LW
N
416.8 218 M
416.8 39 L
S
GR
GS
[0.6 0 0 0.6 0 0] CT
0.873 GC
1 LJ
0.833 LW
N
471.1 218 M
471.1 39 L
S
GR
GS
[0.6 0 0 0.6 0 0] CT
0.873 GC
1 LJ
0.833 LW
N
525.4 218 M
525.4 39 L
S
GR
GS
[0.6 0 0 0.6 0 0] CT
0.873 GC
1 LJ
0.833 LW
N
579.7 218 M
579.7 39 L
S
GR
GS
[0.6 0 0 0.6 0 0] CT
0.873 GC
1 LJ
0.833 LW
N
634 218 M
634 39 L
S
GR
GS
[0.6 0 0 0.6 0 0] CT
0.873 GC
1 LJ
0.833 LW
N
634 218 M
91 218 L
S
GR
GS
[0.6 0 0 0.6 0 0] CT
0.873 GC
1 LJ
0.833 LW
N
634 173.25 M
91 173.25 L
S
GR
GS
[0.6 0 0 0.6 0 0] CT
0.873 GC
1 LJ
0.833 LW
N
634 128.5 M
91 128.5 L
S
GR
GS
[0.6 0 0 0.6 0 0] CT
0.873 GC
1 LJ
0.833 LW
N
634 83.75 M
91 83.75 L
S
GR
GS
[0.6 0 0 0.6 0 0] CT
0.873 GC
1 LJ
0.833 LW
N
634 39 M
91 39 L
S
GR
GS
[0.6 0 0 0.6 0 0] CT
0.149 GC
2 setlinecap
1 LJ
0.833 LW
N
91 218 M
634 218 L
S
GR
GS
[0.6 0 0 0.6 0 0] CT
0.149 GC
2 setlinecap
1 LJ
0.833 LW
N
91 39 M
634 39 L
S
GR
GS
[0.6 0 0 0.6 0 0] CT
0.149 GC
2 setlinecap
1 LJ
0.833 LW
N
91 218 M
91 212.57 L
S
GR
GS
[0.6 0 0 0.6 0 0] CT
0.149 GC
2 setlinecap
1 LJ
0.833 LW
N
145.3 218 M
145.3 212.57 L
S
GR
GS
[0.6 0 0 0.6 0 0] CT
0.149 GC
2 setlinecap
1 LJ
0.833 LW
N
199.6 218 M
199.6 212.57 L
S
GR
GS
[0.6 0 0 0.6 0 0] CT
0.149 GC
2 setlinecap
1 LJ
0.833 LW
N
253.9 218 M
253.9 212.57 L
S
GR
GS
[0.6 0 0 0.6 0 0] CT
0.149 GC
2 setlinecap
1 LJ
0.833 LW
N
308.2 218 M
308.2 212.57 L
S
GR
GS
[0.6 0 0 0.6 0 0] CT
0.149 GC
2 setlinecap
1 LJ
0.833 LW
N
362.5 218 M
362.5 212.57 L
S
GR
GS
[0.6 0 0 0.6 0 0] CT
0.149 GC
2 setlinecap
1 LJ
0.833 LW
N
416.8 218 M
416.8 212.57 L
S
GR
GS
[0.6 0 0 0.6 0 0] CT
0.149 GC
2 setlinecap
1 LJ
0.833 LW
N
471.1 218 M
471.1 212.57 L
S
GR
GS
[0.6 0 0 0.6 0 0] CT
0.149 GC
2 setlinecap
1 LJ
0.833 LW
N
525.4 218 M
525.4 212.57 L
S
GR
GS
[0.6 0 0 0.6 0 0] CT
0.149 GC
2 setlinecap
1 LJ
0.833 LW
N
579.7 218 M
579.7 212.57 L
S
GR
GS
[0.6 0 0 0.6 0 0] CT
0.149 GC
2 setlinecap
1 LJ
0.833 LW
N
634 218 M
634 212.57 L
S
GR
GS
[0.6 0 0 0.6 0 0] CT
0.149 GC
2 setlinecap
1 LJ
0.833 LW
N
91 39 M
91 44.43 L
S
GR
GS
[0.6 0 0 0.6 0 0] CT
0.149 GC
2 setlinecap
1 LJ
0.833 LW
N
145.3 39 M
145.3 44.43 L
S
GR
GS
[0.6 0 0 0.6 0 0] CT
0.149 GC
2 setlinecap
1 LJ
0.833 LW
N
199.6 39 M
199.6 44.43 L
S
GR
GS
[0.6 0 0 0.6 0 0] CT
0.149 GC
2 setlinecap
1 LJ
0.833 LW
N
253.9 39 M
253.9 44.43 L
S
GR
GS
[0.6 0 0 0.6 0 0] CT
0.149 GC
2 setlinecap
1 LJ
0.833 LW
N
308.2 39 M
308.2 44.43 L
S
GR
GS
[0.6 0 0 0.6 0 0] CT
0.149 GC
2 setlinecap
1 LJ
0.833 LW
N
362.5 39 M
362.5 44.43 L
S
GR
GS
[0.6 0 0 0.6 0 0] CT
0.149 GC
2 setlinecap
1 LJ
0.833 LW
N
416.8 39 M
416.8 44.43 L
S
GR
GS
[0.6 0 0 0.6 0 0] CT
0.149 GC
2 setlinecap
1 LJ
0.833 LW
N
471.1 39 M
471.1 44.43 L
S
GR
GS
[0.6 0 0 0.6 0 0] CT
0.149 GC
2 setlinecap
1 LJ
0.833 LW
N
525.4 39 M
525.4 44.43 L
S
GR
GS
[0.6 0 0 0.6 0 0] CT
0.149 GC
2 setlinecap
1 LJ
0.833 LW
N
579.7 39 M
579.7 44.43 L
S
GR
GS
[0.6 0 0 0.6 0 0] CT
0.149 GC
2 setlinecap
1 LJ
0.833 LW
N
634 39 M
634 44.43 L
S
GR
GS
[0.6 0 0 0.6 54.6 134.8] CT
0.149 GC
/Helvetica 16.667 F
GS
[1 0 0 1 0 0] CT
-5 17 moveto 
1 -1 scale
(0) t 
GR
GR
GS
[0.6 0 0 0.6 87.18 134.8] CT
0.149 GC
/Helvetica 16.667 F
GS
[1 0 0 1 0 0] CT
-12 17 moveto 
1 -1 scale
(0.1) t 
GR
GR
GS
[0.6 0 0 0.6 119.76 134.8] CT
0.149 GC
/Helvetica 16.667 F
GS
[1 0 0 1 0 0] CT
-12 17 moveto 
1 -1 scale
(0.2) t 
GR
GR
GS
[0.6 0 0 0.6 152.34001 134.8] CT
0.149 GC
/Helvetica 16.667 F
GS
[1 0 0 1 0 0] CT
-12 17 moveto 
1 -1 scale
(0.3) t 
GR
GR
GS
[0.6 0 0 0.6 184.92001 134.8] CT
0.149 GC
/Helvetica 16.667 F
GS
[1 0 0 1 0 0] CT
-12 17 moveto 
1 -1 scale
(0.4) t 
GR
GR
GS
[0.6 0 0 0.6 217.5 134.8] CT
0.149 GC
/Helvetica 16.667 F
GS
[1 0 0 1 0 0] CT
-12 17 moveto 
1 -1 scale
(0.5) t 
GR
GR
GS
[0.6 0 0 0.6 250.08001 134.8] CT
0.149 GC
/Helvetica 16.667 F
GS
[1 0 0 1 0 0] CT
-12 17 moveto 
1 -1 scale
(0.6) t 
GR
GR
GS
[0.6 0 0 0.6 282.66 134.8] CT
0.149 GC
/Helvetica 16.667 F
GS
[1 0 0 1 0 0] CT
-12 17 moveto 
1 -1 scale
(0.7) t 
GR
GR
GS
[0.6 0 0 0.6 315.24001 134.8] CT
0.149 GC
/Helvetica 16.667 F
GS
[1 0 0 1 0 0] CT
-12 17 moveto 
1 -1 scale
(0.8) t 
GR
GR
GS
[0.6 0 0 0.6 347.82001 134.8] CT
0.149 GC
/Helvetica 16.667 F
GS
[1 0 0 1 0 0] CT
-12 17 moveto 
1 -1 scale
(0.9) t 
GR
GR
GS
[0.6 0 0 0.6 380.4 134.8] CT
0.149 GC
/Helvetica 16.667 F
GS
[1 0 0 1 0 0] CT
-5 17 moveto 
1 -1 scale
(1) t 
GR
GR
GS
[0.6 0 0 0.6 118.8 159.6] CT
0.149 GC
/Helvetica 18.333 F
GS
[1 0 0 1 0 0] CT
0 0 moveto 
1 -1 scale
(Normalized Frequency  \() t 
GR
GR
GS
[0.6 0 0 0.6 239.4 159.6] CT
0.149 GC
N
/f-1265391899{2.641 -0.516 M
2.641 -0.656 2.734 -0.781 QT
6.484 -4.5 L
2.734 -8.25 L
2.641 -8.328 2.641 -8.484 QT
2.641 -8.609 2.75 -8.727 QT
2.859 -8.844 3 -8.844 QT
3.125 -8.844 3.281 -8.734 QT
7 -5 L
10.719 -8.734 L
10.859 -8.844 10.984 -8.844 QT
11.125 -8.844 11.234 -8.734 QT
11.344 -8.625 11.344 -8.484 QT
11.344 -8.328 11.25 -8.25 QT
7.5 -4.5 L
11.25 -0.781 L
11.344 -0.656 11.344 -0.516 QT
11.344 -0.375 11.234 -0.266 QT
11.125 -0.156 10.984 -0.156 QT
10.844 -0.156 10.719 -0.297 QT
7 -4 L
3.281 -0.297 L
3.141 -0.156 3 -0.156 QT
2.859 -0.156 2.75 -0.273 QT
2.641 -0.391 2.641 -0.516 QT
cp}def
f-1265391899
f
GR
GS
[0.6 0 0 0.6 248.4 159.6] CT
0.149 GC
N
/f-265317775{1.813 -0.313 M
1.813 -0.406 1.891 -0.594 QT
2.391 -1.641 2.828 -2.648 QT
3.266 -3.656 3.609 -4.609 QT
3.953 -5.563 4.25 -6.641 QT
3.094 -6.641 L
2.438 -6.641 1.867 -6.227 QT
1.297 -5.813 0.922 -5.188 QT
0.875 -5.109 0.813 -5.109 QT
0.594 -5.109 L
0.438 -5.109 0.438 -5.297 QT
0.438 -5.328 0.469 -5.391 QT
1.063 -6.406 1.734 -7.086 QT
2.406 -7.766 3.25 -7.766 QT
9.781 -7.766 L
9.953 -7.766 10.086 -7.641 QT
10.219 -7.516 10.219 -7.297 QT
10.219 -7.047 10.031 -6.844 QT
9.844 -6.641 9.578 -6.641 QT
7.281 -6.641 L
7 -5.234 6.969 -3.891 QT
6.969 -2.156 7.578 -0.75 QT
7.625 -0.656 7.625 -0.531 QT
7.625 -0.344 7.516 -0.18 QT
7.406 -0.016 7.227 0.094 QT
7.047 0.203 6.844 0.203 QT
6.359 0.203 6.188 -0.57 QT
6.016 -1.344 6.016 -2.078 QT
6.016 -3.109 6.188 -4.063 QT
6.359 -5.016 6.75 -6.641 QT
4.797 -6.641 L
3.359 -0.875 3.078 -0.297 QT
2.828 0.203 2.375 0.203 QT
2.156 0.203 1.984 0.055 QT
1.813 -0.094 1.813 -0.313 QT
cp}def
f-265317775
f
GR
GS
[0.6 0 0 0.6 255 159.6] CT
0.149 GC
/Helvetica 18.333 F
GS
[1 0 0 1 0 0] CT
0 0 moveto 
1 -1 scale
( rad/sample\)) t 
GR
GR
GS
[0.6 0 0 0.6 0 0] CT
0.149 GC
2 setlinecap
1 LJ
0.833 LW
N
91 218 M
91 39 L
S
GR
GS
[0.6 0 0 0.6 0 0] CT
0.149 GC
2 setlinecap
1 LJ
0.833 LW
N
634 218 M
634 39 L
S
GR
GS
[0.6 0 0 0.6 0 0] CT
0.149 GC
2 setlinecap
1 LJ
0.833 LW
N
91 218 M
96.43 218 L
S
GR
GS
[0.6 0 0 0.6 0 0] CT
0.149 GC
2 setlinecap
1 LJ
0.833 LW
N
91 173.25 M
96.43 173.25 L
S
GR
GS
[0.6 0 0 0.6 0 0] CT
0.149 GC
2 setlinecap
1 LJ
0.833 LW
N
91 128.5 M
96.43 128.5 L
S
GR
GS
[0.6 0 0 0.6 0 0] CT
0.149 GC
2 setlinecap
1 LJ
0.833 LW
N
91 83.75 M
96.43 83.75 L
S
GR
GS
[0.6 0 0 0.6 0 0] CT
0.149 GC
2 setlinecap
1 LJ
0.833 LW
N
91 39 M
96.43 39 L
S
GR
GS
[0.6 0 0 0.6 0 0] CT
0.149 GC
2 setlinecap
1 LJ
0.833 LW
N
634 218 M
628.57 218 L
S
GR
GS
[0.6 0 0 0.6 0 0] CT
0.149 GC
2 setlinecap
1 LJ
0.833 LW
N
634 173.25 M
628.57 173.25 L
S
GR
GS
[0.6 0 0 0.6 0 0] CT
0.149 GC
2 setlinecap
1 LJ
0.833 LW
N
634 128.5 M
628.57 128.5 L
S
GR
GS
[0.6 0 0 0.6 0 0] CT
0.149 GC
2 setlinecap
1 LJ
0.833 LW
N
634 83.75 M
628.57 83.75 L
S
GR
GS
[0.6 0 0 0.6 0 0] CT
0.149 GC
2 setlinecap
1 LJ
0.833 LW
N
634 39 M
628.57 39 L
S
GR
GS
[0.6 0 0 0.6 50.6 130.8] CT
0.149 GC
/Helvetica 16.667 F
GS
[1 0 0 1 0 0] CT
-25 6.5 moveto 
1 -1 scale
(-60) t 
GR
GR
GS
[0.6 0 0 0.6 50.6 103.95] CT
0.149 GC
/Helvetica 16.667 F
GS
[1 0 0 1 0 0] CT
-25 6.5 moveto 
1 -1 scale
(-40) t 
GR
GR
GS
[0.6 0 0 0.6 50.6 77.1] CT
0.149 GC
/Helvetica 16.667 F
GS
[1 0 0 1 0 0] CT
-25 6.5 moveto 
1 -1 scale
(-20) t 
GR
GR
GS
[0.6 0 0 0.6 50.6 50.25] CT
0.149 GC
/Helvetica 16.667 F
GS
[1 0 0 1 0 0] CT
-10 6.5 moveto 
1 -1 scale
(0) t 
GR
GR
GS
[0.6 0 0 0.6 50.6 23.4] CT
0.149 GC
/Helvetica 16.667 F
GS
[1 0 0 1 0 0] CT
-19 6.5 moveto 
1 -1 scale
(20) t 
GR
GR
GS
[0 -0.6 0.6 0 32.6 77.09995] CT
0.149 GC
/Helvetica 18.333 F
GS
[1 0 0 1 0 0] CT
-63 -5 moveto 
1 -1 scale
(Magnitude \(dB\)) t 
GR
GR
GS
[0.6 0 0 0.6 0 0] CT
0 0.447 0.741 RC
1 LJ
0.833 LW
N
92.061 200.55 M
93.121 187.079 L
94.182 179.198 L
95.242 173.607 L
96.303 169.269 L
97.363 165.725 L
98.424 162.728 L
99.484 160.132 L
100.545 157.841 L
101.605 155.792 L
102.666 153.938 L
103.727 152.245 L
104.787 150.687 L
105.848 149.245 L
106.908 147.901 L
107.969 146.645 L
109.029 145.464 L
110.09 144.35 L
111.15 143.296 L
112.211 142.296 L
113.271 141.344 L
114.332 140.437 L
115.393 139.569 L
116.453 138.738 L
117.514 137.94 L
118.574 137.174 L
119.635 136.436 L
120.695 135.725 L
121.756 135.038 L
122.816 134.374 L
123.877 133.732 L
124.938 133.11 L
125.998 132.506 L
127.059 131.92 L
128.119 131.351 L
129.18 130.798 L
130.24 130.259 L
131.301 129.735 L
132.361 129.223 L
133.422 128.725 L
134.482 128.238 L
135.543 127.763 L
136.604 127.298 L
137.664 126.844 L
138.725 126.4 L
139.785 125.965 L
140.846 125.539 L
141.906 125.122 L
142.967 124.713 L
144.027 124.312 L
145.088 123.919 L
146.148 123.533 L
147.209 123.154 L
148.27 122.782 L
149.33 122.416 L
150.391 122.056 L
151.451 121.703 L
152.512 121.355 L
153.572 121.013 L
154.633 120.676 L
155.693 120.344 L
156.754 120.018 L
157.814 119.696 L
158.875 119.38 L
159.936 119.067 L
160.996 118.759 L
162.057 118.456 L
163.117 118.156 L
164.178 117.861 L
165.238 117.569 L
166.299 117.282 L
167.359 116.997 L
168.42 116.717 L
169.48 116.44 L
170.541 116.166 L
171.602 115.896 L
172.662 115.629 L
173.723 115.365 L
174.783 115.103 L
175.844 114.845 L
176.904 114.59 L
177.965 114.337 L
179.025 114.087 L
180.086 113.84 L
181.146 113.596 L
182.207 113.353 L
183.268 113.114 L
184.328 112.876 L
185.389 112.641 L
186.449 112.408 L
187.51 112.178 L
188.57 111.949 L
189.631 111.723 L
190.691 111.499 L
191.752 111.277 L
192.813 111.056 L
193.873 110.838 L
194.934 110.621 L
195.994 110.407 L
197.055 110.194 L
198.115 109.983 L
199.176 109.773 L
200.236 109.565 L
201.297 109.359 L
202.357 109.155 L
203.418 108.952 L
204.479 108.75 L
205.539 108.55 L
206.6 108.352 L
207.66 108.154 L
208.721 107.959 L
209.781 107.764 L
210.842 107.571 L
211.902 107.38 L
212.963 107.189 L
214.023 107 L
215.084 106.812 L
216.145 106.625 L
217.205 106.44 L
218.266 106.255 L
219.326 106.072 L
220.387 105.89 L
221.447 105.709 L
222.508 105.529 L
223.568 105.35 L
224.629 105.172 L
225.689 104.995 L
226.75 104.819 L
227.811 104.644 L
228.871 104.47 L
229.932 104.297 L
230.992 104.125 L
232.053 103.954 L
233.113 103.783 L
234.174 103.613 L
235.234 103.445 L
236.295 103.277 L
237.355 103.11 L
238.416 102.943 L
239.477 102.778 L
240.537 102.613 L
241.598 102.449 L
242.658 102.285 L
243.719 102.122 L
244.779 101.96 L
245.84 101.799 L
246.9 101.638 L
247.961 101.478 L
249.021 101.319 L
250.082 101.16 L
251.143 101.002 L
252.203 100.845 L
253.264 100.688 L
254.324 100.531 L
255.385 100.375 L
256.445 100.22 L
257.506 100.065 L
258.566 99.911 L
259.627 99.758 L
260.688 99.604 L
261.748 99.452 L
262.809 99.299 L
263.869 99.148 L
264.93 98.996 L
265.99 98.846 L
267.051 98.695 L
268.111 98.545 L
269.172 98.396 L
270.232 98.247 L
271.293 98.098 L
272.354 97.949 L
273.414 97.802 L
274.475 97.654 L
275.535 97.507 L
276.596 97.36 L
277.656 97.213 L
278.717 97.067 L
279.777 96.921 L
280.838 96.776 L
281.898 96.63 L
282.959 96.485 L
284.02 96.341 L
285.08 96.196 L
286.141 96.052 L
287.201 95.908 L
288.262 95.765 L
289.322 95.621 L
290.383 95.478 L
291.443 95.335 L
292.504 95.193 L
293.564 95.05 L
294.625 94.908 L
295.686 94.766 L
296.746 94.624 L
297.807 94.482 L
298.867 94.341 L
299.928 94.199 L
300.988 94.058 L
302.049 93.917 L
303.109 93.776 L
304.17 93.636 L
305.23 93.495 L
306.291 93.355 L
307.352 93.214 L
308.412 93.074 L
309.473 92.934 L
310.533 92.794 L
311.594 92.654 L
312.654 92.514 L
313.715 92.375 L
314.775 92.235 L
315.836 92.095 L
316.896 91.956 L
317.957 91.816 L
319.018 91.677 L
320.078 91.537 L
321.139 91.398 L
322.199 91.258 L
323.26 91.119 L
324.32 90.98 L
325.381 90.84 L
326.441 90.701 L
327.502 90.562 L
328.563 90.422 L
329.623 90.283 L
330.684 90.143 L
331.744 90.004 L
332.805 89.865 L
333.865 89.725 L
334.926 89.585 L
335.986 89.446 L
337.047 89.306 L
338.107 89.166 L
339.168 89.026 L
340.229 88.886 L
341.289 88.746 L
342.35 88.606 L
343.41 88.466 L
344.471 88.326 L
345.531 88.185 L
346.592 88.045 L
347.652 87.904 L
348.713 87.763 L
349.773 87.622 L
350.834 87.481 L
351.895 87.34 L
352.955 87.199 L
354.016 87.057 L
355.076 86.915 L
356.137 86.773 L
357.197 86.631 L
358.258 86.489 L
359.318 86.347 L
360.379 86.204 L
361.439 86.061 L
362.5 85.918 L
363.561 85.775 L
364.621 85.632 L
365.682 85.488 L
366.742 85.344 L
367.803 85.2 L
368.863 85.056 L
369.924 84.911 L
370.984 84.767 L
372.045 84.622 L
373.105 84.476 L
374.166 84.331 L
375.227 84.185 L
376.287 84.039 L
377.348 83.893 L
378.408 83.746 L
379.469 83.599 L
380.529 83.452 L
381.59 83.305 L
382.65 83.157 L
383.711 83.009 L
384.771 82.861 L
385.832 82.713 L
386.893 82.564 L
387.953 82.415 L
389.014 82.266 L
390.074 82.116 L
391.135 81.966 L
392.195 81.816 L
393.256 81.665 L
394.316 81.515 L
395.377 81.364 L
396.438 81.212 L
397.498 81.061 L
398.559 80.909 L
399.619 80.757 L
400.68 80.604 L
401.74 80.451 L
402.801 80.298 L
403.861 80.145 L
404.922 79.992 L
405.982 79.838 L
407.043 79.684 L
408.104 79.529 L
409.164 79.375 L
410.225 79.22 L
411.285 79.065 L
412.346 78.91 L
413.406 78.755 L
414.467 78.599 L
415.527 78.444 L
416.588 78.288 L
417.648 78.132 L
418.709 77.976 L
419.77 77.82 L
420.83 77.664 L
421.891 77.507 L
422.951 77.351 L
424.012 77.195 L
425.072 77.039 L
426.133 76.882 L
427.193 76.726 L
428.254 76.57 L
429.314 76.414 L
430.375 76.259 L
431.436 76.103 L
432.496 75.948 L
433.557 75.793 L
434.617 75.639 L
435.678 75.484 L
436.738 75.331 L
437.799 75.177 L
438.859 75.025 L
439.92 74.873 L
440.98 74.721 L
442.041 74.57 L
443.102 74.421 L
444.162 74.272 L
445.223 74.123 L
446.283 73.976 L
447.344 73.83 L
448.404 73.686 L
449.465 73.542 L
450.525 73.4 L
451.586 73.259 L
452.646 73.12 L
453.707 72.983 L
454.768 72.847 L
455.828 72.714 L
456.889 72.582 L
457.949 72.452 L
459.01 72.325 L
460.07 72.2 L
461.131 72.078 L
462.191 71.958 L
463.252 71.841 L
464.313 71.727 L
465.373 71.616 L
466.434 71.508 L
467.494 71.404 L
468.555 71.303 L
469.615 71.206 L
470.676 71.113 L
471.736 71.024 L
472.797 70.939 L
473.857 70.858 L
474.918 70.782 L
475.979 70.711 L
477.039 70.644 L
478.1 70.583 L
479.16 70.526 L
480.221 70.476 L
481.281 70.43 L
482.342 70.39 L
483.402 70.356 L
484.463 70.329 L
485.523 70.307 L
486.584 70.291 L
487.645 70.282 L
488.705 70.279 L
489.766 70.283 L
490.826 70.293 L
491.887 70.31 L
492.947 70.335 L
494.008 70.366 L
495.068 70.404 L
496.129 70.449 L
497.189 70.501 L
498.25 70.561 L
499.311 70.627 L
500.371 70.701 L
501.432 70.782 L
502.492 70.87 L
503.553 70.966 L
504.613 71.068 L
505.674 71.178 L
506.734 71.294 L
507.795 71.418 L
508.855 71.548 L
509.916 71.685 L
510.977 71.829 L
512.037 71.979 L
513.098 72.137 L
514.158 72.3 L
515.219 72.47 L
516.279 72.646 L
517.34 72.828 L
518.4 73.016 L
519.461 73.21 L
520.521 73.409 L
521.582 73.615 L
522.643 73.825 L
523.703 74.041 L
524.764 74.263 L
525.824 74.489 L
526.885 74.72 L
527.945 74.956 L
529.006 75.197 L
530.066 75.443 L
531.127 75.693 L
532.188 75.947 L
533.248 76.206 L
534.309 76.469 L
535.369 76.736 L
536.43 77.007 L
537.49 77.281 L
538.551 77.56 L
539.611 77.843 L
540.672 78.129 L
541.732 78.419 L
542.793 78.712 L
543.854 79.009 L
544.914 79.31 L
545.975 79.614 L
547.035 79.921 L
548.096 80.232 L
549.156 80.546 L
550.217 80.864 L
551.277 81.185 L
552.338 81.509 L
553.398 81.837 L
554.459 82.168 L
555.52 82.503 L
556.58 82.841 L
557.641 83.182 L
558.701 83.527 L
559.762 83.876 L
560.822 84.228 L
561.883 84.584 L
562.943 84.943 L
564.004 85.307 L
565.064 85.674 L
566.125 86.045 L
567.186 86.421 L
568.246 86.801 L
569.307 87.185 L
570.367 87.574 L
571.428 87.967 L
572.488 88.365 L
573.549 88.768 L
574.609 89.176 L
575.67 89.59 L
576.73 90.009 L
577.791 90.434 L
578.852 90.865 L
579.912 91.302 L
580.973 91.745 L
582.033 92.196 L
583.094 92.653 L
584.154 93.118 L
585.215 93.591 L
586.275 94.072 L
587.336 94.561 L
588.396 95.059 L
589.457 95.567 L
590.518 96.085 L
591.578 96.613 L
592.639 97.152 L
593.699 97.703 L
594.76 98.266 L
595.82 98.842 L
596.881 99.432 L
597.941 100.037 L
599.002 100.658 L
600.063 101.295 L
601.123 101.95 L
602.184 102.624 L
603.244 103.318 L
604.305 104.035 L
605.365 104.775 L
606.426 105.54 L
607.486 106.333 L
608.547 107.157 L
609.607 108.012 L
610.668 108.903 L
611.729 109.834 L
612.789 110.807 L
613.85 111.827 L
614.91 112.901 L
615.971 114.033 L
617.031 115.231 L
618.092 116.504 L
619.152 117.863 L
620.213 119.319 L
621.273 120.89 L
622.334 122.595 L
623.395 124.46 L
624.455 126.52 L
625.516 128.819 L
626.576 131.423 L
627.637 134.427 L
628.697 137.977 L
629.758 142.319 L
630.818 147.915 L
631.879 155.798 L
632.939 169.271 L
S
GR
%%Trailer
%%Pages: 1
%%EOF
