%!PS-Adobe-3.0 EPSF-3.0
%%Creator: (MATLAB, The Mathworks, Inc. Version 9.0.0.341360 \(R2016a\). Operating System: Windows 8)
%%Title: C:/Users/Jeroen/surfdrive/HAN/DSPIPS/Material/DSPIPS_workshopNotes/figures/MA_ampl_response.eps
%%CreationDate: 2018-12-17T18:40:43
%%Pages: (atend)
%%BoundingBox: 0 0 420 315
%%LanguageLevel: 3
%%EndComments
%%BeginProlog
%%BeginResource: procset (Apache XML Graphics Std ProcSet) 1.2 0
%%Version: 1.2 0
%%Copyright: (Copyright 2001-2003,2010 The Apache Software Foundation. License terms: http://www.apache.org/licenses/LICENSE-2.0)
/bd{bind def}bind def
/ld{load def}bd
/GR/grestore ld
/M/moveto ld
/LJ/setlinejoin ld
/C/curveto ld
/f/fill ld
/LW/setlinewidth ld
/GC/setgray ld
/t/show ld
/N/newpath ld
/CT/concat ld
/cp/closepath ld
/S/stroke ld
/L/lineto ld
/CC/setcmykcolor ld
/A/ashow ld
/GS/gsave ld
/RC/setrgbcolor ld
/RM/rmoveto ld
/ML/setmiterlimit ld
/re {4 2 roll M
1 index 0 rlineto
0 exch rlineto
neg 0 rlineto
cp } bd
/_ctm matrix def
/_tm matrix def
/BT { _ctm currentmatrix pop matrix _tm copy pop 0 0 moveto } bd
/ET { _ctm setmatrix } bd
/iTm { _ctm setmatrix _tm concat } bd
/Tm { _tm astore pop iTm 0 0 moveto } bd
/ux 0.0 def
/uy 0.0 def
/F {
  /Tp exch def
  /Tf exch def
  Tf findfont Tp scalefont setfont
  /cf Tf def  /cs Tp def
} bd
/ULS {currentpoint /uy exch def /ux exch def} bd
/ULE {
  /Tcx currentpoint pop def
  gsave
  newpath
  cf findfont cs scalefont dup
  /FontMatrix get 0 get /Ts exch def /FontInfo get dup
  /UnderlinePosition get Ts mul /To exch def
  /UnderlineThickness get Ts mul /Tt exch def
  ux uy To add moveto  Tcx uy To add lineto
  Tt setlinewidth stroke
  grestore
} bd
/OLE {
  /Tcx currentpoint pop def
  gsave
  newpath
  cf findfont cs scalefont dup
  /FontMatrix get 0 get /Ts exch def /FontInfo get dup
  /UnderlinePosition get Ts mul /To exch def
  /UnderlineThickness get Ts mul /Tt exch def
  ux uy To add cs add moveto Tcx uy To add cs add lineto
  Tt setlinewidth stroke
  grestore
} bd
/SOE {
  /Tcx currentpoint pop def
  gsave
  newpath
  cf findfont cs scalefont dup
  /FontMatrix get 0 get /Ts exch def /FontInfo get dup
  /UnderlinePosition get Ts mul /To exch def
  /UnderlineThickness get Ts mul /Tt exch def
  ux uy To add cs 10 mul 26 idiv add moveto Tcx uy To add cs 10 mul 26 idiv add lineto
  Tt setlinewidth stroke
  grestore
} bd
/QT {
/Y22 exch store
/X22 exch store
/Y21 exch store
/X21 exch store
currentpoint
/Y21 load 2 mul add 3 div exch
/X21 load 2 mul add 3 div exch
/X21 load 2 mul /X22 load add 3 div
/Y21 load 2 mul /Y22 load add 3 div
/X22 load /Y22 load curveto
} bd
/SSPD {
dup length /d exch dict def
{
/v exch def
/k exch def
currentpagedevice k known {
/cpdv currentpagedevice k get def
v cpdv ne {
/upd false def
/nullv v type /nulltype eq def
/nullcpdv cpdv type /nulltype eq def
nullv nullcpdv or
{
/upd true def
} {
/sametype v type cpdv type eq def
sametype {
v type /arraytype eq {
/vlen v length def
/cpdvlen cpdv length def
vlen cpdvlen eq {
0 1 vlen 1 sub {
/i exch def
/obj v i get def
/cpdobj cpdv i get def
obj cpdobj ne {
/upd true def
exit
} if
} for
} {
/upd true def
} ifelse
} {
v type /dicttype eq {
v {
/dv exch def
/dk exch def
/cpddv cpdv dk get def
dv cpddv ne {
/upd true def
exit
} if
} forall
} {
/upd true def
} ifelse
} ifelse
} if
} ifelse
upd true eq {
d k v put
} if
} if
} if
} forall
d length 0 gt {
d setpagedevice
} if
} bd
%%EndResource
%%BeginResource: procset (Apache XML Graphics EPS ProcSet) 1.0 0
%%Version: 1.0 0
%%Copyright: (Copyright 2002-2003 The Apache Software Foundation. License terms: http://www.apache.org/licenses/LICENSE-2.0)
/BeginEPSF { %def
/b4_Inc_state save def         % Save state for cleanup
/dict_count countdictstack def % Count objects on dict stack
/op_count count 1 sub def      % Count objects on operand stack
userdict begin                 % Push userdict on dict stack
/showpage { } def              % Redefine showpage, { } = null proc
0 setgray 0 setlinecap         % Prepare graphics state
1 setlinewidth 0 setlinejoin
10 setmiterlimit [ ] 0 setdash newpath
/languagelevel where           % If level not equal to 1 then
{pop languagelevel             % set strokeadjust and
1 ne                           % overprint to their defaults.
{false setstrokeadjust false setoverprint
} if
} if
} bd
/EndEPSF { %def
count op_count sub {pop} repeat            % Clean up stacks
countdictstack dict_count sub {end} repeat
b4_Inc_state restore
} bd
%%EndResource
%FOPBeginFontDict
%%IncludeResource: font Courier-Bold
%%IncludeResource: font Helvetica
%%IncludeResource: font Courier-BoldOblique
%%IncludeResource: font Courier-Oblique
%%IncludeResource: font Times-Roman
%%IncludeResource: font Helvetica-BoldOblique
%%IncludeResource: font Helvetica-Bold
%%IncludeResource: font Helvetica-Oblique
%%IncludeResource: font Times-BoldItalic
%%IncludeResource: font Courier
%%IncludeResource: font Times-Italic
%%IncludeResource: font Times-Bold
%%IncludeResource: font Symbol
%%IncludeResource: font ZapfDingbats
%FOPEndFontDict
%%BeginResource: encoding WinAnsiEncoding
/WinAnsiEncoding [
/.notdef /.notdef /.notdef /.notdef /.notdef
/.notdef /.notdef /.notdef /.notdef /.notdef
/.notdef /.notdef /.notdef /.notdef /.notdef
/.notdef /.notdef /.notdef /.notdef /.notdef
/.notdef /.notdef /.notdef /.notdef /.notdef
/.notdef /.notdef /.notdef /.notdef /.notdef
/.notdef /.notdef /space /exclam /quotedbl
/numbersign /dollar /percent /ampersand /quotesingle
/parenleft /parenright /asterisk /plus /comma
/hyphen /period /slash /zero /one
/two /three /four /five /six
/seven /eight /nine /colon /semicolon
/less /equal /greater /question /at
/A /B /C /D /E
/F /G /H /I /J
/K /L /M /N /O
/P /Q /R /S /T
/U /V /W /X /Y
/Z /bracketleft /backslash /bracketright /asciicircum
/underscore /quoteleft /a /b /c
/d /e /f /g /h
/i /j /k /l /m
/n /o /p /q /r
/s /t /u /v /w
/x /y /z /braceleft /bar
/braceright /asciitilde /bullet /Euro /bullet
/quotesinglbase /florin /quotedblbase /ellipsis /dagger
/daggerdbl /circumflex /perthousand /Scaron /guilsinglleft
/OE /bullet /Zcaron /bullet /bullet
/quoteleft /quoteright /quotedblleft /quotedblright /bullet
/endash /emdash /asciitilde /trademark /scaron
/guilsinglright /oe /bullet /zcaron /Ydieresis
/space /exclamdown /cent /sterling /currency
/yen /brokenbar /section /dieresis /copyright
/ordfeminine /guillemotleft /logicalnot /sfthyphen /registered
/macron /degree /plusminus /twosuperior /threesuperior
/acute /mu /paragraph /middot /cedilla
/onesuperior /ordmasculine /guillemotright /onequarter /onehalf
/threequarters /questiondown /Agrave /Aacute /Acircumflex
/Atilde /Adieresis /Aring /AE /Ccedilla
/Egrave /Eacute /Ecircumflex /Edieresis /Igrave
/Iacute /Icircumflex /Idieresis /Eth /Ntilde
/Ograve /Oacute /Ocircumflex /Otilde /Odieresis
/multiply /Oslash /Ugrave /Uacute /Ucircumflex
/Udieresis /Yacute /Thorn /germandbls /agrave
/aacute /acircumflex /atilde /adieresis /aring
/ae /ccedilla /egrave /eacute /ecircumflex
/edieresis /igrave /iacute /icircumflex /idieresis
/eth /ntilde /ograve /oacute /ocircumflex
/otilde /odieresis /divide /oslash /ugrave
/uacute /ucircumflex /udieresis /yacute /thorn
/ydieresis
] def
%%EndResource
%FOPBeginFontReencode
/Courier-Bold findfont
dup length dict begin
  {1 index /FID ne {def} {pop pop} ifelse} forall
  /Encoding WinAnsiEncoding def
  currentdict
end
/Courier-Bold exch definefont pop
/Helvetica findfont
dup length dict begin
  {1 index /FID ne {def} {pop pop} ifelse} forall
  /Encoding WinAnsiEncoding def
  currentdict
end
/Helvetica exch definefont pop
/Courier-BoldOblique findfont
dup length dict begin
  {1 index /FID ne {def} {pop pop} ifelse} forall
  /Encoding WinAnsiEncoding def
  currentdict
end
/Courier-BoldOblique exch definefont pop
/Courier-Oblique findfont
dup length dict begin
  {1 index /FID ne {def} {pop pop} ifelse} forall
  /Encoding WinAnsiEncoding def
  currentdict
end
/Courier-Oblique exch definefont pop
/Times-Roman findfont
dup length dict begin
  {1 index /FID ne {def} {pop pop} ifelse} forall
  /Encoding WinAnsiEncoding def
  currentdict
end
/Times-Roman exch definefont pop
/Helvetica-BoldOblique findfont
dup length dict begin
  {1 index /FID ne {def} {pop pop} ifelse} forall
  /Encoding WinAnsiEncoding def
  currentdict
end
/Helvetica-BoldOblique exch definefont pop
/Helvetica-Bold findfont
dup length dict begin
  {1 index /FID ne {def} {pop pop} ifelse} forall
  /Encoding WinAnsiEncoding def
  currentdict
end
/Helvetica-Bold exch definefont pop
/Helvetica-Oblique findfont
dup length dict begin
  {1 index /FID ne {def} {pop pop} ifelse} forall
  /Encoding WinAnsiEncoding def
  currentdict
end
/Helvetica-Oblique exch definefont pop
/Times-BoldItalic findfont
dup length dict begin
  {1 index /FID ne {def} {pop pop} ifelse} forall
  /Encoding WinAnsiEncoding def
  currentdict
end
/Times-BoldItalic exch definefont pop
/Courier findfont
dup length dict begin
  {1 index /FID ne {def} {pop pop} ifelse} forall
  /Encoding WinAnsiEncoding def
  currentdict
end
/Courier exch definefont pop
/Times-Italic findfont
dup length dict begin
  {1 index /FID ne {def} {pop pop} ifelse} forall
  /Encoding WinAnsiEncoding def
  currentdict
end
/Times-Italic exch definefont pop
/Times-Bold findfont
dup length dict begin
  {1 index /FID ne {def} {pop pop} ifelse} forall
  /Encoding WinAnsiEncoding def
  currentdict
end
/Times-Bold exch definefont pop
%FOPEndFontReencode
%%EndProlog
%%Page: 1 1
%%PageBoundingBox: 0 0 420 315
%%BeginPageSetup
[1 0 0 -1 0 315] CT
%%EndPageSetup
GS
[0.75 0 0 0.75 0 0] CT
1 GC
N
0 0 560 420 re
f
GR
GS
[0.75 0 0 0.75 0 0] CT
1 GC
N
0 0 560 420 re
f
GR
GS
[0.75 0 0 0.75 0 0] CT
1 GC
N
73 370 M
507 370 L
507 31 L
73 31 L
cp
f
GR
GS
[0.75 0 0 0.75 0 0] CT
0.873 GC
1 LJ
0.667 LW
N
73 370 M
73 31 L
S
GR
GS
[0.75 0 0 0.75 0 0] CT
0.873 GC
1 LJ
0.667 LW
N
116.4 370 M
116.4 31 L
S
GR
GS
[0.75 0 0 0.75 0 0] CT
0.873 GC
1 LJ
0.667 LW
N
159.8 370 M
159.8 31 L
S
GR
GS
[0.75 0 0 0.75 0 0] CT
0.873 GC
1 LJ
0.667 LW
N
203.2 370 M
203.2 31 L
S
GR
GS
[0.75 0 0 0.75 0 0] CT
0.873 GC
1 LJ
0.667 LW
N
246.6 370 M
246.6 31 L
S
GR
GS
[0.75 0 0 0.75 0 0] CT
0.873 GC
1 LJ
0.667 LW
N
290 370 M
290 31 L
S
GR
GS
[0.75 0 0 0.75 0 0] CT
0.873 GC
1 LJ
0.667 LW
N
333.4 370 M
333.4 31 L
S
GR
GS
[0.75 0 0 0.75 0 0] CT
0.873 GC
1 LJ
0.667 LW
N
376.8 370 M
376.8 31 L
S
GR
GS
[0.75 0 0 0.75 0 0] CT
0.873 GC
1 LJ
0.667 LW
N
420.2 370 M
420.2 31 L
S
GR
GS
[0.75 0 0 0.75 0 0] CT
0.873 GC
1 LJ
0.667 LW
N
463.6 370 M
463.6 31 L
S
GR
GS
[0.75 0 0 0.75 0 0] CT
0.873 GC
1 LJ
0.667 LW
N
507 370 M
507 31 L
S
GR
GS
[0.75 0 0 0.75 0 0] CT
0.873 GC
1 LJ
0.667 LW
N
507 370 M
73 370 L
S
GR
GS
[0.75 0 0 0.75 0 0] CT
0.873 GC
1 LJ
0.667 LW
N
507 336.1 M
73 336.1 L
S
GR
GS
[0.75 0 0 0.75 0 0] CT
0.873 GC
1 LJ
0.667 LW
N
507 302.2 M
73 302.2 L
S
GR
GS
[0.75 0 0 0.75 0 0] CT
0.873 GC
1 LJ
0.667 LW
N
507 268.3 M
73 268.3 L
S
GR
GS
[0.75 0 0 0.75 0 0] CT
0.873 GC
1 LJ
0.667 LW
N
507 234.4 M
73 234.4 L
S
GR
GS
[0.75 0 0 0.75 0 0] CT
0.873 GC
1 LJ
0.667 LW
N
507 200.5 M
73 200.5 L
S
GR
GS
[0.75 0 0 0.75 0 0] CT
0.873 GC
1 LJ
0.667 LW
N
507 166.6 M
73 166.6 L
S
GR
GS
[0.75 0 0 0.75 0 0] CT
0.873 GC
1 LJ
0.667 LW
N
507 132.7 M
73 132.7 L
S
GR
GS
[0.75 0 0 0.75 0 0] CT
0.873 GC
1 LJ
0.667 LW
N
507 98.8 M
73 98.8 L
S
GR
GS
[0.75 0 0 0.75 0 0] CT
0.873 GC
1 LJ
0.667 LW
N
507 64.9 M
73 64.9 L
S
GR
GS
[0.75 0 0 0.75 0 0] CT
0.873 GC
1 LJ
0.667 LW
N
507 31 M
73 31 L
S
GR
GS
[0.75 0 0 0.75 0 0] CT
0.149 GC
2 setlinecap
1 LJ
0.667 LW
N
73 370 M
507 370 L
S
GR
GS
[0.75 0 0 0.75 0 0] CT
0.149 GC
2 setlinecap
1 LJ
0.667 LW
N
73 31 M
507 31 L
S
GR
GS
[0.75 0 0 0.75 0 0] CT
0.149 GC
2 setlinecap
1 LJ
0.667 LW
N
73 370 M
73 365.66 L
S
GR
GS
[0.75 0 0 0.75 0 0] CT
0.149 GC
2 setlinecap
1 LJ
0.667 LW
N
116.4 370 M
116.4 365.66 L
S
GR
GS
[0.75 0 0 0.75 0 0] CT
0.149 GC
2 setlinecap
1 LJ
0.667 LW
N
159.8 370 M
159.8 365.66 L
S
GR
GS
[0.75 0 0 0.75 0 0] CT
0.149 GC
2 setlinecap
1 LJ
0.667 LW
N
203.2 370 M
203.2 365.66 L
S
GR
GS
[0.75 0 0 0.75 0 0] CT
0.149 GC
2 setlinecap
1 LJ
0.667 LW
N
246.6 370 M
246.6 365.66 L
S
GR
GS
[0.75 0 0 0.75 0 0] CT
0.149 GC
2 setlinecap
1 LJ
0.667 LW
N
290 370 M
290 365.66 L
S
GR
GS
[0.75 0 0 0.75 0 0] CT
0.149 GC
2 setlinecap
1 LJ
0.667 LW
N
333.4 370 M
333.4 365.66 L
S
GR
GS
[0.75 0 0 0.75 0 0] CT
0.149 GC
2 setlinecap
1 LJ
0.667 LW
N
376.8 370 M
376.8 365.66 L
S
GR
GS
[0.75 0 0 0.75 0 0] CT
0.149 GC
2 setlinecap
1 LJ
0.667 LW
N
420.2 370 M
420.2 365.66 L
S
GR
GS
[0.75 0 0 0.75 0 0] CT
0.149 GC
2 setlinecap
1 LJ
0.667 LW
N
463.6 370 M
463.6 365.66 L
S
GR
GS
[0.75 0 0 0.75 0 0] CT
0.149 GC
2 setlinecap
1 LJ
0.667 LW
N
507 370 M
507 365.66 L
S
GR
GS
[0.75 0 0 0.75 0 0] CT
0.149 GC
2 setlinecap
1 LJ
0.667 LW
N
73 31 M
73 35.34 L
S
GR
GS
[0.75 0 0 0.75 0 0] CT
0.149 GC
2 setlinecap
1 LJ
0.667 LW
N
116.4 31 M
116.4 35.34 L
S
GR
GS
[0.75 0 0 0.75 0 0] CT
0.149 GC
2 setlinecap
1 LJ
0.667 LW
N
159.8 31 M
159.8 35.34 L
S
GR
GS
[0.75 0 0 0.75 0 0] CT
0.149 GC
2 setlinecap
1 LJ
0.667 LW
N
203.2 31 M
203.2 35.34 L
S
GR
GS
[0.75 0 0 0.75 0 0] CT
0.149 GC
2 setlinecap
1 LJ
0.667 LW
N
246.6 31 M
246.6 35.34 L
S
GR
GS
[0.75 0 0 0.75 0 0] CT
0.149 GC
2 setlinecap
1 LJ
0.667 LW
N
290 31 M
290 35.34 L
S
GR
GS
[0.75 0 0 0.75 0 0] CT
0.149 GC
2 setlinecap
1 LJ
0.667 LW
N
333.4 31 M
333.4 35.34 L
S
GR
GS
[0.75 0 0 0.75 0 0] CT
0.149 GC
2 setlinecap
1 LJ
0.667 LW
N
376.8 31 M
376.8 35.34 L
S
GR
GS
[0.75 0 0 0.75 0 0] CT
0.149 GC
2 setlinecap
1 LJ
0.667 LW
N
420.2 31 M
420.2 35.34 L
S
GR
GS
[0.75 0 0 0.75 0 0] CT
0.149 GC
2 setlinecap
1 LJ
0.667 LW
N
463.6 31 M
463.6 35.34 L
S
GR
GS
[0.75 0 0 0.75 0 0] CT
0.149 GC
2 setlinecap
1 LJ
0.667 LW
N
507 31 M
507 35.34 L
S
GR
GS
[0.75 0 0 0.75 54.75 281.50001] CT
0.149 GC
/Helvetica 13.333 F
GS
[1 0 0 1 0 0] CT
-6 14 moveto 
1 -1 scale
(-1) t 
GR
GR
GS
[0.75 0 0 0.75 87.3 281.50001] CT
0.149 GC
/Helvetica 13.333 F
GS
[1 0 0 1 0 0] CT
-11.5 14 moveto 
1 -1 scale
(-0.8) t 
GR
GR
GS
[0.75 0 0 0.75 119.84999 281.50001] CT
0.149 GC
/Helvetica 13.333 F
GS
[1 0 0 1 0 0] CT
-11.5 14 moveto 
1 -1 scale
(-0.6) t 
GR
GR
GS
[0.75 0 0 0.75 152.4 281.50001] CT
0.149 GC
/Helvetica 13.333 F
GS
[1 0 0 1 0 0] CT
-11.5 14 moveto 
1 -1 scale
(-0.4) t 
GR
GR
GS
[0.75 0 0 0.75 184.95 281.50001] CT
0.149 GC
/Helvetica 13.333 F
GS
[1 0 0 1 0 0] CT
-11.5 14 moveto 
1 -1 scale
(-0.2) t 
GR
GR
GS
[0.75 0 0 0.75 217.5 281.50001] CT
0.149 GC
/Helvetica 13.333 F
GS
[1 0 0 1 0 0] CT
-4 14 moveto 
1 -1 scale
(0) t 
GR
GR
GS
[0.75 0 0 0.75 250.05 281.50001] CT
0.149 GC
/Helvetica 13.333 F
GS
[1 0 0 1 0 0] CT
-9.5 14 moveto 
1 -1 scale
(0.2) t 
GR
GR
GS
[0.75 0 0 0.75 282.59999 281.50001] CT
0.149 GC
/Helvetica 13.333 F
GS
[1 0 0 1 0 0] CT
-9.5 14 moveto 
1 -1 scale
(0.4) t 
GR
GR
GS
[0.75 0 0 0.75 315.15001 281.50001] CT
0.149 GC
/Helvetica 13.333 F
GS
[1 0 0 1 0 0] CT
-9.5 14 moveto 
1 -1 scale
(0.6) t 
GR
GR
GS
[0.75 0 0 0.75 347.7 281.50001] CT
0.149 GC
/Helvetica 13.333 F
GS
[1 0 0 1 0 0] CT
-9.5 14 moveto 
1 -1 scale
(0.8) t 
GR
GR
GS
[0.75 0 0 0.75 380.25 281.50001] CT
0.149 GC
/Helvetica 13.333 F
GS
[1 0 0 1 0 0] CT
-4 14 moveto 
1 -1 scale
(1) t 
GR
GR
GS
[0.75 0 0 0.75 205.5 307.5] CT
0.149 GC
/Helvetica 14.667 F
GS
[1 0 0 1 0 0] CT
0 0 moveto 
1 -1 scale
(f/f) t 
GR
GR
GS
[0.75 0 0 0.75 215.25 312.75] CT
0.149 GC
/Helvetica 10.667 F
GS
[1 0 0 1 0 0] CT
0 0 moveto 
1 -1 scale
(nyq) t 
GR
GR
GS
[0.75 0 0 0.75 0 0] CT
0.149 GC
2 setlinecap
1 LJ
0.667 LW
N
73 370 M
73 31 L
S
GR
GS
[0.75 0 0 0.75 0 0] CT
0.149 GC
2 setlinecap
1 LJ
0.667 LW
N
507 370 M
507 31 L
S
GR
GS
[0.75 0 0 0.75 0 0] CT
0.149 GC
2 setlinecap
1 LJ
0.667 LW
N
73 370 M
77.34 370 L
S
GR
GS
[0.75 0 0 0.75 0 0] CT
0.149 GC
2 setlinecap
1 LJ
0.667 LW
N
73 336.1 M
77.34 336.1 L
S
GR
GS
[0.75 0 0 0.75 0 0] CT
0.149 GC
2 setlinecap
1 LJ
0.667 LW
N
73 302.2 M
77.34 302.2 L
S
GR
GS
[0.75 0 0 0.75 0 0] CT
0.149 GC
2 setlinecap
1 LJ
0.667 LW
N
73 268.3 M
77.34 268.3 L
S
GR
GS
[0.75 0 0 0.75 0 0] CT
0.149 GC
2 setlinecap
1 LJ
0.667 LW
N
73 234.4 M
77.34 234.4 L
S
GR
GS
[0.75 0 0 0.75 0 0] CT
0.149 GC
2 setlinecap
1 LJ
0.667 LW
N
73 200.5 M
77.34 200.5 L
S
GR
GS
[0.75 0 0 0.75 0 0] CT
0.149 GC
2 setlinecap
1 LJ
0.667 LW
N
73 166.6 M
77.34 166.6 L
S
GR
GS
[0.75 0 0 0.75 0 0] CT
0.149 GC
2 setlinecap
1 LJ
0.667 LW
N
73 132.7 M
77.34 132.7 L
S
GR
GS
[0.75 0 0 0.75 0 0] CT
0.149 GC
2 setlinecap
1 LJ
0.667 LW
N
73 98.8 M
77.34 98.8 L
S
GR
GS
[0.75 0 0 0.75 0 0] CT
0.149 GC
2 setlinecap
1 LJ
0.667 LW
N
73 64.9 M
77.34 64.9 L
S
GR
GS
[0.75 0 0 0.75 0 0] CT
0.149 GC
2 setlinecap
1 LJ
0.667 LW
N
73 31 M
77.34 31 L
S
GR
GS
[0.75 0 0 0.75 0 0] CT
0.149 GC
2 setlinecap
1 LJ
0.667 LW
N
507 370 M
502.66 370 L
S
GR
GS
[0.75 0 0 0.75 0 0] CT
0.149 GC
2 setlinecap
1 LJ
0.667 LW
N
507 336.1 M
502.66 336.1 L
S
GR
GS
[0.75 0 0 0.75 0 0] CT
0.149 GC
2 setlinecap
1 LJ
0.667 LW
N
507 302.2 M
502.66 302.2 L
S
GR
GS
[0.75 0 0 0.75 0 0] CT
0.149 GC
2 setlinecap
1 LJ
0.667 LW
N
507 268.3 M
502.66 268.3 L
S
GR
GS
[0.75 0 0 0.75 0 0] CT
0.149 GC
2 setlinecap
1 LJ
0.667 LW
N
507 234.4 M
502.66 234.4 L
S
GR
GS
[0.75 0 0 0.75 0 0] CT
0.149 GC
2 setlinecap
1 LJ
0.667 LW
N
507 200.5 M
502.66 200.5 L
S
GR
GS
[0.75 0 0 0.75 0 0] CT
0.149 GC
2 setlinecap
1 LJ
0.667 LW
N
507 166.6 M
502.66 166.6 L
S
GR
GS
[0.75 0 0 0.75 0 0] CT
0.149 GC
2 setlinecap
1 LJ
0.667 LW
N
507 132.7 M
502.66 132.7 L
S
GR
GS
[0.75 0 0 0.75 0 0] CT
0.149 GC
2 setlinecap
1 LJ
0.667 LW
N
507 98.8 M
502.66 98.8 L
S
GR
GS
[0.75 0 0 0.75 0 0] CT
0.149 GC
2 setlinecap
1 LJ
0.667 LW
N
507 64.9 M
502.66 64.9 L
S
GR
GS
[0.75 0 0 0.75 0 0] CT
0.149 GC
2 setlinecap
1 LJ
0.667 LW
N
507 31 M
502.66 31 L
S
GR
GS
[0.75 0 0 0.75 50.74999 277.5] CT
0.149 GC
/Helvetica 13.333 F
GS
[1 0 0 1 0 0] CT
-8 5.5 moveto 
1 -1 scale
(0) t 
GR
GR
GS
[0.75 0 0 0.75 50.74999 252.075] CT
0.149 GC
/Helvetica 13.333 F
GS
[1 0 0 1 0 0] CT
-19 5.5 moveto 
1 -1 scale
(0.1) t 
GR
GR
GS
[0.75 0 0 0.75 50.74999 226.65001] CT
0.149 GC
/Helvetica 13.333 F
GS
[1 0 0 1 0 0] CT
-19 5.5 moveto 
1 -1 scale
(0.2) t 
GR
GR
GS
[0.75 0 0 0.75 50.74999 201.22499] CT
0.149 GC
/Helvetica 13.333 F
GS
[1 0 0 1 0 0] CT
-19 5.5 moveto 
1 -1 scale
(0.3) t 
GR
GR
GS
[0.75 0 0 0.75 50.74999 175.8] CT
0.149 GC
/Helvetica 13.333 F
GS
[1 0 0 1 0 0] CT
-19 5.5 moveto 
1 -1 scale
(0.4) t 
GR
GR
GS
[0.75 0 0 0.75 50.74999 150.375] CT
0.149 GC
/Helvetica 13.333 F
GS
[1 0 0 1 0 0] CT
-19 5.5 moveto 
1 -1 scale
(0.5) t 
GR
GR
GS
[0.75 0 0 0.75 50.74999 124.94999] CT
0.149 GC
/Helvetica 13.333 F
GS
[1 0 0 1 0 0] CT
-19 5.5 moveto 
1 -1 scale
(0.6) t 
GR
GR
GS
[0.75 0 0 0.75 50.74999 99.525] CT
0.149 GC
/Helvetica 13.333 F
GS
[1 0 0 1 0 0] CT
-19 5.5 moveto 
1 -1 scale
(0.7) t 
GR
GR
GS
[0.75 0 0 0.75 50.74999 74.1] CT
0.149 GC
/Helvetica 13.333 F
GS
[1 0 0 1 0 0] CT
-19 5.5 moveto 
1 -1 scale
(0.8) t 
GR
GR
GS
[0.75 0 0 0.75 50.74999 48.67501] CT
0.149 GC
/Helvetica 13.333 F
GS
[1 0 0 1 0 0] CT
-19 5.5 moveto 
1 -1 scale
(0.9) t 
GR
GR
GS
[0.75 0 0 0.75 50.74999 23.25] CT
0.149 GC
/Helvetica 13.333 F
GS
[1 0 0 1 0 0] CT
-8 5.5 moveto 
1 -1 scale
(1) t 
GR
GR
GS
[0 -0.75 0.75 0 33.5 150.37487] CT
0.149 GC
/Helvetica 14.667 F
GS
[1 0 0 1 0 0] CT
-9.5 -4 moveto 
1 -1 scale
(|H|) t 
GR
GR
GS
[0.75 0 0 0.75 0 0] CT
0 0.447 0.741 RC
1 LJ
0.667 LW
N
73 370 M
75.17 364.675 L
77.34 359.352 L
79.51 354.031 L
81.68 348.714 L
83.85 343.402 L
86.02 338.097 L
88.19 332.8 L
90.36 327.512 L
92.53 322.234 L
94.7 316.969 L
96.87 311.716 L
99.04 306.478 L
101.21 301.255 L
103.38 296.049 L
105.55 290.862 L
107.72 285.694 L
109.89 280.547 L
112.06 275.422 L
114.23 270.32 L
116.4 265.243 L
118.57 260.192 L
120.74 255.168 L
122.91 250.172 L
125.08 245.206 L
127.25 240.27 L
129.42 235.367 L
131.59 230.497 L
133.76 225.661 L
135.93 220.861 L
138.1 216.097 L
140.27 211.372 L
142.44 206.686 L
144.61 202.04 L
146.78 197.435 L
148.95 192.873 L
151.12 188.355 L
153.29 183.881 L
155.46 179.454 L
157.63 175.073 L
159.8 170.741 L
161.97 166.458 L
164.14 162.225 L
166.31 158.043 L
168.48 153.913 L
170.65 149.837 L
172.82 145.815 L
174.99 141.849 L
177.16 137.939 L
179.33 134.086 L
181.5 130.291 L
183.67 126.555 L
185.84 122.88 L
188.01 119.265 L
190.18 115.712 L
192.35 112.222 L
194.52 108.796 L
196.69 105.434 L
198.86 102.137 L
201.03 98.907 L
203.2 95.743 L
205.37 92.647 L
207.54 89.62 L
209.71 86.661 L
211.88 83.773 L
214.05 80.955 L
216.22 78.208 L
218.39 75.534 L
220.56 72.932 L
222.73 70.403 L
224.9 67.949 L
227.07 65.569 L
229.24 63.264 L
231.41 61.034 L
233.58 58.881 L
235.75 56.805 L
237.92 54.806 L
240.09 52.884 L
242.26 51.041 L
244.43 49.277 L
246.6 47.592 L
248.77 45.986 L
250.94 44.46 L
253.11 43.015 L
255.28 41.65 L
257.45 40.367 L
259.62 39.164 L
261.79 38.043 L
263.96 37.005 L
266.13 36.048 L
268.3 35.174 L
270.47 34.382 L
272.64 33.673 L
274.81 33.047 L
276.98 32.504 L
279.15 32.045 L
281.32 31.669 L
283.49 31.376 L
285.66 31.167 L
287.83 31.042 L
S
GR
GS
[0.75 0 0 0.75 0 0] CT
0 0.447 0.741 RC
1 LJ
0.667 LW
N
292.17 31.042 M
294.34 31.167 L
296.51 31.376 L
298.68 31.669 L
300.85 32.045 L
303.02 32.504 L
305.19 33.047 L
307.36 33.673 L
309.53 34.382 L
311.7 35.174 L
313.87 36.048 L
316.04 37.005 L
318.21 38.043 L
320.38 39.164 L
322.55 40.367 L
324.72 41.65 L
326.89 43.015 L
329.06 44.46 L
331.23 45.986 L
333.4 47.592 L
335.57 49.277 L
337.74 51.041 L
339.91 52.884 L
342.08 54.806 L
344.25 56.805 L
346.42 58.881 L
348.59 61.034 L
350.76 63.264 L
352.93 65.569 L
355.1 67.949 L
357.27 70.403 L
359.44 72.932 L
361.61 75.534 L
363.78 78.208 L
365.95 80.955 L
368.12 83.773 L
370.29 86.661 L
372.46 89.62 L
374.63 92.647 L
376.8 95.743 L
378.97 98.907 L
381.14 102.137 L
383.31 105.434 L
385.48 108.796 L
387.65 112.222 L
389.82 115.712 L
391.99 119.265 L
394.16 122.88 L
396.33 126.555 L
398.5 130.291 L
400.67 134.086 L
402.84 137.939 L
405.01 141.849 L
407.18 145.815 L
409.35 149.837 L
411.52 153.913 L
413.69 158.043 L
415.86 162.225 L
418.03 166.458 L
420.2 170.741 L
422.37 175.073 L
424.54 179.454 L
426.71 183.881 L
428.88 188.355 L
431.05 192.873 L
433.22 197.435 L
435.39 202.04 L
437.56 206.686 L
439.73 211.372 L
441.9 216.097 L
444.07 220.861 L
446.24 225.661 L
448.41 230.497 L
450.58 235.367 L
452.75 240.27 L
454.92 245.206 L
457.09 250.172 L
459.26 255.168 L
461.43 260.192 L
463.6 265.243 L
465.77 270.32 L
467.94 275.422 L
470.11 280.547 L
472.28 285.694 L
474.45 290.862 L
476.62 296.049 L
478.79 301.255 L
480.96 306.478 L
483.13 311.716 L
485.3 316.969 L
487.47 322.234 L
489.64 327.512 L
491.81 332.8 L
493.98 338.097 L
496.15 343.402 L
498.32 348.714 L
500.49 354.031 L
502.66 359.352 L
504.83 364.675 L
507 370 L
S
GR
GS
[0.75 0 0 0.75 0 0] CT
0.851 0.325 0.098 RC
1 LJ
0.667 LW
N
73 370 M
75.17 364.678 L
77.34 359.373 L
79.51 354.102 L
81.68 348.882 L
83.85 343.73 L
86.02 338.662 L
88.19 333.696 L
90.36 328.847 L
92.53 324.131 L
94.7 319.564 L
96.87 315.162 L
99.04 310.939 L
101.21 306.909 L
103.38 303.088 L
105.55 299.488 L
107.72 296.122 L
109.89 293.004 L
112.06 290.145 L
114.23 287.557 L
116.4 285.25 L
118.57 283.235 L
120.74 281.52 L
122.91 280.116 L
125.08 279.029 L
127.25 278.267 L
129.42 277.837 L
131.59 277.745 L
133.76 277.995 L
135.93 278.591 L
138.1 279.538 L
140.27 280.838 L
142.44 282.492 L
144.61 284.501 L
146.78 286.866 L
148.95 289.586 L
151.12 292.659 L
153.29 296.083 L
155.46 299.855 L
157.63 303.971 L
159.8 308.426 L
161.97 313.213 L
164.14 318.328 L
166.31 323.763 L
168.48 329.509 L
170.65 335.559 L
172.82 341.902 L
174.99 348.529 L
177.16 355.429 L
179.33 362.59 L
181.5 370 L
183.67 362.353 L
185.84 354.483 L
188.01 346.404 L
190.18 338.129 L
192.35 329.675 L
194.52 321.055 L
196.69 312.287 L
198.86 303.385 L
201.03 294.367 L
203.2 285.25 L
205.37 276.05 L
207.54 266.785 L
209.71 257.473 L
211.88 248.13 L
214.05 238.776 L
216.22 229.428 L
218.39 220.105 L
220.56 210.823 L
222.73 201.602 L
224.9 192.459 L
227.07 183.412 L
229.24 174.479 L
231.41 165.677 L
233.58 157.025 L
235.75 148.538 L
237.92 140.233 L
240.09 132.128 L
242.26 124.238 L
244.43 116.579 L
246.6 109.166 L
248.77 102.014 L
250.94 95.138 L
253.11 88.55 L
255.28 82.265 L
257.45 76.294 L
259.62 70.651 L
261.79 65.345 L
263.96 60.389 L
266.13 55.791 L
268.3 51.561 L
270.47 47.708 L
272.64 44.239 L
274.81 41.162 L
276.98 38.482 L
279.15 36.206 L
281.32 34.337 L
283.49 32.879 L
285.66 31.836 L
287.83 31.209 L
S
GR
GS
[0.75 0 0 0.75 0 0] CT
0.851 0.325 0.098 RC
1 LJ
0.667 LW
N
292.17 31.209 M
294.34 31.836 L
296.51 32.879 L
298.68 34.337 L
300.85 36.206 L
303.02 38.482 L
305.19 41.162 L
307.36 44.239 L
309.53 47.708 L
311.7 51.561 L
313.87 55.791 L
316.04 60.389 L
318.21 65.345 L
320.38 70.651 L
322.55 76.294 L
324.72 82.265 L
326.89 88.55 L
329.06 95.138 L
331.23 102.014 L
333.4 109.166 L
335.57 116.579 L
337.74 124.238 L
339.91 132.128 L
342.08 140.233 L
344.25 148.538 L
346.42 157.025 L
348.59 165.677 L
350.76 174.479 L
352.93 183.412 L
355.1 192.459 L
357.27 201.602 L
359.44 210.823 L
361.61 220.105 L
363.78 229.428 L
365.95 238.776 L
368.12 248.13 L
370.29 257.473 L
372.46 266.785 L
374.63 276.05 L
376.8 285.25 L
378.97 294.367 L
381.14 303.385 L
383.31 312.287 L
385.48 321.055 L
387.65 329.675 L
389.82 338.129 L
391.99 346.404 L
394.16 354.483 L
396.33 362.353 L
398.5 370 L
400.67 362.59 L
402.84 355.429 L
405.01 348.529 L
407.18 341.902 L
409.35 335.559 L
411.52 329.509 L
413.69 323.763 L
415.86 318.328 L
418.03 313.213 L
420.2 308.426 L
422.37 303.971 L
424.54 299.855 L
426.71 296.083 L
428.88 292.659 L
431.05 289.586 L
433.22 286.866 L
435.39 284.501 L
437.56 282.492 L
439.73 280.838 L
441.9 279.538 L
444.07 278.591 L
446.24 277.995 L
448.41 277.745 L
450.58 277.837 L
452.75 278.267 L
454.92 279.029 L
457.09 280.116 L
459.26 281.52 L
461.43 283.235 L
463.6 285.25 L
465.77 287.557 L
467.94 290.145 L
470.11 293.004 L
472.28 296.122 L
474.45 299.488 L
476.62 303.088 L
478.79 306.909 L
480.96 310.939 L
483.13 315.162 L
485.3 319.564 L
487.47 324.131 L
489.64 328.847 L
491.81 333.696 L
493.98 338.662 L
496.15 343.73 L
498.32 348.882 L
500.49 354.102 L
502.66 359.373 L
504.83 364.678 L
507 370 L
S
GR
GS
[0.75 0 0 0.75 0 0] CT
0.929 0.694 0.125 RC
1 LJ
0.667 LW
N
73 370 M
75.17 364.688 L
77.34 359.457 L
79.51 354.383 L
81.68 349.545 L
83.85 345.016 L
86.02 340.863 L
88.19 337.151 L
90.36 333.937 L
92.53 331.272 L
94.7 329.197 L
96.87 327.746 L
99.04 326.946 L
101.21 326.811 L
103.38 327.348 L
105.55 328.554 L
107.72 330.414 L
109.89 332.907 L
112.06 335.999 L
114.23 339.651 L
116.4 343.811 L
118.57 348.422 L
120.74 353.421 L
122.91 358.734 L
125.08 364.288 L
127.25 370 L
129.42 364.213 L
131.59 358.437 L
133.76 352.76 L
135.93 347.268 L
138.1 342.046 L
140.27 337.177 L
142.44 332.741 L
144.61 328.811 L
146.78 325.455 L
148.95 322.734 L
151.12 320.701 L
153.29 319.401 L
155.46 318.867 L
157.63 319.124 L
159.8 320.185 L
161.97 322.054 L
164.14 324.72 L
166.31 328.163 L
168.48 332.353 L
170.65 337.245 L
172.82 342.785 L
174.99 348.909 L
177.16 355.544 L
179.33 362.604 L
181.5 370 L
183.67 362.368 L
185.84 354.606 L
188.01 346.822 L
190.18 339.131 L
192.35 331.648 L
194.52 324.492 L
196.69 317.779 L
198.86 311.625 L
201.03 306.141 L
203.2 301.436 L
205.37 297.61 L
207.54 294.76 L
209.71 292.97 L
211.88 292.317 L
214.05 292.869 L
216.22 294.678 L
218.39 297.787 L
220.56 302.226 L
222.73 308.008 L
224.9 315.137 L
227.07 323.597 L
229.24 333.363 L
231.41 344.392 L
233.58 356.627 L
235.75 370 L
237.92 355.573 L
240.09 340.187 L
242.26 323.949 L
244.43 306.977 L
246.6 289.398 L
248.77 271.348 L
250.94 252.969 L
253.11 234.411 L
255.28 215.824 L
257.45 197.364 L
259.62 179.188 L
261.79 161.45 L
263.96 144.303 L
266.13 127.898 L
268.3 112.378 L
270.47 97.88 L
272.64 84.534 L
274.81 72.459 L
276.98 61.763 L
279.15 52.543 L
281.32 44.882 L
283.49 38.85 L
285.66 34.502 L
287.83 31.878 L
S
GR
GS
[0.75 0 0 0.75 0 0] CT
0.929 0.694 0.125 RC
1 LJ
0.667 LW
N
292.17 31.878 M
294.34 34.502 L
296.51 38.85 L
298.68 44.882 L
300.85 52.543 L
303.02 61.763 L
305.19 72.459 L
307.36 84.534 L
309.53 97.88 L
311.7 112.378 L
313.87 127.898 L
316.04 144.303 L
318.21 161.45 L
320.38 179.188 L
322.55 197.364 L
324.72 215.824 L
326.89 234.411 L
329.06 252.969 L
331.23 271.348 L
333.4 289.398 L
335.57 306.977 L
337.74 323.949 L
339.91 340.187 L
342.08 355.573 L
344.25 370 L
346.42 356.627 L
348.59 344.392 L
350.76 333.363 L
352.93 323.597 L
355.1 315.137 L
357.27 308.008 L
359.44 302.226 L
361.61 297.787 L
363.78 294.678 L
365.95 292.869 L
368.12 292.317 L
370.29 292.97 L
372.46 294.76 L
374.63 297.61 L
376.8 301.436 L
378.97 306.141 L
381.14 311.625 L
383.31 317.779 L
385.48 324.492 L
387.65 331.648 L
389.82 339.131 L
391.99 346.822 L
394.16 354.606 L
396.33 362.368 L
398.5 370 L
400.67 362.604 L
402.84 355.544 L
405.01 348.909 L
407.18 342.785 L
409.35 337.245 L
411.52 332.353 L
413.69 328.163 L
415.86 324.72 L
418.03 322.054 L
420.2 320.185 L
422.37 319.124 L
424.54 318.867 L
426.71 319.401 L
428.88 320.701 L
431.05 322.734 L
433.22 325.455 L
435.39 328.811 L
437.56 332.741 L
439.73 337.177 L
441.9 342.046 L
444.07 347.268 L
446.24 352.76 L
448.41 358.437 L
450.58 364.213 L
452.75 370 L
454.92 364.288 L
457.09 358.734 L
459.26 353.421 L
461.43 348.422 L
463.6 343.811 L
465.77 339.651 L
467.94 335.999 L
470.11 332.907 L
472.28 330.414 L
474.45 328.554 L
476.62 327.348 L
478.79 326.811 L
480.96 326.946 L
483.13 327.746 L
485.3 329.197 L
487.47 331.272 L
489.64 333.937 L
491.81 337.151 L
493.98 340.863 L
496.15 345.016 L
498.32 349.545 L
500.49 354.383 L
502.66 359.457 L
504.83 364.688 L
507 370 L
S
GR
GS
[0.75 0 0 0.75 0 0] CT
1 GC
N
431 97 M
431 44 L
494 44 L
494 97 L
cp
f
GR
GS
[0.75 0 0 0.75 351 40.5] CT
/Helvetica 12 F
GS
[1 0 0 1 0 0] CT
0 5 moveto 
1 -1 scale
(P=2) t 
GR
GR
GS
[0.75 0 0 0.75 0 0] CT
0 0.447 0.741 RC
1 LJ
0.667 LW
N
435 54 M
465 54 L
S
GR
GS
[0.75 0 0 0.75 351 52.875] CT
/Helvetica 12 F
GS
[1 0 0 1 0 0] CT
0 5 moveto 
1 -1 scale
(P=4) t 
GR
GR
GS
[0.75 0 0 0.75 0 0] CT
0.851 0.325 0.098 RC
1 LJ
0.667 LW
N
435 70.5 M
465 70.5 L
S
GR
GS
[0.75 0 0 0.75 351 65.25] CT
/Helvetica 12 F
GS
[1 0 0 1 0 0] CT
0 5 moveto 
1 -1 scale
(P=8) t 
GR
GR
GS
[0.75 0 0 0.75 0 0] CT
0.929 0.694 0.125 RC
1 LJ
0.667 LW
N
435 87 M
465 87 L
S
GR
GS
[0.75 0 0 0.75 0 0] CT
0.149 GC
10.0 ML
0.667 LW
N
431 97 M
431 44 L
494 44 L
494 97 L
cp
S
GR
%%Trailer
%%Pages: 1
%%EOF
