%!PS-Adobe-3.0 EPSF-3.0
%%Creator: (MATLAB, The Mathworks, Inc. Version 9.3.0.713579 \(R2017b\). Operating System: Windows 10)
%%Title: C:/surfdrive/HAN/DSPIPS/Material/DSPIPS_workshopNotes/figures/MA_response.eps
%%CreationDate: 2019-01-25T14:23:45
%%Pages: (atend)
%%BoundingBox: 0 0 420 315
%%LanguageLevel: 3
%%EndComments
%%BeginProlog
%%BeginResource: procset (Apache XML Graphics Std ProcSet) 1.2 0
%%Version: 1.2 0
%%Copyright: (Copyright 2001-2003,2010 The Apache Software Foundation. License terms: http://www.apache.org/licenses/LICENSE-2.0)
/bd{bind def}bind def
/ld{load def}bd
/GR/grestore ld
/GS/gsave ld
/RM/rmoveto ld
/C/curveto ld
/t/show ld
/L/lineto ld
/ML/setmiterlimit ld
/CT/concat ld
/f/fill ld
/N/newpath ld
/S/stroke ld
/CC/setcmykcolor ld
/A/ashow ld
/cp/closepath ld
/RC/setrgbcolor ld
/LJ/setlinejoin ld
/GC/setgray ld
/LW/setlinewidth ld
/M/moveto ld
/re {4 2 roll M
1 index 0 rlineto
0 exch rlineto
neg 0 rlineto
cp } bd
/_ctm matrix def
/_tm matrix def
/BT { _ctm currentmatrix pop matrix _tm copy pop 0 0 moveto } bd
/ET { _ctm setmatrix } bd
/iTm { _ctm setmatrix _tm concat } bd
/Tm { _tm astore pop iTm 0 0 moveto } bd
/ux 0.0 def
/uy 0.0 def
/F {
  /Tp exch def
  /Tf exch def
  Tf findfont Tp scalefont setfont
  /cf Tf def  /cs Tp def
} bd
/ULS {currentpoint /uy exch def /ux exch def} bd
/ULE {
  /Tcx currentpoint pop def
  gsave
  newpath
  cf findfont cs scalefont dup
  /FontMatrix get 0 get /Ts exch def /FontInfo get dup
  /UnderlinePosition get Ts mul /To exch def
  /UnderlineThickness get Ts mul /Tt exch def
  ux uy To add moveto  Tcx uy To add lineto
  Tt setlinewidth stroke
  grestore
} bd
/OLE {
  /Tcx currentpoint pop def
  gsave
  newpath
  cf findfont cs scalefont dup
  /FontMatrix get 0 get /Ts exch def /FontInfo get dup
  /UnderlinePosition get Ts mul /To exch def
  /UnderlineThickness get Ts mul /Tt exch def
  ux uy To add cs add moveto Tcx uy To add cs add lineto
  Tt setlinewidth stroke
  grestore
} bd
/SOE {
  /Tcx currentpoint pop def
  gsave
  newpath
  cf findfont cs scalefont dup
  /FontMatrix get 0 get /Ts exch def /FontInfo get dup
  /UnderlinePosition get Ts mul /To exch def
  /UnderlineThickness get Ts mul /Tt exch def
  ux uy To add cs 10 mul 26 idiv add moveto Tcx uy To add cs 10 mul 26 idiv add lineto
  Tt setlinewidth stroke
  grestore
} bd
/QT {
/Y22 exch store
/X22 exch store
/Y21 exch store
/X21 exch store
currentpoint
/Y21 load 2 mul add 3 div exch
/X21 load 2 mul add 3 div exch
/X21 load 2 mul /X22 load add 3 div
/Y21 load 2 mul /Y22 load add 3 div
/X22 load /Y22 load curveto
} bd
/SSPD {
dup length /d exch dict def
{
/v exch def
/k exch def
currentpagedevice k known {
/cpdv currentpagedevice k get def
v cpdv ne {
/upd false def
/nullv v type /nulltype eq def
/nullcpdv cpdv type /nulltype eq def
nullv nullcpdv or
{
/upd true def
} {
/sametype v type cpdv type eq def
sametype {
v type /arraytype eq {
/vlen v length def
/cpdvlen cpdv length def
vlen cpdvlen eq {
0 1 vlen 1 sub {
/i exch def
/obj v i get def
/cpdobj cpdv i get def
obj cpdobj ne {
/upd true def
exit
} if
} for
} {
/upd true def
} ifelse
} {
v type /dicttype eq {
v {
/dv exch def
/dk exch def
/cpddv cpdv dk get def
dv cpddv ne {
/upd true def
exit
} if
} forall
} {
/upd true def
} ifelse
} ifelse
} if
} ifelse
upd true eq {
d k v put
} if
} if
} if
} forall
d length 0 gt {
d setpagedevice
} if
} bd
/RE { % /NewFontName [NewEncodingArray] /FontName RE -
  findfont dup length dict begin
  {
    1 index /FID ne
    {def} {pop pop} ifelse
  } forall
  /Encoding exch def
  /FontName 1 index def
  currentdict definefont pop
  end
} bind def
%%EndResource
%%BeginResource: procset (Apache XML Graphics EPS ProcSet) 1.0 0
%%Version: 1.0 0
%%Copyright: (Copyright 2002-2003 The Apache Software Foundation. License terms: http://www.apache.org/licenses/LICENSE-2.0)
/BeginEPSF { %def
/b4_Inc_state save def         % Save state for cleanup
/dict_count countdictstack def % Count objects on dict stack
/op_count count 1 sub def      % Count objects on operand stack
userdict begin                 % Push userdict on dict stack
/showpage { } def              % Redefine showpage, { } = null proc
0 setgray 0 setlinecap         % Prepare graphics state
1 setlinewidth 0 setlinejoin
10 setmiterlimit [ ] 0 setdash newpath
/languagelevel where           % If level not equal to 1 then
{pop languagelevel             % set strokeadjust and
1 ne                           % overprint to their defaults.
{false setstrokeadjust false setoverprint
} if
} if
} bd
/EndEPSF { %def
count op_count sub {pop} repeat            % Clean up stacks
countdictstack dict_count sub {end} repeat
b4_Inc_state restore
} bd
%%EndResource
%FOPBeginFontDict
%%IncludeResource: font Courier-Oblique
%%IncludeResource: font Courier-BoldOblique
%%IncludeResource: font Courier-Bold
%%IncludeResource: font ZapfDingbats
%%IncludeResource: font Symbol
%%IncludeResource: font Helvetica
%%IncludeResource: font Helvetica-Oblique
%%IncludeResource: font Helvetica-Bold
%%IncludeResource: font Helvetica-BoldOblique
%%IncludeResource: font Times-Roman
%%IncludeResource: font Times-Italic
%%IncludeResource: font Times-Bold
%%IncludeResource: font Times-BoldItalic
%%IncludeResource: font Courier
%FOPEndFontDict
%%BeginResource: encoding WinAnsiEncoding
/WinAnsiEncoding [
/.notdef /.notdef /.notdef /.notdef /.notdef
/.notdef /.notdef /.notdef /.notdef /.notdef
/.notdef /.notdef /.notdef /.notdef /.notdef
/.notdef /.notdef /.notdef /.notdef /.notdef
/.notdef /.notdef /.notdef /.notdef /.notdef
/.notdef /.notdef /.notdef /.notdef /.notdef
/.notdef /.notdef /space /exclam /quotedbl
/numbersign /dollar /percent /ampersand /quotesingle
/parenleft /parenright /asterisk /plus /comma
/hyphen /period /slash /zero /one
/two /three /four /five /six
/seven /eight /nine /colon /semicolon
/less /equal /greater /question /at
/A /B /C /D /E
/F /G /H /I /J
/K /L /M /N /O
/P /Q /R /S /T
/U /V /W /X /Y
/Z /bracketleft /backslash /bracketright /asciicircum
/underscore /quoteleft /a /b /c
/d /e /f /g /h
/i /j /k /l /m
/n /o /p /q /r
/s /t /u /v /w
/x /y /z /braceleft /bar
/braceright /asciitilde /bullet /Euro /bullet
/quotesinglbase /florin /quotedblbase /ellipsis /dagger
/daggerdbl /circumflex /perthousand /Scaron /guilsinglleft
/OE /bullet /Zcaron /bullet /bullet
/quoteleft /quoteright /quotedblleft /quotedblright /bullet
/endash /emdash /asciitilde /trademark /scaron
/guilsinglright /oe /bullet /zcaron /Ydieresis
/space /exclamdown /cent /sterling /currency
/yen /brokenbar /section /dieresis /copyright
/ordfeminine /guillemotleft /logicalnot /sfthyphen /registered
/macron /degree /plusminus /twosuperior /threesuperior
/acute /mu /paragraph /middot /cedilla
/onesuperior /ordmasculine /guillemotright /onequarter /onehalf
/threequarters /questiondown /Agrave /Aacute /Acircumflex
/Atilde /Adieresis /Aring /AE /Ccedilla
/Egrave /Eacute /Ecircumflex /Edieresis /Igrave
/Iacute /Icircumflex /Idieresis /Eth /Ntilde
/Ograve /Oacute /Ocircumflex /Otilde /Odieresis
/multiply /Oslash /Ugrave /Uacute /Ucircumflex
/Udieresis /Yacute /Thorn /germandbls /agrave
/aacute /acircumflex /atilde /adieresis /aring
/ae /ccedilla /egrave /eacute /ecircumflex
/edieresis /igrave /iacute /icircumflex /idieresis
/eth /ntilde /ograve /oacute /ocircumflex
/otilde /odieresis /divide /oslash /ugrave
/uacute /ucircumflex /udieresis /yacute /thorn
/ydieresis
] def
%%EndResource
%FOPBeginFontReencode
/Courier-Oblique findfont
dup length dict begin
  {1 index /FID ne {def} {pop pop} ifelse} forall
  /Encoding WinAnsiEncoding def
  currentdict
end
/Courier-Oblique exch definefont pop
/Courier-BoldOblique findfont
dup length dict begin
  {1 index /FID ne {def} {pop pop} ifelse} forall
  /Encoding WinAnsiEncoding def
  currentdict
end
/Courier-BoldOblique exch definefont pop
/Courier-Bold findfont
dup length dict begin
  {1 index /FID ne {def} {pop pop} ifelse} forall
  /Encoding WinAnsiEncoding def
  currentdict
end
/Courier-Bold exch definefont pop
/Helvetica findfont
dup length dict begin
  {1 index /FID ne {def} {pop pop} ifelse} forall
  /Encoding WinAnsiEncoding def
  currentdict
end
/Helvetica exch definefont pop
/Helvetica-Oblique findfont
dup length dict begin
  {1 index /FID ne {def} {pop pop} ifelse} forall
  /Encoding WinAnsiEncoding def
  currentdict
end
/Helvetica-Oblique exch definefont pop
/Helvetica-Bold findfont
dup length dict begin
  {1 index /FID ne {def} {pop pop} ifelse} forall
  /Encoding WinAnsiEncoding def
  currentdict
end
/Helvetica-Bold exch definefont pop
/Helvetica-BoldOblique findfont
dup length dict begin
  {1 index /FID ne {def} {pop pop} ifelse} forall
  /Encoding WinAnsiEncoding def
  currentdict
end
/Helvetica-BoldOblique exch definefont pop
/Times-Roman findfont
dup length dict begin
  {1 index /FID ne {def} {pop pop} ifelse} forall
  /Encoding WinAnsiEncoding def
  currentdict
end
/Times-Roman exch definefont pop
/Times-Italic findfont
dup length dict begin
  {1 index /FID ne {def} {pop pop} ifelse} forall
  /Encoding WinAnsiEncoding def
  currentdict
end
/Times-Italic exch definefont pop
/Times-Bold findfont
dup length dict begin
  {1 index /FID ne {def} {pop pop} ifelse} forall
  /Encoding WinAnsiEncoding def
  currentdict
end
/Times-Bold exch definefont pop
/Times-BoldItalic findfont
dup length dict begin
  {1 index /FID ne {def} {pop pop} ifelse} forall
  /Encoding WinAnsiEncoding def
  currentdict
end
/Times-BoldItalic exch definefont pop
/Courier findfont
dup length dict begin
  {1 index /FID ne {def} {pop pop} ifelse} forall
  /Encoding WinAnsiEncoding def
  currentdict
end
/Courier exch definefont pop
%FOPEndFontReencode
%%EndProlog
%%Page: 1 1
%%PageBoundingBox: 0 0 420 315
%%BeginPageSetup
[1 0 0 -1 0 315] CT
%%EndPageSetup
GS
[0.6 0 0 0.6 0 0] CT
1 GC
N
0 0 700 525 re
f
GR
GS
[0.6 0 0 0.6 0 0] CT
1 GC
N
0 0 700 525 re
f
GR
GS
[0.6 0 0 0.6 0 0] CT
1 GC
N
91 467 M
634 467 L
634 39 L
91 39 L
cp
f
GR
GS
[0.6 0 0 0.6 0 0] CT
0.873 GC
1 LJ
0.833 LW
N
91 467 M
91 39 L
S
GR
GS
[0.6 0 0 0.6 0 0] CT
0.873 GC
1 LJ
0.833 LW
N
145.3 467 M
145.3 39 L
S
GR
GS
[0.6 0 0 0.6 0 0] CT
0.873 GC
1 LJ
0.833 LW
N
199.6 467 M
199.6 39 L
S
GR
GS
[0.6 0 0 0.6 0 0] CT
0.873 GC
1 LJ
0.833 LW
N
253.9 467 M
253.9 39 L
S
GR
GS
[0.6 0 0 0.6 0 0] CT
0.873 GC
1 LJ
0.833 LW
N
308.2 467 M
308.2 39 L
S
GR
GS
[0.6 0 0 0.6 0 0] CT
0.873 GC
1 LJ
0.833 LW
N
362.5 467 M
362.5 39 L
S
GR
GS
[0.6 0 0 0.6 0 0] CT
0.873 GC
1 LJ
0.833 LW
N
416.8 467 M
416.8 39 L
S
GR
GS
[0.6 0 0 0.6 0 0] CT
0.873 GC
1 LJ
0.833 LW
N
471.1 467 M
471.1 39 L
S
GR
GS
[0.6 0 0 0.6 0 0] CT
0.873 GC
1 LJ
0.833 LW
N
525.4 467 M
525.4 39 L
S
GR
GS
[0.6 0 0 0.6 0 0] CT
0.873 GC
1 LJ
0.833 LW
N
579.7 467 M
579.7 39 L
S
GR
GS
[0.6 0 0 0.6 0 0] CT
0.873 GC
1 LJ
0.833 LW
N
634 467 M
634 39 L
S
GR
GS
[0.6 0 0 0.6 0 0] CT
0.873 GC
1 LJ
0.833 LW
N
634 467 M
91 467 L
S
GR
GS
[0.6 0 0 0.6 0 0] CT
0.873 GC
1 LJ
0.833 LW
N
634 413.5 M
91 413.5 L
S
GR
GS
[0.6 0 0 0.6 0 0] CT
0.873 GC
1 LJ
0.833 LW
N
634 360 M
91 360 L
S
GR
GS
[0.6 0 0 0.6 0 0] CT
0.873 GC
1 LJ
0.833 LW
N
634 306.5 M
91 306.5 L
S
GR
GS
[0.6 0 0 0.6 0 0] CT
0.873 GC
1 LJ
0.833 LW
N
634 253 M
91 253 L
S
GR
GS
[0.6 0 0 0.6 0 0] CT
0.873 GC
1 LJ
0.833 LW
N
634 199.5 M
91 199.5 L
S
GR
GS
[0.6 0 0 0.6 0 0] CT
0.873 GC
1 LJ
0.833 LW
N
634 146 M
91 146 L
S
GR
GS
[0.6 0 0 0.6 0 0] CT
0.873 GC
1 LJ
0.833 LW
N
634 92.5 M
91 92.5 L
S
GR
GS
[0.6 0 0 0.6 0 0] CT
0.873 GC
1 LJ
0.833 LW
N
634 39 M
91 39 L
S
GR
GS
[0.6 0 0 0.6 0 0] CT
0.149 GC
2 setlinecap
1 LJ
0.833 LW
N
91 467 M
634 467 L
S
GR
GS
[0.6 0 0 0.6 0 0] CT
0.149 GC
2 setlinecap
1 LJ
0.833 LW
N
91 39 M
634 39 L
S
GR
GS
[0.6 0 0 0.6 0 0] CT
0.149 GC
2 setlinecap
1 LJ
0.833 LW
N
91 467 M
91 461.57 L
S
GR
GS
[0.6 0 0 0.6 0 0] CT
0.149 GC
2 setlinecap
1 LJ
0.833 LW
N
145.3 467 M
145.3 461.57 L
S
GR
GS
[0.6 0 0 0.6 0 0] CT
0.149 GC
2 setlinecap
1 LJ
0.833 LW
N
199.6 467 M
199.6 461.57 L
S
GR
GS
[0.6 0 0 0.6 0 0] CT
0.149 GC
2 setlinecap
1 LJ
0.833 LW
N
253.9 467 M
253.9 461.57 L
S
GR
GS
[0.6 0 0 0.6 0 0] CT
0.149 GC
2 setlinecap
1 LJ
0.833 LW
N
308.2 467 M
308.2 461.57 L
S
GR
GS
[0.6 0 0 0.6 0 0] CT
0.149 GC
2 setlinecap
1 LJ
0.833 LW
N
362.5 467 M
362.5 461.57 L
S
GR
GS
[0.6 0 0 0.6 0 0] CT
0.149 GC
2 setlinecap
1 LJ
0.833 LW
N
416.8 467 M
416.8 461.57 L
S
GR
GS
[0.6 0 0 0.6 0 0] CT
0.149 GC
2 setlinecap
1 LJ
0.833 LW
N
471.1 467 M
471.1 461.57 L
S
GR
GS
[0.6 0 0 0.6 0 0] CT
0.149 GC
2 setlinecap
1 LJ
0.833 LW
N
525.4 467 M
525.4 461.57 L
S
GR
GS
[0.6 0 0 0.6 0 0] CT
0.149 GC
2 setlinecap
1 LJ
0.833 LW
N
579.7 467 M
579.7 461.57 L
S
GR
GS
[0.6 0 0 0.6 0 0] CT
0.149 GC
2 setlinecap
1 LJ
0.833 LW
N
634 467 M
634 461.57 L
S
GR
GS
[0.6 0 0 0.6 0 0] CT
0.149 GC
2 setlinecap
1 LJ
0.833 LW
N
91 39 M
91 44.43 L
S
GR
GS
[0.6 0 0 0.6 0 0] CT
0.149 GC
2 setlinecap
1 LJ
0.833 LW
N
145.3 39 M
145.3 44.43 L
S
GR
GS
[0.6 0 0 0.6 0 0] CT
0.149 GC
2 setlinecap
1 LJ
0.833 LW
N
199.6 39 M
199.6 44.43 L
S
GR
GS
[0.6 0 0 0.6 0 0] CT
0.149 GC
2 setlinecap
1 LJ
0.833 LW
N
253.9 39 M
253.9 44.43 L
S
GR
GS
[0.6 0 0 0.6 0 0] CT
0.149 GC
2 setlinecap
1 LJ
0.833 LW
N
308.2 39 M
308.2 44.43 L
S
GR
GS
[0.6 0 0 0.6 0 0] CT
0.149 GC
2 setlinecap
1 LJ
0.833 LW
N
362.5 39 M
362.5 44.43 L
S
GR
GS
[0.6 0 0 0.6 0 0] CT
0.149 GC
2 setlinecap
1 LJ
0.833 LW
N
416.8 39 M
416.8 44.43 L
S
GR
GS
[0.6 0 0 0.6 0 0] CT
0.149 GC
2 setlinecap
1 LJ
0.833 LW
N
471.1 39 M
471.1 44.43 L
S
GR
GS
[0.6 0 0 0.6 0 0] CT
0.149 GC
2 setlinecap
1 LJ
0.833 LW
N
525.4 39 M
525.4 44.43 L
S
GR
GS
[0.6 0 0 0.6 0 0] CT
0.149 GC
2 setlinecap
1 LJ
0.833 LW
N
579.7 39 M
579.7 44.43 L
S
GR
GS
[0.6 0 0 0.6 0 0] CT
0.149 GC
2 setlinecap
1 LJ
0.833 LW
N
634 39 M
634 44.43 L
S
GR
GS
[0.6 0 0 0.6 54.6 284.19999] CT
0.149 GC
/Helvetica 16.667 F
GS
[1 0 0 1 0 0] CT
-5 17 moveto 
1 -1 scale
(0) t 
GR
GR
GS
[0.6 0 0 0.6 87.18 284.19999] CT
0.149 GC
/Helvetica 16.667 F
GS
[1 0 0 1 0 0] CT
-5 17 moveto 
1 -1 scale
(5) t 
GR
GR
GS
[0.6 0 0 0.6 119.76 284.19999] CT
0.149 GC
/Helvetica 16.667 F
GS
[1 0 0 1 0 0] CT
-9.5 17 moveto 
1 -1 scale
(10) t 
GR
GR
GS
[0.6 0 0 0.6 152.34 284.19999] CT
0.149 GC
/Helvetica 16.667 F
GS
[1 0 0 1 0 0] CT
-9.5 17 moveto 
1 -1 scale
(15) t 
GR
GR
GS
[0.6 0 0 0.6 184.92001 284.19999] CT
0.149 GC
/Helvetica 16.667 F
GS
[1 0 0 1 0 0] CT
-9.5 17 moveto 
1 -1 scale
(20) t 
GR
GR
GS
[0.6 0 0 0.6 217.5 284.19999] CT
0.149 GC
/Helvetica 16.667 F
GS
[1 0 0 1 0 0] CT
-9.5 17 moveto 
1 -1 scale
(25) t 
GR
GR
GS
[0.6 0 0 0.6 250.07999 284.19999] CT
0.149 GC
/Helvetica 16.667 F
GS
[1 0 0 1 0 0] CT
-9.5 17 moveto 
1 -1 scale
(30) t 
GR
GR
GS
[0.6 0 0 0.6 282.66 284.19999] CT
0.149 GC
/Helvetica 16.667 F
GS
[1 0 0 1 0 0] CT
-9.5 17 moveto 
1 -1 scale
(35) t 
GR
GR
GS
[0.6 0 0 0.6 315.24001 284.19999] CT
0.149 GC
/Helvetica 16.667 F
GS
[1 0 0 1 0 0] CT
-9.5 17 moveto 
1 -1 scale
(40) t 
GR
GR
GS
[0.6 0 0 0.6 347.82001 284.19999] CT
0.149 GC
/Helvetica 16.667 F
GS
[1 0 0 1 0 0] CT
-9.5 17 moveto 
1 -1 scale
(45) t 
GR
GR
GS
[0.6 0 0 0.6 380.4 284.19999] CT
0.149 GC
/Helvetica 16.667 F
GS
[1 0 0 1 0 0] CT
-9.5 17 moveto 
1 -1 scale
(50) t 
GR
GR
GS
[0.6 0 0 0.6 217.50016 297.79999] CT
0.149 GC
/Helvetica 18.333 F
GS
[1 0 0 1 0 0] CT
-48 19 moveto 
1 -1 scale
(n \(samples\)) t 
GR
GR
GS
[0.6 0 0 0.6 0 0] CT
0.149 GC
2 setlinecap
1 LJ
0.833 LW
N
91 467 M
91 39 L
S
GR
GS
[0.6 0 0 0.6 0 0] CT
0.149 GC
2 setlinecap
1 LJ
0.833 LW
N
634 467 M
634 39 L
S
GR
GS
[0.6 0 0 0.6 0 0] CT
0.149 GC
2 setlinecap
1 LJ
0.833 LW
N
91 467 M
96.43 467 L
S
GR
GS
[0.6 0 0 0.6 0 0] CT
0.149 GC
2 setlinecap
1 LJ
0.833 LW
N
91 413.5 M
96.43 413.5 L
S
GR
GS
[0.6 0 0 0.6 0 0] CT
0.149 GC
2 setlinecap
1 LJ
0.833 LW
N
91 360 M
96.43 360 L
S
GR
GS
[0.6 0 0 0.6 0 0] CT
0.149 GC
2 setlinecap
1 LJ
0.833 LW
N
91 306.5 M
96.43 306.5 L
S
GR
GS
[0.6 0 0 0.6 0 0] CT
0.149 GC
2 setlinecap
1 LJ
0.833 LW
N
91 253 M
96.43 253 L
S
GR
GS
[0.6 0 0 0.6 0 0] CT
0.149 GC
2 setlinecap
1 LJ
0.833 LW
N
91 199.5 M
96.43 199.5 L
S
GR
GS
[0.6 0 0 0.6 0 0] CT
0.149 GC
2 setlinecap
1 LJ
0.833 LW
N
91 146 M
96.43 146 L
S
GR
GS
[0.6 0 0 0.6 0 0] CT
0.149 GC
2 setlinecap
1 LJ
0.833 LW
N
91 92.5 M
96.43 92.5 L
S
GR
GS
[0.6 0 0 0.6 0 0] CT
0.149 GC
2 setlinecap
1 LJ
0.833 LW
N
91 39 M
96.43 39 L
S
GR
GS
[0.6 0 0 0.6 0 0] CT
0.149 GC
2 setlinecap
1 LJ
0.833 LW
N
634 467 M
628.57 467 L
S
GR
GS
[0.6 0 0 0.6 0 0] CT
0.149 GC
2 setlinecap
1 LJ
0.833 LW
N
634 413.5 M
628.57 413.5 L
S
GR
GS
[0.6 0 0 0.6 0 0] CT
0.149 GC
2 setlinecap
1 LJ
0.833 LW
N
634 360 M
628.57 360 L
S
GR
GS
[0.6 0 0 0.6 0 0] CT
0.149 GC
2 setlinecap
1 LJ
0.833 LW
N
634 306.5 M
628.57 306.5 L
S
GR
GS
[0.6 0 0 0.6 0 0] CT
0.149 GC
2 setlinecap
1 LJ
0.833 LW
N
634 253 M
628.57 253 L
S
GR
GS
[0.6 0 0 0.6 0 0] CT
0.149 GC
2 setlinecap
1 LJ
0.833 LW
N
634 199.5 M
628.57 199.5 L
S
GR
GS
[0.6 0 0 0.6 0 0] CT
0.149 GC
2 setlinecap
1 LJ
0.833 LW
N
634 146 M
628.57 146 L
S
GR
GS
[0.6 0 0 0.6 0 0] CT
0.149 GC
2 setlinecap
1 LJ
0.833 LW
N
634 92.5 M
628.57 92.5 L
S
GR
GS
[0.6 0 0 0.6 0 0] CT
0.149 GC
2 setlinecap
1 LJ
0.833 LW
N
634 39 M
628.57 39 L
S
GR
GS
[0.6 0 0 0.6 50.6 280.2] CT
0.149 GC
/Helvetica 16.667 F
GS
[1 0 0 1 0 0] CT
-15 6.5 moveto 
1 -1 scale
(-2) t 
GR
GR
GS
[0.6 0 0 0.6 50.6 248.1] CT
0.149 GC
/Helvetica 16.667 F
GS
[1 0 0 1 0 0] CT
-29 6.5 moveto 
1 -1 scale
(-1.5) t 
GR
GR
GS
[0.6 0 0 0.6 50.6 216] CT
0.149 GC
/Helvetica 16.667 F
GS
[1 0 0 1 0 0] CT
-15 6.5 moveto 
1 -1 scale
(-1) t 
GR
GR
GS
[0.6 0 0 0.6 50.6 183.9] CT
0.149 GC
/Helvetica 16.667 F
GS
[1 0 0 1 0 0] CT
-29 6.5 moveto 
1 -1 scale
(-0.5) t 
GR
GR
GS
[0.6 0 0 0.6 50.6 151.8] CT
0.149 GC
/Helvetica 16.667 F
GS
[1 0 0 1 0 0] CT
-10 6.5 moveto 
1 -1 scale
(0) t 
GR
GR
GS
[0.6 0 0 0.6 50.6 119.7] CT
0.149 GC
/Helvetica 16.667 F
GS
[1 0 0 1 0 0] CT
-24 6.5 moveto 
1 -1 scale
(0.5) t 
GR
GR
GS
[0.6 0 0 0.6 50.6 87.6] CT
0.149 GC
/Helvetica 16.667 F
GS
[1 0 0 1 0 0] CT
-10 6.5 moveto 
1 -1 scale
(1) t 
GR
GR
GS
[0.6 0 0 0.6 50.6 55.5] CT
0.149 GC
/Helvetica 16.667 F
GS
[1 0 0 1 0 0] CT
-24 6.5 moveto 
1 -1 scale
(1.5) t 
GR
GR
GS
[0.6 0 0 0.6 50.6 23.4] CT
0.149 GC
/Helvetica 16.667 F
GS
[1 0 0 1 0 0] CT
-10 6.5 moveto 
1 -1 scale
(2) t 
GR
GR
GS
[0 -0.6 0.6 0 30.2 151.79988] CT
0.149 GC
/Helvetica 18.333 F
GS
[1 0 0 1 0 0] CT
-41 -5 moveto 
1 -1 scale
(Amplitude) t 
GR
GR
GS
[0.6 0 0 0.6 0 0] CT
0.149 GC
1 LJ
0.833 LW
N
91 253 M
634 253 L
S
GR
GS
[0.6 0 0 0.6 61.116 136.52487] CT
0 0 1 RC
N
5 0 M
5 -2.761 2.761 -5 0 -5 C
-2.761 -5 -5 -2.761 -5 0 C
-5 2.761 -2.761 5 0 5 C
2.761 5 5 2.761 5 0 C
f
GR
GS
[0.6 0 0 0.6 61.116 136.52487] CT
0 0 1 RC
10.0 ML
N
5 0 M
5 -2.761 2.761 -5 0 -5 C
-2.761 -5 -5 -2.761 -5 0 C
-5 2.761 -2.761 5 0 5 C
2.761 5 5 2.761 5 0 C
S
GR
GS
[0.6 0 0 0.6 67.632 93.1194] CT
0 0 1 RC
N
/f1626255170{5 0 M
5 -2.761 2.761 -5 0 -5 C
-2.761 -5 -5 -2.761 -5 0 C
-5 2.761 -2.761 5 0 5 C
2.761 5 5 2.761 5 0 C}def
f1626255170
f
GR
GS
[0.6 0 0 0.6 67.632 93.1194] CT
0 0 1 RC
10.0 ML
N
5 0 M
5 -2.761 2.761 -5 0 -5 C
-2.761 -5 -5 -2.761 -5 0 C
-5 2.761 -2.761 5 0 5 C
2.761 5 5 2.761 5 0 C
S
GR
GS
[0.6 0 0 0.6 74.148 124.96177] CT
0 0 1 RC
N
f1626255170
f
GR
GS
[0.6 0 0 0.6 74.148 124.96177] CT
0 0 1 RC
10.0 ML
N
5 0 M
5 -2.761 2.761 -5 0 -5 C
-2.761 -5 -5 -2.761 -5 0 C
-5 2.761 -2.761 5 0 5 C
2.761 5 5 2.761 5 0 C
S
GR
GS
[0.6 0 0 0.6 80.664 115.6008] CT
0 0 1 RC
N
f1626255170
f
GR
GS
[0.6 0 0 0.6 80.664 115.6008] CT
0 0 1 RC
10.0 ML
N
5 0 M
5 -2.761 2.761 -5 0 -5 C
-2.761 -5 -5 -2.761 -5 0 C
-5 2.761 -2.761 5 0 5 C
2.761 5 5 2.761 5 0 C
S
GR
GS
[0.6 0 0 0.6 87.18 49.47726] CT
0 0 1 RC
N
f1626255170
f
GR
GS
[0.6 0 0 0.6 87.18 49.47726] CT
0 0 1 RC
10.0 ML
N
5 0 M
5 -2.761 2.761 -5 0 -5 C
-2.761 -5 -5 -2.761 -5 0 C
-5 2.761 -2.761 5 0 5 C
2.761 5 5 2.761 5 0 C
S
GR
GS
[0.6 0 0 0.6 93.696 112.56292] CT
0 0 1 RC
N
f1626255170
f
GR
GS
[0.6 0 0 0.6 93.696 112.56292] CT
0 0 1 RC
10.0 ML
N
5 0 M
5 -2.761 2.761 -5 0 -5 C
-2.761 -5 -5 -2.761 -5 0 C
-5 2.761 -2.761 5 0 5 C
2.761 5 5 2.761 5 0 C
S
GR
GS
[0.6 0 0 0.6 100.212 90.83382] CT
0 0 1 RC
N
f1626255170
f
GR
GS
[0.6 0 0 0.6 100.212 90.83382] CT
0 0 1 RC
10.0 ML
N
5 0 M
5 -2.761 2.761 -5 0 -5 C
-2.761 -5 -5 -2.761 -5 0 C
-5 2.761 -2.761 5 0 5 C
2.761 5 5 2.761 5 0 C
S
GR
GS
[0.6 0 0 0.6 106.728 58.42397] CT
0 0 1 RC
N
f1626255170
f
GR
GS
[0.6 0 0 0.6 106.728 58.42397] CT
0 0 1 RC
10.0 ML
N
5 0 M
5 -2.761 2.761 -5 0 -5 C
-2.761 -5 -5 -2.761 -5 0 C
-5 2.761 -2.761 5 0 5 C
2.761 5 5 2.761 5 0 C
S
GR
GS
[0.6 0 0 0.6 113.244 83.14283] CT
0 0 1 RC
N
f1626255170
f
GR
GS
[0.6 0 0 0.6 113.244 83.14283] CT
0 0 1 RC
10.0 ML
N
5 0 M
5 -2.761 2.761 -5 0 -5 C
-2.761 -5 -5 -2.761 -5 0 C
-5 2.761 -2.761 5 0 5 C
2.761 5 5 2.761 5 0 C
S
GR
GS
[0.6 0 0 0.6 119.76 45.64381] CT
0 0 1 RC
N
f1626255170
f
GR
GS
[0.6 0 0 0.6 119.76 45.64381] CT
0 0 1 RC
10.0 ML
N
5 0 M
5 -2.761 2.761 -5 0 -5 C
-2.761 -5 -5 -2.761 -5 0 C
-5 2.761 -2.761 5 0 5 C
2.761 5 5 2.761 5 0 C
S
GR
GS
[0.6 0 0 0.6 126.276 63.00586] CT
0 0 1 RC
N
f1626255170
f
GR
GS
[0.6 0 0 0.6 126.276 63.00586] CT
0 0 1 RC
10.0 ML
N
5 0 M
5 -2.761 2.761 -5 0 -5 C
-2.761 -5 -5 -2.761 -5 0 C
-5 2.761 -2.761 5 0 5 C
2.761 5 5 2.761 5 0 C
S
GR
GS
[0.6 0 0 0.6 132.792 94.73069] CT
0 0 1 RC
N
f1626255170
f
GR
GS
[0.6 0 0 0.6 132.792 94.73069] CT
0 0 1 RC
10.0 ML
N
5 0 M
5 -2.761 2.761 -5 0 -5 C
-2.761 -5 -5 -2.761 -5 0 C
-5 2.761 -2.761 5 0 5 C
2.761 5 5 2.761 5 0 C
S
GR
GS
[0.6 0 0 0.6 139.308 139.02831] CT
0 0 1 RC
N
f1626255170
f
GR
GS
[0.6 0 0 0.6 139.308 139.02831] CT
0 0 1 RC
10.0 ML
N
5 0 M
5 -2.761 2.761 -5 0 -5 C
-2.761 -5 -5 -2.761 -5 0 C
-5 2.761 -2.761 5 0 5 C
2.761 5 5 2.761 5 0 C
S
GR
GS
[0.6 0 0 0.6 145.824 107.49656] CT
0 0 1 RC
N
f1626255170
f
GR
GS
[0.6 0 0 0.6 145.824 107.49656] CT
0 0 1 RC
10.0 ML
N
5 0 M
5 -2.761 2.761 -5 0 -5 C
-2.761 -5 -5 -2.761 -5 0 C
-5 2.761 -2.761 5 0 5 C
2.761 5 5 2.761 5 0 C
S
GR
GS
[0.6 0 0 0.6 152.34 182.83422] CT
0 0 1 RC
N
f1626255170
f
GR
GS
[0.6 0 0 0.6 152.34 182.83422] CT
0 0 1 RC
10.0 ML
N
5 0 M
5 -2.761 2.761 -5 0 -5 C
-2.761 -5 -5 -2.761 -5 0 C
-5 2.761 -2.761 5 0 5 C
2.761 5 5 2.761 5 0 C
S
GR
GS
[0.6 0 0 0.6 158.85601 143.95237] CT
0 0 1 RC
N
f1626255170
f
GR
GS
[0.6 0 0 0.6 158.85601 143.95237] CT
0 0 1 RC
10.0 ML
N
5 0 M
5 -2.761 2.761 -5 0 -5 C
-2.761 -5 -5 -2.761 -5 0 C
-5 2.761 -2.761 5 0 5 C
2.761 5 5 2.761 5 0 C
S
GR
GS
[0.6 0 0 0.6 165.372 139.19704] CT
0 0 1 RC
N
f1626255170
f
GR
GS
[0.6 0 0 0.6 165.372 139.19704] CT
0 0 1 RC
10.0 ML
N
5 0 M
5 -2.761 2.761 -5 0 -5 C
-2.761 -5 -5 -2.761 -5 0 C
-5 2.761 -2.761 5 0 5 C
2.761 5 5 2.761 5 0 C
S
GR
GS
[0.6 0 0 0.6 171.88801 171.07385] CT
0 0 1 RC
N
f1626255170
f
GR
GS
[0.6 0 0 0.6 171.88801 171.07385] CT
0 0 1 RC
10.0 ML
N
5 0 M
5 -2.761 2.761 -5 0 -5 C
-2.761 -5 -5 -2.761 -5 0 C
-5 2.761 -2.761 5 0 5 C
2.761 5 5 2.761 5 0 C
S
GR
GS
[0.6 0 0 0.6 178.404 161.29818] CT
0 0 1 RC
N
f1626255170
f
GR
GS
[0.6 0 0 0.6 178.404 161.29818] CT
0 0 1 RC
10.0 ML
N
5 0 M
5 -2.761 2.761 -5 0 -5 C
-2.761 -5 -5 -2.761 -5 0 C
-5 2.761 -2.761 5 0 5 C
2.761 5 5 2.761 5 0 C
S
GR
GS
[0.6 0 0 0.6 184.92001 134.06197] CT
0 0 1 RC
N
f1626255170
f
GR
GS
[0.6 0 0 0.6 184.92001 134.06197] CT
0 0 1 RC
10.0 ML
N
5 0 M
5 -2.761 2.761 -5 0 -5 C
-2.761 -5 -5 -2.761 -5 0 C
-5 2.761 -2.761 5 0 5 C
2.761 5 5 2.761 5 0 C
S
GR
GS
[0.6 0 0 0.6 191.436 177.74061] CT
0 0 1 RC
N
f1626255170
f
GR
GS
[0.6 0 0 0.6 191.436 177.74061] CT
0 0 1 RC
10.0 ML
N
5 0 M
5 -2.761 2.761 -5 0 -5 C
-2.761 -5 -5 -2.761 -5 0 C
-5 2.761 -2.761 5 0 5 C
2.761 5 5 2.761 5 0 C
S
GR
GS
[0.6 0 0 0.6 197.95201 204.28978] CT
0 0 1 RC
N
f1626255170
f
GR
GS
[0.6 0 0 0.6 197.95201 204.28978] CT
0 0 1 RC
10.0 ML
N
5 0 M
5 -2.761 2.761 -5 0 -5 C
-2.761 -5 -5 -2.761 -5 0 C
-5 2.761 -2.761 5 0 5 C
2.761 5 5 2.761 5 0 C
S
GR
GS
[0.6 0 0 0.6 204.468 195.05098] CT
0 0 1 RC
N
f1626255170
f
GR
GS
[0.6 0 0 0.6 204.468 195.05098] CT
0 0 1 RC
10.0 ML
N
5 0 M
5 -2.761 2.761 -5 0 -5 C
-2.761 -5 -5 -2.761 -5 0 C
-5 2.761 -2.761 5 0 5 C
2.761 5 5 2.761 5 0 C
S
GR
GS
[0.6 0 0 0.6 210.98401 201.99023] CT
0 0 1 RC
N
f1626255170
f
GR
GS
[0.6 0 0 0.6 210.98401 201.99023] CT
0 0 1 RC
10.0 ML
N
5 0 M
5 -2.761 2.761 -5 0 -5 C
-2.761 -5 -5 -2.761 -5 0 C
-5 2.761 -2.761 5 0 5 C
2.761 5 5 2.761 5 0 C
S
GR
GS
[0.6 0 0 0.6 217.5 255.06044] CT
0 0 1 RC
N
f1626255170
f
GR
GS
[0.6 0 0 0.6 217.5 255.06044] CT
0 0 1 RC
10.0 ML
N
5 0 M
5 -2.761 2.761 -5 0 -5 C
-2.761 -5 -5 -2.761 -5 0 C
-5 2.761 -2.761 5 0 5 C
2.761 5 5 2.761 5 0 C
S
GR
GS
[0.6 0 0 0.6 224.01599 220.76563] CT
0 0 1 RC
N
f1626255170
f
GR
GS
[0.6 0 0 0.6 224.01599 220.76563] CT
0 0 1 RC
10.0 ML
N
5 0 M
5 -2.761 2.761 -5 0 -5 C
-2.761 -5 -5 -2.761 -5 0 C
-5 2.761 -2.761 5 0 5 C
2.761 5 5 2.761 5 0 C
S
GR
GS
[0.6 0 0 0.6 230.532 160.19742] CT
0 0 1 RC
N
f1626255170
f
GR
GS
[0.6 0 0 0.6 230.532 160.19742] CT
0 0 1 RC
10.0 ML
N
5 0 M
5 -2.761 2.761 -5 0 -5 C
-2.761 -5 -5 -2.761 -5 0 C
-5 2.761 -2.761 5 0 5 C
2.761 5 5 2.761 5 0 C
S
GR
GS
[0.6 0 0 0.6 237.04799 190.93488] CT
0 0 1 RC
N
f1626255170
f
GR
GS
[0.6 0 0 0.6 237.04799 190.93488] CT
0 0 1 RC
10.0 ML
N
5 0 M
5 -2.761 2.761 -5 0 -5 C
-2.761 -5 -5 -2.761 -5 0 C
-5 2.761 -2.761 5 0 5 C
2.761 5 5 2.761 5 0 C
S
GR
GS
[0.6 0 0 0.6 243.564 159.21671] CT
0 0 1 RC
N
f1626255170
f
GR
GS
[0.6 0 0 0.6 243.564 159.21671] CT
0 0 1 RC
10.0 ML
N
5 0 M
5 -2.761 2.761 -5 0 -5 C
-2.761 -5 -5 -2.761 -5 0 C
-5 2.761 -2.761 5 0 5 C
2.761 5 5 2.761 5 0 C
S
GR
GS
[0.6 0 0 0.6 250.07999 197.45658] CT
0 0 1 RC
N
f1626255170
f
GR
GS
[0.6 0 0 0.6 250.07999 197.45658] CT
0 0 1 RC
10.0 ML
N
5 0 M
5 -2.761 2.761 -5 0 -5 C
-2.761 -5 -5 -2.761 -5 0 C
-5 2.761 -2.761 5 0 5 C
2.761 5 5 2.761 5 0 C
S
GR
GS
[0.6 0 0 0.6 256.596 149.72901] CT
0 0 1 RC
N
f1626255170
f
GR
GS
[0.6 0 0 0.6 256.596 149.72901] CT
0 0 1 RC
10.0 ML
N
5 0 M
5 -2.761 2.761 -5 0 -5 C
-2.761 -5 -5 -2.761 -5 0 C
-5 2.761 -2.761 5 0 5 C
2.761 5 5 2.761 5 0 C
S
GR
GS
[0.6 0 0 0.6 263.11199 119.1827] CT
0 0 1 RC
N
f1626255170
f
GR
GS
[0.6 0 0 0.6 263.11199 119.1827] CT
0 0 1 RC
10.0 ML
N
5 0 M
5 -2.761 2.761 -5 0 -5 C
-2.761 -5 -5 -2.761 -5 0 C
-5 2.761 -2.761 5 0 5 C
2.761 5 5 2.761 5 0 C
S
GR
GS
[0.6 0 0 0.6 269.628 169.39213] CT
0 0 1 RC
N
f1626255170
f
GR
GS
[0.6 0 0 0.6 269.628 169.39213] CT
0 0 1 RC
10.0 ML
N
5 0 M
5 -2.761 2.761 -5 0 -5 C
-2.761 -5 -5 -2.761 -5 0 C
-5 2.761 -2.761 5 0 5 C
2.761 5 5 2.761 5 0 C
S
GR
GS
[0.6 0 0 0.6 276.14399 102.90646] CT
0 0 1 RC
N
f1626255170
f
GR
GS
[0.6 0 0 0.6 276.14399 102.90646] CT
0 0 1 RC
10.0 ML
N
5 0 M
5 -2.761 2.761 -5 0 -5 C
-2.761 -5 -5 -2.761 -5 0 C
-5 2.761 -2.761 5 0 5 C
2.761 5 5 2.761 5 0 C
S
GR
GS
[0.6 0 0 0.6 282.66 109.92727] CT
0 0 1 RC
N
f1626255170
f
GR
GS
[0.6 0 0 0.6 282.66 109.92727] CT
0 0 1 RC
10.0 ML
N
5 0 M
5 -2.761 2.761 -5 0 -5 C
-2.761 -5 -5 -2.761 -5 0 C
-5 2.761 -2.761 5 0 5 C
2.761 5 5 2.761 5 0 C
S
GR
GS
[0.6 0 0 0.6 289.17599 126.36023] CT
0 0 1 RC
N
f1626255170
f
GR
GS
[0.6 0 0 0.6 289.17599 126.36023] CT
0 0 1 RC
10.0 ML
N
5 0 M
5 -2.761 2.761 -5 0 -5 C
-2.761 -5 -5 -2.761 -5 0 C
-5 2.761 -2.761 5 0 5 C
2.761 5 5 2.761 5 0 C
S
GR
GS
[0.6 0 0 0.6 295.692 91.94699] CT
0 0 1 RC
N
f1626255170
f
GR
GS
[0.6 0 0 0.6 295.692 91.94699] CT
0 0 1 RC
10.0 ML
N
5 0 M
5 -2.761 2.761 -5 0 -5 C
-2.761 -5 -5 -2.761 -5 0 C
-5 2.761 -2.761 5 0 5 C
2.761 5 5 2.761 5 0 C
S
GR
GS
[0.6 0 0 0.6 302.208 148.82307] CT
0 0 1 RC
N
f1626255170
f
GR
GS
[0.6 0 0 0.6 302.208 148.82307] CT
0 0 1 RC
10.0 ML
N
5 0 M
5 -2.761 2.761 -5 0 -5 C
-2.761 -5 -5 -2.761 -5 0 C
-5 2.761 -2.761 5 0 5 C
2.761 5 5 2.761 5 0 C
S
GR
GS
[0.6 0 0 0.6 308.72399 156.25975] CT
0 0 1 RC
N
f1626255170
f
GR
GS
[0.6 0 0 0.6 308.72399 156.25975] CT
0 0 1 RC
10.0 ML
N
5 0 M
5 -2.761 2.761 -5 0 -5 C
-2.761 -5 -5 -2.761 -5 0 C
-5 2.761 -2.761 5 0 5 C
2.761 5 5 2.761 5 0 C
S
GR
GS
[0.6 0 0 0.6 315.24001 128.52141] CT
0 0 1 RC
N
f1626255170
f
GR
GS
[0.6 0 0 0.6 315.24001 128.52141] CT
0 0 1 RC
10.0 ML
N
5 0 M
5 -2.761 2.761 -5 0 -5 C
-2.761 -5 -5 -2.761 -5 0 C
-5 2.761 -2.761 5 0 5 C
2.761 5 5 2.761 5 0 C
S
GR
GS
[0.6 0 0 0.6 321.75601 127.99725] CT
0 0 1 RC
N
f1626255170
f
GR
GS
[0.6 0 0 0.6 321.75601 127.99725] CT
0 0 1 RC
10.0 ML
N
5 0 M
5 -2.761 2.761 -5 0 -5 C
-2.761 -5 -5 -2.761 -5 0 C
-5 2.761 -2.761 5 0 5 C
2.761 5 5 2.761 5 0 C
S
GR
GS
[0.6 0 0 0.6 328.272 141.74444] CT
0 0 1 RC
N
f1626255170
f
GR
GS
[0.6 0 0 0.6 328.272 141.74444] CT
0 0 1 RC
10.0 ML
N
5 0 M
5 -2.761 2.761 -5 0 -5 C
-2.761 -5 -5 -2.761 -5 0 C
-5 2.761 -2.761 5 0 5 C
2.761 5 5 2.761 5 0 C
S
GR
GS
[0.6 0 0 0.6 334.78799 169.45042] CT
0 0 1 RC
N
f1626255170
f
GR
GS
[0.6 0 0 0.6 334.78799 169.45042] CT
0 0 1 RC
10.0 ML
N
5 0 M
5 -2.761 2.761 -5 0 -5 C
-2.761 -5 -5 -2.761 -5 0 C
-5 2.761 -2.761 5 0 5 C
2.761 5 5 2.761 5 0 C
S
GR
GS
[0.6 0 0 0.6 341.30402 116.43539] CT
0 0 1 RC
N
f1626255170
f
GR
GS
[0.6 0 0 0.6 341.30402 116.43539] CT
0 0 1 RC
10.0 ML
N
5 0 M
5 -2.761 2.761 -5 0 -5 C
-2.761 -5 -5 -2.761 -5 0 C
-5 2.761 -2.761 5 0 5 C
2.761 5 5 2.761 5 0 C
S
GR
GS
[0.6 0 0 0.6 347.82001 189.62536] CT
0 0 1 RC
N
f1626255170
f
GR
GS
[0.6 0 0 0.6 347.82001 189.62536] CT
0 0 1 RC
10.0 ML
N
5 0 M
5 -2.761 2.761 -5 0 -5 C
-2.761 -5 -5 -2.761 -5 0 C
-5 2.761 -2.761 5 0 5 C
2.761 5 5 2.761 5 0 C
S
GR
GS
[0.6 0 0 0.6 354.336 148.26197] CT
0 0 1 RC
N
f1626255170
f
GR
GS
[0.6 0 0 0.6 354.336 148.26197] CT
0 0 1 RC
10.0 ML
N
5 0 M
5 -2.761 2.761 -5 0 -5 C
-2.761 -5 -5 -2.761 -5 0 C
-5 2.761 -2.761 5 0 5 C
2.761 5 5 2.761 5 0 C
S
GR
GS
[0.6 0 0 0.6 360.85199 139.88309] CT
0 0 1 RC
N
f1626255170
f
GR
GS
[0.6 0 0 0.6 360.85199 139.88309] CT
0 0 1 RC
10.0 ML
N
5 0 M
5 -2.761 2.761 -5 0 -5 C
-2.761 -5 -5 -2.761 -5 0 C
-5 2.761 -2.761 5 0 5 C
2.761 5 5 2.761 5 0 C
S
GR
GS
[0.6 0 0 0.6 367.36802 177.98397] CT
0 0 1 RC
N
f1626255170
f
GR
GS
[0.6 0 0 0.6 367.36802 177.98397] CT
0 0 1 RC
10.0 ML
N
5 0 M
5 -2.761 2.761 -5 0 -5 C
-2.761 -5 -5 -2.761 -5 0 C
-5 2.761 -2.761 5 0 5 C
2.761 5 5 2.761 5 0 C
S
GR
GS
[0.6 0 0 0.6 373.88401 186.54703] CT
0 0 1 RC
N
f1626255170
f
GR
GS
[0.6 0 0 0.6 373.88401 186.54703] CT
0 0 1 RC
10.0 ML
N
5 0 M
5 -2.761 2.761 -5 0 -5 C
-2.761 -5 -5 -2.761 -5 0 C
-5 2.761 -2.761 5 0 5 C
2.761 5 5 2.761 5 0 C
S
GR
GS
[0.6 0 0 0.6 380.4 211.64874] CT
0 0 1 RC
N
f1626255170
f
GR
GS
[0.6 0 0 0.6 380.4 211.64874] CT
0 0 1 RC
10.0 ML
N
5 0 M
5 -2.761 2.761 -5 0 -5 C
-2.761 -5 -5 -2.761 -5 0 C
-5 2.761 -2.761 5 0 5 C
2.761 5 5 2.761 5 0 C
S
GR
GS
[0.6 0 0 0.6 0 0] CT
0 0 1 RC
1 LJ
0.833 LW
N
101.86 253 M
101.86 227.541 L
S
GR
GS
[0.6 0 0 0.6 0 0] CT
0 0 1 RC
1 LJ
0.833 LW
N
112.72 253 M
112.72 155.199 L
S
GR
GS
[0.6 0 0 0.6 0 0] CT
0 0 1 RC
1 LJ
0.833 LW
N
123.58 253 M
123.58 208.27 L
S
GR
GS
[0.6 0 0 0.6 0 0] CT
0 0 1 RC
1 LJ
0.833 LW
N
134.44 253 M
134.44 192.668 L
S
GR
GS
[0.6 0 0 0.6 0 0] CT
0 0 1 RC
1 LJ
0.833 LW
N
145.3 253 M
145.3 82.462 L
S
GR
GS
[0.6 0 0 0.6 0 0] CT
0 0 1 RC
1 LJ
0.833 LW
N
156.16 253 M
156.16 187.605 L
S
GR
GS
[0.6 0 0 0.6 0 0] CT
0 0 1 RC
1 LJ
0.833 LW
N
167.02 253 M
167.02 151.39 L
S
GR
GS
[0.6 0 0 0.6 0 0] CT
0 0 1 RC
1 LJ
0.833 LW
N
177.88 253 M
177.88 97.373 L
S
GR
GS
[0.6 0 0 0.6 0 0] CT
0 0 1 RC
1 LJ
0.833 LW
N
188.74 253 M
188.74 138.571 L
S
GR
GS
[0.6 0 0 0.6 0 0] CT
0 0 1 RC
1 LJ
0.833 LW
N
199.6 253 M
199.6 76.073 L
S
GR
GS
[0.6 0 0 0.6 0 0] CT
0 0 1 RC
1 LJ
0.833 LW
N
210.46 253 M
210.46 105.01 L
S
GR
GS
[0.6 0 0 0.6 0 0] CT
0 0 1 RC
1 LJ
0.833 LW
N
221.32 253 M
221.32 157.884 L
S
GR
GS
[0.6 0 0 0.6 0 0] CT
0 0 1 RC
1 LJ
0.833 LW
N
232.18 253 M
232.18 231.714 L
S
GR
GS
[0.6 0 0 0.6 0 0] CT
0 0 1 RC
1 LJ
0.833 LW
N
243.04 253 M
243.04 179.161 L
S
GR
GS
[0.6 0 0 0.6 0 0] CT
0 0 1 RC
1 LJ
0.833 LW
N
253.9 253 M
253.9 304.724 L
S
GR
GS
[0.6 0 0 0.6 0 0] CT
0 0 1 RC
1 LJ
0.833 LW
N
264.76 253 M
264.76 239.921 L
S
GR
GS
[0.6 0 0 0.6 0 0] CT
0 0 1 RC
1 LJ
0.833 LW
N
275.62 253 M
275.62 231.995 L
S
GR
GS
[0.6 0 0 0.6 0 0] CT
0 0 1 RC
1 LJ
0.833 LW
N
286.48 253 M
286.48 285.123 L
S
GR
GS
[0.6 0 0 0.6 0 0] CT
0 0 1 RC
1 LJ
0.833 LW
N
297.34 253 M
297.34 268.83 L
S
GR
GS
[0.6 0 0 0.6 0 0] CT
0 0 1 RC
1 LJ
0.833 LW
N
308.2 253 M
308.2 223.437 L
S
GR
GS
[0.6 0 0 0.6 0 0] CT
0 0 1 RC
1 LJ
0.833 LW
N
319.06 253 M
319.06 296.234 L
S
GR
GS
[0.6 0 0 0.6 0 0] CT
0 0 1 RC
1 LJ
0.833 LW
N
329.92 253 M
329.92 340.483 L
S
GR
GS
[0.6 0 0 0.6 0 0] CT
0 0 1 RC
1 LJ
0.833 LW
N
340.78 253 M
340.78 325.085 L
S
GR
GS
[0.6 0 0 0.6 0 0] CT
0 0 1 RC
1 LJ
0.833 LW
N
351.64 253 M
351.64 336.65 L
S
GR
GS
[0.6 0 0 0.6 0 0] CT
0 0 1 RC
1 LJ
0.833 LW
N
362.5 253 M
362.5 425.101 L
S
GR
GS
[0.6 0 0 0.6 0 0] CT
0 0 1 RC
1 LJ
0.833 LW
N
373.36 253 M
373.36 367.943 L
S
GR
GS
[0.6 0 0 0.6 0 0] CT
0 0 1 RC
1 LJ
0.833 LW
N
384.22 253 M
384.22 266.996 L
S
GR
GS
[0.6 0 0 0.6 0 0] CT
0 0 1 RC
1 LJ
0.833 LW
N
395.08 253 M
395.08 318.225 L
S
GR
GS
[0.6 0 0 0.6 0 0] CT
0 0 1 RC
1 LJ
0.833 LW
N
405.94 253 M
405.94 265.361 L
S
GR
GS
[0.6 0 0 0.6 0 0] CT
0 0 1 RC
1 LJ
0.833 LW
N
416.8 253 M
416.8 329.094 L
S
GR
GS
[0.6 0 0 0.6 0 0] CT
0 0 1 RC
1 LJ
0.833 LW
N
427.66 253 M
427.66 249.548 L
S
GR
GS
[0.6 0 0 0.6 0 0] CT
0 0 1 RC
1 LJ
0.833 LW
N
438.52 253 M
438.52 198.638 L
S
GR
GS
[0.6 0 0 0.6 0 0] CT
0 0 1 RC
1 LJ
0.833 LW
N
449.38 253 M
449.38 282.32 L
S
GR
GS
[0.6 0 0 0.6 0 0] CT
0 0 1 RC
1 LJ
0.833 LW
N
460.24 253 M
460.24 171.511 L
S
GR
GS
[0.6 0 0 0.6 0 0] CT
0 0 1 RC
1 LJ
0.833 LW
N
471.1 253 M
471.1 183.212 L
S
GR
GS
[0.6 0 0 0.6 0 0] CT
0 0 1 RC
1 LJ
0.833 LW
N
481.96 253 M
481.96 210.6 L
S
GR
GS
[0.6 0 0 0.6 0 0] CT
0 0 1 RC
1 LJ
0.833 LW
N
492.82 253 M
492.82 153.245 L
S
GR
GS
[0.6 0 0 0.6 0 0] CT
0 0 1 RC
1 LJ
0.833 LW
N
503.68 253 M
503.68 248.038 L
S
GR
GS
[0.6 0 0 0.6 0 0] CT
0 0 1 RC
1 LJ
0.833 LW
N
514.54 253 M
514.54 260.433 L
S
GR
GS
[0.6 0 0 0.6 0 0] CT
0 0 1 RC
1 LJ
0.833 LW
N
525.4 253 M
525.4 214.202 L
S
GR
GS
[0.6 0 0 0.6 0 0] CT
0 0 1 RC
1 LJ
0.833 LW
N
536.26 253 M
536.26 213.329 L
S
GR
GS
[0.6 0 0 0.6 0 0] CT
0 0 1 RC
1 LJ
0.833 LW
N
547.12 253 M
547.12 236.241 L
S
GR
GS
[0.6 0 0 0.6 0 0] CT
0 0 1 RC
1 LJ
0.833 LW
N
557.98 253 M
557.98 282.417 L
S
GR
GS
[0.6 0 0 0.6 0 0] CT
0 0 1 RC
1 LJ
0.833 LW
N
568.84 253 M
568.84 194.059 L
S
GR
GS
[0.6 0 0 0.6 0 0] CT
0 0 1 RC
1 LJ
0.833 LW
N
579.7 253 M
579.7 316.042 L
S
GR
GS
[0.6 0 0 0.6 0 0] CT
0 0 1 RC
1 LJ
0.833 LW
N
590.56 253 M
590.56 247.103 L
S
GR
GS
[0.6 0 0 0.6 0 0] CT
0 0 1 RC
1 LJ
0.833 LW
N
601.42 253 M
601.42 233.138 L
S
GR
GS
[0.6 0 0 0.6 0 0] CT
0 0 1 RC
1 LJ
0.833 LW
N
612.28 253 M
612.28 296.64 L
S
GR
GS
[0.6 0 0 0.6 0 0] CT
0 0 1 RC
1 LJ
0.833 LW
N
623.14 253 M
623.14 310.912 L
S
GR
GS
[0.6 0 0 0.6 0 0] CT
0 0 1 RC
1 LJ
0.833 LW
N
634 253 M
634 352.748 L
S
GR
GS
[0.6 0 0 0.6 61.116 146.70829] CT
1 0 0 RC
N
f1626255170
f
GR
GS
[0.6 0 0 0.6 61.116 146.70829] CT
1 0 0 RC
10.0 ML
N
5 0 M
5 -2.761 2.761 -5 0 -5 C
-2.761 -5 -5 -2.761 -5 0 C
-5 2.761 -2.761 5 0 5 C
2.761 5 5 2.761 5 0 C
S
GR
GS
[0.6 0 0 0.6 67.632 127.14809] CT
1 0 0 RC
N
f1626255170
f
GR
GS
[0.6 0 0 0.6 67.632 127.14809] CT
1 0 0 RC
10.0 ML
N
5 0 M
5 -2.761 2.761 -5 0 -5 C
-2.761 -5 -5 -2.761 -5 0 C
-5 2.761 -2.761 5 0 5 C
2.761 5 5 2.761 5 0 C
S
GR
GS
[0.6 0 0 0.6 74.148 118.20201] CT
1 0 0 RC
N
f1626255170
f
GR
GS
[0.6 0 0 0.6 74.148 118.20201] CT
1 0 0 RC
10.0 ML
N
5 0 M
5 -2.761 2.761 -5 0 -5 C
-2.761 -5 -5 -2.761 -5 0 C
-5 2.761 -2.761 5 0 5 C
2.761 5 5 2.761 5 0 C
S
GR
GS
[0.6 0 0 0.6 80.664 111.22733] CT
1 0 0 RC
N
f1626255170
f
GR
GS
[0.6 0 0 0.6 80.664 111.22733] CT
1 0 0 RC
10.0 ML
N
5 0 M
5 -2.761 2.761 -5 0 -5 C
-2.761 -5 -5 -2.761 -5 0 C
-5 2.761 -2.761 5 0 5 C
2.761 5 5 2.761 5 0 C
S
GR
GS
[0.6 0 0 0.6 87.18 96.67994] CT
1 0 0 RC
N
f1626255170
f
GR
GS
[0.6 0 0 0.6 87.18 96.67994] CT
1 0 0 RC
10.0 ML
N
5 0 M
5 -2.761 2.761 -5 0 -5 C
-2.761 -5 -5 -2.761 -5 0 C
-5 2.761 -2.761 5 0 5 C
2.761 5 5 2.761 5 0 C
S
GR
GS
[0.6 0 0 0.6 93.696 92.54699] CT
1 0 0 RC
N
f1626255170
f
GR
GS
[0.6 0 0 0.6 93.696 92.54699] CT
1 0 0 RC
10.0 ML
N
5 0 M
5 -2.761 2.761 -5 0 -5 C
-2.761 -5 -5 -2.761 -5 0 C
-5 2.761 -2.761 5 0 5 C
2.761 5 5 2.761 5 0 C
S
GR
GS
[0.6 0 0 0.6 100.212 84.29133] CT
1 0 0 RC
N
f1626255170
f
GR
GS
[0.6 0 0 0.6 100.212 84.29133] CT
1 0 0 RC
10.0 ML
N
5 0 M
5 -2.761 2.761 -5 0 -5 C
-2.761 -5 -5 -2.761 -5 0 C
-5 2.761 -2.761 5 0 5 C
2.761 5 5 2.761 5 0 C
S
GR
GS
[0.6 0 0 0.6 106.728 87.27357] CT
1 0 0 RC
N
f1626255170
f
GR
GS
[0.6 0 0 0.6 106.728 87.27357] CT
1 0 0 RC
10.0 ML
N
5 0 M
5 -2.761 2.761 -5 0 -5 C
-2.761 -5 -5 -2.761 -5 0 C
-5 2.761 -2.761 5 0 5 C
2.761 5 5 2.761 5 0 C
S
GR
GS
[0.6 0 0 0.6 113.244 77.46687] CT
1 0 0 RC
N
f1626255170
f
GR
GS
[0.6 0 0 0.6 113.244 77.46687] CT
1 0 0 RC
10.0 ML
N
5 0 M
5 -2.761 2.761 -5 0 -5 C
-2.761 -5 -5 -2.761 -5 0 C
-5 2.761 -2.761 5 0 5 C
2.761 5 5 2.761 5 0 C
S
GR
GS
[0.6 0 0 0.6 119.76 62.40353] CT
1 0 0 RC
N
f1626255170
f
GR
GS
[0.6 0 0 0.6 119.76 62.40353] CT
1 0 0 RC
10.0 ML
N
5 0 M
5 -2.761 2.761 -5 0 -5 C
-2.761 -5 -5 -2.761 -5 0 C
-5 2.761 -2.761 5 0 5 C
2.761 5 5 2.761 5 0 C
S
GR
GS
[0.6 0 0 0.6 126.276 63.93083] CT
1 0 0 RC
N
f1626255170
f
GR
GS
[0.6 0 0 0.6 126.276 63.93083] CT
1 0 0 RC
10.0 ML
N
5 0 M
5 -2.761 2.761 -5 0 -5 C
-2.761 -5 -5 -2.761 -5 0 C
-5 2.761 -2.761 5 0 5 C
2.761 5 5 2.761 5 0 C
S
GR
GS
[0.6 0 0 0.6 132.792 67.79345] CT
1 0 0 RC
N
f1626255170
f
GR
GS
[0.6 0 0 0.6 132.792 67.79345] CT
1 0 0 RC
10.0 ML
N
5 0 M
5 -2.761 2.761 -5 0 -5 C
-2.761 -5 -5 -2.761 -5 0 C
-5 2.761 -2.761 5 0 5 C
2.761 5 5 2.761 5 0 C
S
GR
GS
[0.6 0 0 0.6 139.308 98.92162] CT
1 0 0 RC
N
f1626255170
f
GR
GS
[0.6 0 0 0.6 139.308 98.92162] CT
1 0 0 RC
10.0 ML
N
5 0 M
5 -2.761 2.761 -5 0 -5 C
-2.761 -5 -5 -2.761 -5 0 C
-5 2.761 -2.761 5 0 5 C
2.761 5 5 2.761 5 0 C
S
GR
GS
[0.6 0 0 0.6 145.824 113.75186] CT
1 0 0 RC
N
f1626255170
f
GR
GS
[0.6 0 0 0.6 145.824 113.75186] CT
1 0 0 RC
10.0 ML
N
5 0 M
5 -2.761 2.761 -5 0 -5 C
-2.761 -5 -5 -2.761 -5 0 C
-5 2.761 -2.761 5 0 5 C
2.761 5 5 2.761 5 0 C
S
GR
GS
[0.6 0 0 0.6 152.34 143.11969] CT
1 0 0 RC
N
f1626255170
f
GR
GS
[0.6 0 0 0.6 152.34 143.11969] CT
1 0 0 RC
10.0 ML
N
5 0 M
5 -2.761 2.761 -5 0 -5 C
-2.761 -5 -5 -2.761 -5 0 C
-5 2.761 -2.761 5 0 5 C
2.761 5 5 2.761 5 0 C
S
GR
GS
[0.6 0 0 0.6 158.85601 144.76104] CT
1 0 0 RC
N
f1626255170
f
GR
GS
[0.6 0 0 0.6 158.85601 144.76104] CT
1 0 0 RC
10.0 ML
N
5 0 M
5 -2.761 2.761 -5 0 -5 C
-2.761 -5 -5 -2.761 -5 0 C
-5 2.761 -2.761 5 0 5 C
2.761 5 5 2.761 5 0 C
S
GR
GS
[0.6 0 0 0.6 165.372 155.32787] CT
1 0 0 RC
N
f1626255170
f
GR
GS
[0.6 0 0 0.6 165.372 155.32787] CT
1 0 0 RC
10.0 ML
N
5 0 M
5 -2.761 2.761 -5 0 -5 C
-2.761 -5 -5 -2.761 -5 0 C
-5 2.761 -2.761 5 0 5 C
2.761 5 5 2.761 5 0 C
S
GR
GS
[0.6 0 0 0.6 171.88801 151.40775] CT
1 0 0 RC
N
f1626255170
f
GR
GS
[0.6 0 0 0.6 171.88801 151.40775] CT
1 0 0 RC
10.0 ML
N
5 0 M
5 -2.761 2.761 -5 0 -5 C
-2.761 -5 -5 -2.761 -5 0 C
-5 2.761 -2.761 5 0 5 C
2.761 5 5 2.761 5 0 C
S
GR
GS
[0.6 0 0 0.6 178.404 157.18969] CT
1 0 0 RC
N
f1626255170
f
GR
GS
[0.6 0 0 0.6 178.404 157.18969] CT
1 0 0 RC
10.0 ML
N
5 0 M
5 -2.761 2.761 -5 0 -5 C
-2.761 -5 -5 -2.761 -5 0 C
-5 2.761 -2.761 5 0 5 C
2.761 5 5 2.761 5 0 C
S
GR
GS
[0.6 0 0 0.6 184.92001 155.478] CT
1 0 0 RC
N
f1626255170
f
GR
GS
[0.6 0 0 0.6 184.92001 155.478] CT
1 0 0 RC
10.0 ML
N
5 0 M
5 -2.761 2.761 -5 0 -5 C
-2.761 -5 -5 -2.761 -5 0 C
-5 2.761 -2.761 5 0 5 C
2.761 5 5 2.761 5 0 C
S
GR
GS
[0.6 0 0 0.6 191.436 157.70024] CT
1 0 0 RC
N
f1626255170
f
GR
GS
[0.6 0 0 0.6 191.436 157.70024] CT
1 0 0 RC
10.0 ML
N
5 0 M
5 -2.761 2.761 -5 0 -5 C
-2.761 -5 -5 -2.761 -5 0 C
-5 2.761 -2.761 5 0 5 C
2.761 5 5 2.761 5 0 C
S
GR
GS
[0.6 0 0 0.6 197.95201 172.03079] CT
1 0 0 RC
N
f1626255170
f
GR
GS
[0.6 0 0 0.6 197.95201 172.03079] CT
1 0 0 RC
10.0 ML
N
5 0 M
5 -2.761 2.761 -5 0 -5 C
-2.761 -5 -5 -2.761 -5 0 C
-5 2.761 -2.761 5 0 5 C
2.761 5 5 2.761 5 0 C
S
GR
GS
[0.6 0 0 0.6 204.468 192.36044] CT
1 0 0 RC
N
f1626255170
f
GR
GS
[0.6 0 0 0.6 204.468 192.36044] CT
1 0 0 RC
10.0 ML
N
5 0 M
5 -2.761 2.761 -5 0 -5 C
-2.761 -5 -5 -2.761 -5 0 C
-5 2.761 -2.761 5 0 5 C
2.761 5 5 2.761 5 0 C
S
GR
GS
[0.6 0 0 0.6 210.98401 200.44365] CT
1 0 0 RC
N
f1626255170
f
GR
GS
[0.6 0 0 0.6 210.98401 200.44365] CT
1 0 0 RC
10.0 ML
N
5 0 M
5 -2.761 2.761 -5 0 -5 C
-2.761 -5 -5 -2.761 -5 0 C
-5 2.761 -2.761 5 0 5 C
2.761 5 5 2.761 5 0 C
S
GR
GS
[0.6 0 0 0.6 217.5 217.36721] CT
1 0 0 RC
N
f1626255170
f
GR
GS
[0.6 0 0 0.6 217.5 217.36721] CT
1 0 0 RC
10.0 ML
N
5 0 M
5 -2.761 2.761 -5 0 -5 C
-2.761 -5 -5 -2.761 -5 0 C
-5 2.761 -2.761 5 0 5 C
2.761 5 5 2.761 5 0 C
S
GR
GS
[0.6 0 0 0.6 224.01599 225.93876] CT
1 0 0 RC
N
f1626255170
f
GR
GS
[0.6 0 0 0.6 224.01599 225.93876] CT
1 0 0 RC
10.0 ML
N
5 0 M
5 -2.761 2.761 -5 0 -5 C
-2.761 -5 -5 -2.761 -5 0 C
-5 2.761 -2.761 5 0 5 C
2.761 5 5 2.761 5 0 C
S
GR
GS
[0.6 0 0 0.6 230.532 212.00784] CT
1 0 0 RC
N
f1626255170
f
GR
GS
[0.6 0 0 0.6 230.532 212.00784] CT
1 0 0 RC
10.0 ML
N
5 0 M
5 -2.761 2.761 -5 0 -5 C
-2.761 -5 -5 -2.761 -5 0 C
-5 2.761 -2.761 5 0 5 C
2.761 5 5 2.761 5 0 C
S
GR
GS
[0.6 0 0 0.6 237.04799 190.63264] CT
1 0 0 RC
N
f1626255170
f
GR
GS
[0.6 0 0 0.6 237.04799 190.63264] CT
1 0 0 RC
10.0 ML
N
5 0 M
5 -2.761 2.761 -5 0 -5 C
-2.761 -5 -5 -2.761 -5 0 C
-5 2.761 -2.761 5 0 5 C
2.761 5 5 2.761 5 0 C
S
GR
GS
[0.6 0 0 0.6 243.564 170.11633] CT
1 0 0 RC
N
f1626255170
f
GR
GS
[0.6 0 0 0.6 243.564 170.11633] CT
1 0 0 RC
10.0 ML
N
5 0 M
5 -2.761 2.761 -5 0 -5 C
-2.761 -5 -5 -2.761 -5 0 C
-5 2.761 -2.761 5 0 5 C
2.761 5 5 2.761 5 0 C
S
GR
GS
[0.6 0 0 0.6 250.07999 182.53605] CT
1 0 0 RC
N
f1626255170
f
GR
GS
[0.6 0 0 0.6 250.07999 182.53605] CT
1 0 0 RC
10.0 ML
N
5 0 M
5 -2.761 2.761 -5 0 -5 C
-2.761 -5 -5 -2.761 -5 0 C
-5 2.761 -2.761 5 0 5 C
2.761 5 5 2.761 5 0 C
S
GR
GS
[0.6 0 0 0.6 256.596 168.80078] CT
1 0 0 RC
N
f1626255170
f
GR
GS
[0.6 0 0 0.6 256.596 168.80078] CT
1 0 0 RC
10.0 ML
N
5 0 M
5 -2.761 2.761 -5 0 -5 C
-2.761 -5 -5 -2.761 -5 0 C
-5 2.761 -2.761 5 0 5 C
2.761 5 5 2.761 5 0 C
S
GR
GS
[0.6 0 0 0.6 263.11199 155.4561] CT
1 0 0 RC
N
f1626255170
f
GR
GS
[0.6 0 0 0.6 263.11199 155.4561] CT
1 0 0 RC
10.0 ML
N
5 0 M
5 -2.761 2.761 -5 0 -5 C
-2.761 -5 -5 -2.761 -5 0 C
-5 2.761 -2.761 5 0 5 C
2.761 5 5 2.761 5 0 C
S
GR
GS
[0.6 0 0 0.6 269.628 146.10128] CT
1 0 0 RC
N
f1626255170
f
GR
GS
[0.6 0 0 0.6 269.628 146.10128] CT
1 0 0 RC
10.0 ML
N
5 0 M
5 -2.761 2.761 -5 0 -5 C
-2.761 -5 -5 -2.761 -5 0 C
-5 2.761 -2.761 5 0 5 C
2.761 5 5 2.761 5 0 C
S
GR
GS
[0.6 0 0 0.6 276.14399 130.49377] CT
1 0 0 RC
N
f1626255170
f
GR
GS
[0.6 0 0 0.6 276.14399 130.49377] CT
1 0 0 RC
10.0 ML
N
5 0 M
5 -2.761 2.761 -5 0 -5 C
-2.761 -5 -5 -2.761 -5 0 C
-5 2.761 -2.761 5 0 5 C
2.761 5 5 2.761 5 0 C
S
GR
GS
[0.6 0 0 0.6 282.66 127.40862] CT
1 0 0 RC
N
f1626255170
f
GR
GS
[0.6 0 0 0.6 282.66 127.40862] CT
1 0 0 RC
10.0 ML
N
5 0 M
5 -2.761 2.761 -5 0 -5 C
-2.761 -5 -5 -2.761 -5 0 C
-5 2.761 -2.761 5 0 5 C
2.761 5 5 2.761 5 0 C
S
GR
GS
[0.6 0 0 0.6 289.17599 113.06465] CT
1 0 0 RC
N
f1626255170
f
GR
GS
[0.6 0 0 0.6 289.17599 113.06465] CT
1 0 0 RC
10.0 ML
N
5 0 M
5 -2.761 2.761 -5 0 -5 C
-2.761 -5 -5 -2.761 -5 0 C
-5 2.761 -2.761 5 0 5 C
2.761 5 5 2.761 5 0 C
S
GR
GS
[0.6 0 0 0.6 295.692 109.4115] CT
1 0 0 RC
N
f1626255170
f
GR
GS
[0.6 0 0 0.6 295.692 109.4115] CT
1 0 0 RC
10.0 ML
N
5 0 M
5 -2.761 2.761 -5 0 -5 C
-2.761 -5 -5 -2.761 -5 0 C
-5 2.761 -2.761 5 0 5 C
2.761 5 5 2.761 5 0 C
S
GR
GS
[0.6 0 0 0.6 302.208 122.37676] CT
1 0 0 RC
N
f1626255170
f
GR
GS
[0.6 0 0 0.6 302.208 122.37676] CT
1 0 0 RC
10.0 ML
N
5 0 M
5 -2.761 2.761 -5 0 -5 C
-2.761 -5 -5 -2.761 -5 0 C
-5 2.761 -2.761 5 0 5 C
2.761 5 5 2.761 5 0 C
S
GR
GS
[0.6 0 0 0.6 308.72399 132.34327] CT
1 0 0 RC
N
f1626255170
f
GR
GS
[0.6 0 0 0.6 308.72399 132.34327] CT
1 0 0 RC
10.0 ML
N
5 0 M
5 -2.761 2.761 -5 0 -5 C
-2.761 -5 -5 -2.761 -5 0 C
-5 2.761 -2.761 5 0 5 C
2.761 5 5 2.761 5 0 C
S
GR
GS
[0.6 0 0 0.6 315.24001 144.53474] CT
1 0 0 RC
N
f1626255170
f
GR
GS
[0.6 0 0 0.6 315.24001 144.53474] CT
1 0 0 RC
10.0 ML
N
5 0 M
5 -2.761 2.761 -5 0 -5 C
-2.761 -5 -5 -2.761 -5 0 C
-5 2.761 -2.761 5 0 5 C
2.761 5 5 2.761 5 0 C
S
GR
GS
[0.6 0 0 0.6 321.75601 137.5928] CT
1 0 0 RC
N
f1626255170
f
GR
GS
[0.6 0 0 0.6 321.75601 137.5928] CT
1 0 0 RC
10.0 ML
N
5 0 M
5 -2.761 2.761 -5 0 -5 C
-2.761 -5 -5 -2.761 -5 0 C
-5 2.761 -2.761 5 0 5 C
2.761 5 5 2.761 5 0 C
S
GR
GS
[0.6 0 0 0.6 328.272 132.75437] CT
1 0 0 RC
N
f1626255170
f
GR
GS
[0.6 0 0 0.6 328.272 132.75437] CT
1 0 0 RC
10.0 ML
N
5 0 M
5 -2.761 2.761 -5 0 -5 C
-2.761 -5 -5 -2.761 -5 0 C
-5 2.761 -2.761 5 0 5 C
2.761 5 5 2.761 5 0 C
S
GR
GS
[0.6 0 0 0.6 334.78799 146.39737] CT
1 0 0 RC
N
f1626255170
f
GR
GS
[0.6 0 0 0.6 334.78799 146.39737] CT
1 0 0 RC
10.0 ML
N
5 0 M
5 -2.761 2.761 -5 0 -5 C
-2.761 -5 -5 -2.761 -5 0 C
-5 2.761 -2.761 5 0 5 C
2.761 5 5 2.761 5 0 C
S
GR
GS
[0.6 0 0 0.6 341.30402 142.54341] CT
1 0 0 RC
N
f1626255170
f
GR
GS
[0.6 0 0 0.6 341.30402 142.54341] CT
1 0 0 RC
10.0 ML
N
5 0 M
5 -2.761 2.761 -5 0 -5 C
-2.761 -5 -5 -2.761 -5 0 C
-5 2.761 -2.761 5 0 5 C
2.761 5 5 2.761 5 0 C
S
GR
GS
[0.6 0 0 0.6 347.82001 158.50373] CT
1 0 0 RC
N
f1626255170
f
GR
GS
[0.6 0 0 0.6 347.82001 158.50373] CT
1 0 0 RC
10.0 ML
N
5 0 M
5 -2.761 2.761 -5 0 -5 C
-2.761 -5 -5 -2.761 -5 0 C
-5 2.761 -2.761 5 0 5 C
2.761 5 5 2.761 5 0 C
S
GR
GS
[0.6 0 0 0.6 354.336 151.44091] CT
1 0 0 RC
N
f1626255170
f
GR
GS
[0.6 0 0 0.6 354.336 151.44091] CT
1 0 0 RC
10.0 ML
N
5 0 M
5 -2.761 2.761 -5 0 -5 C
-2.761 -5 -5 -2.761 -5 0 C
-5 2.761 -2.761 5 0 5 C
2.761 5 5 2.761 5 0 C
S
GR
GS
[0.6 0 0 0.6 360.85199 159.25681] CT
1 0 0 RC
N
f1626255170
f
GR
GS
[0.6 0 0 0.6 360.85199 159.25681] CT
1 0 0 RC
10.0 ML
N
5 0 M
5 -2.761 2.761 -5 0 -5 C
-2.761 -5 -5 -2.761 -5 0 C
-5 2.761 -2.761 5 0 5 C
2.761 5 5 2.761 5 0 C
S
GR
GS
[0.6 0 0 0.6 367.36802 155.37634] CT
1 0 0 RC
N
f1626255170
f
GR
GS
[0.6 0 0 0.6 367.36802 155.37634] CT
1 0 0 RC
10.0 ML
N
5 0 M
5 -2.761 2.761 -5 0 -5 C
-2.761 -5 -5 -2.761 -5 0 C
-5 2.761 -2.761 5 0 5 C
2.761 5 5 2.761 5 0 C
S
GR
GS
[0.6 0 0 0.6 373.88401 168.13802] CT
1 0 0 RC
N
f1626255170
f
GR
GS
[0.6 0 0 0.6 373.88401 168.13802] CT
1 0 0 RC
10.0 ML
N
5 0 M
5 -2.761 2.761 -5 0 -5 C
-2.761 -5 -5 -2.761 -5 0 C
-5 2.761 -2.761 5 0 5 C
2.761 5 5 2.761 5 0 C
S
GR
GS
[0.6 0 0 0.6 380.4 192.05991] CT
1 0 0 RC
N
f1626255170
f
GR
GS
[0.6 0 0 0.6 380.4 192.05991] CT
1 0 0 RC
10.0 ML
N
5 0 M
5 -2.761 2.761 -5 0 -5 C
-2.761 -5 -5 -2.761 -5 0 C
-5 2.761 -2.761 5 0 5 C
2.761 5 5 2.761 5 0 C
S
GR
GS
[0.6 0 0 0.6 0 0] CT
1 0 0 RC
1 LJ
0.833 LW
N
101.86 253 M
101.86 244.514 L
S
GR
GS
[0.6 0 0 0.6 0 0] CT
1 0 0 RC
1 LJ
0.833 LW
N
112.72 253 M
112.72 211.913 L
S
GR
GS
[0.6 0 0 0.6 0 0] CT
1 0 0 RC
1 LJ
0.833 LW
N
123.58 253 M
123.58 197.003 L
S
GR
GS
[0.6 0 0 0.6 0 0] CT
1 0 0 RC
1 LJ
0.833 LW
N
134.44 253 M
134.44 185.379 L
S
GR
GS
[0.6 0 0 0.6 0 0] CT
1 0 0 RC
1 LJ
0.833 LW
N
145.3 253 M
145.3 161.133 L
S
GR
GS
[0.6 0 0 0.6 0 0] CT
1 0 0 RC
1 LJ
0.833 LW
N
156.16 253 M
156.16 154.245 L
S
GR
GS
[0.6 0 0 0.6 0 0] CT
1 0 0 RC
1 LJ
0.833 LW
N
167.02 253 M
167.02 140.486 L
S
GR
GS
[0.6 0 0 0.6 0 0] CT
1 0 0 RC
1 LJ
0.833 LW
N
177.88 253 M
177.88 145.456 L
S
GR
GS
[0.6 0 0 0.6 0 0] CT
1 0 0 RC
1 LJ
0.833 LW
N
188.74 253 M
188.74 129.111 L
S
GR
GS
[0.6 0 0 0.6 0 0] CT
1 0 0 RC
1 LJ
0.833 LW
N
199.6 253 M
199.6 104.006 L
S
GR
GS
[0.6 0 0 0.6 0 0] CT
1 0 0 RC
1 LJ
0.833 LW
N
210.46 253 M
210.46 106.551 L
S
GR
GS
[0.6 0 0 0.6 0 0] CT
1 0 0 RC
1 LJ
0.833 LW
N
221.32 253 M
221.32 112.989 L
S
GR
GS
[0.6 0 0 0.6 0 0] CT
1 0 0 RC
1 LJ
0.833 LW
N
232.18 253 M
232.18 164.869 L
S
GR
GS
[0.6 0 0 0.6 0 0] CT
1 0 0 RC
1 LJ
0.833 LW
N
243.04 253 M
243.04 189.586 L
S
GR
GS
[0.6 0 0 0.6 0 0] CT
1 0 0 RC
1 LJ
0.833 LW
N
253.9 253 M
253.9 238.533 L
S
GR
GS
[0.6 0 0 0.6 0 0] CT
1 0 0 RC
1 LJ
0.833 LW
N
264.76 253 M
264.76 241.268 L
S
GR
GS
[0.6 0 0 0.6 0 0] CT
1 0 0 RC
1 LJ
0.833 LW
N
275.62 253 M
275.62 258.88 L
S
GR
GS
[0.6 0 0 0.6 0 0] CT
1 0 0 RC
1 LJ
0.833 LW
N
286.48 253 M
286.48 252.346 L
S
GR
GS
[0.6 0 0 0.6 0 0] CT
1 0 0 RC
1 LJ
0.833 LW
N
297.34 253 M
297.34 261.983 L
S
GR
GS
[0.6 0 0 0.6 0 0] CT
1 0 0 RC
1 LJ
0.833 LW
N
308.2 253 M
308.2 259.13 L
S
GR
GS
[0.6 0 0 0.6 0 0] CT
1 0 0 RC
1 LJ
0.833 LW
N
319.06 253 M
319.06 262.834 L
S
GR
GS
[0.6 0 0 0.6 0 0] CT
1 0 0 RC
1 LJ
0.833 LW
N
329.92 253 M
329.92 286.718 L
S
GR
GS
[0.6 0 0 0.6 0 0] CT
1 0 0 RC
1 LJ
0.833 LW
N
340.78 253 M
340.78 320.601 L
S
GR
GS
[0.6 0 0 0.6 0 0] CT
1 0 0 RC
1 LJ
0.833 LW
N
351.64 253 M
351.64 334.073 L
S
GR
GS
[0.6 0 0 0.6 0 0] CT
1 0 0 RC
1 LJ
0.833 LW
N
362.5 253 M
362.5 362.279 L
S
GR
GS
[0.6 0 0 0.6 0 0] CT
1 0 0 RC
1 LJ
0.833 LW
N
373.36 253 M
373.36 376.565 L
S
GR
GS
[0.6 0 0 0.6 0 0] CT
1 0 0 RC
1 LJ
0.833 LW
N
384.22 253 M
384.22 353.346 L
S
GR
GS
[0.6 0 0 0.6 0 0] CT
1 0 0 RC
1 LJ
0.833 LW
N
395.08 253 M
395.08 317.721 L
S
GR
GS
[0.6 0 0 0.6 0 0] CT
1 0 0 RC
1 LJ
0.833 LW
N
405.94 253 M
405.94 283.527 L
S
GR
GS
[0.6 0 0 0.6 0 0] CT
1 0 0 RC
1 LJ
0.833 LW
N
416.8 253 M
416.8 304.227 L
S
GR
GS
[0.6 0 0 0.6 0 0] CT
1 0 0 RC
1 LJ
0.833 LW
N
427.66 253 M
427.66 281.335 L
S
GR
GS
[0.6 0 0 0.6 0 0] CT
1 0 0 RC
1 LJ
0.833 LW
N
438.52 253 M
438.52 259.094 L
S
GR
GS
[0.6 0 0 0.6 0 0] CT
1 0 0 RC
1 LJ
0.833 LW
N
449.38 253 M
449.38 243.502 L
S
GR
GS
[0.6 0 0 0.6 0 0] CT
1 0 0 RC
1 LJ
0.833 LW
N
460.24 253 M
460.24 217.49 L
S
GR
GS
[0.6 0 0 0.6 0 0] CT
1 0 0 RC
1 LJ
0.833 LW
N
471.1 253 M
471.1 212.348 L
S
GR
GS
[0.6 0 0 0.6 0 0] CT
1 0 0 RC
1 LJ
0.833 LW
N
481.96 253 M
481.96 188.441 L
S
GR
GS
[0.6 0 0 0.6 0 0] CT
1 0 0 RC
1 LJ
0.833 LW
N
492.82 253 M
492.82 182.352 L
S
GR
GS
[0.6 0 0 0.6 0 0] CT
1 0 0 RC
1 LJ
0.833 LW
N
503.68 253 M
503.68 203.961 L
S
GR
GS
[0.6 0 0 0.6 0 0] CT
1 0 0 RC
1 LJ
0.833 LW
N
514.54 253 M
514.54 220.572 L
S
GR
GS
[0.6 0 0 0.6 0 0] CT
1 0 0 RC
1 LJ
0.833 LW
N
525.4 253 M
525.4 240.891 L
S
GR
GS
[0.6 0 0 0.6 0 0] CT
1 0 0 RC
1 LJ
0.833 LW
N
536.26 253 M
536.26 229.321 L
S
GR
GS
[0.6 0 0 0.6 0 0] CT
1 0 0 RC
1 LJ
0.833 LW
N
547.12 253 M
547.12 221.257 L
S
GR
GS
[0.6 0 0 0.6 0 0] CT
1 0 0 RC
1 LJ
0.833 LW
N
557.98 253 M
557.98 243.996 L
S
GR
GS
[0.6 0 0 0.6 0 0] CT
1 0 0 RC
1 LJ
0.833 LW
N
568.84 253 M
568.84 237.572 L
S
GR
GS
[0.6 0 0 0.6 0 0] CT
1 0 0 RC
1 LJ
0.833 LW
N
579.7 253 M
579.7 264.173 L
S
GR
GS
[0.6 0 0 0.6 0 0] CT
1 0 0 RC
1 LJ
0.833 LW
N
590.56 253 M
590.56 252.402 L
S
GR
GS
[0.6 0 0 0.6 0 0] CT
1 0 0 RC
1 LJ
0.833 LW
N
601.42 253 M
601.42 265.428 L
S
GR
GS
[0.6 0 0 0.6 0 0] CT
1 0 0 RC
1 LJ
0.833 LW
N
612.28 253 M
612.28 258.961 L
S
GR
GS
[0.6 0 0 0.6 0 0] CT
1 0 0 RC
1 LJ
0.833 LW
N
623.14 253 M
623.14 280.23 L
S
GR
GS
[0.6 0 0 0.6 0 0] CT
1 0 0 RC
1 LJ
0.833 LW
N
634 253 M
634 320.1 L
S
GR
GS
[0.6 0 0 0.6 0 0] CT
1 GC
N
/f2110605804{617 101 M
617 56 L
546 56 L
546 101 L
cp}def
f2110605804
f
GR
GS
[0.6 0 0 0.6 362.48152 40.99726] CT
/Helvetica 15 F
GS
[1 0 0 1 0 0] CT
0 6 moveto 
1 -1 scale
(x) t 
GR
GR
GS
[0.6 0 0 0.6 0 0] CT
0 0 1 RC
1 LJ
0.833 LW
N
550.948 68.329 M
585.582 68.329 L
S
GR
GS
[0.6 0 0 0.6 351.34915 40.99726] CT
0 0 1 RC
N
f1626255170
f
GR
GS
[0.6 0 0 0.6 351.34915 40.99726] CT
0 0 1 RC
10.0 ML
N
5 0 M
5 -2.761 2.761 -5 0 -5 C
-2.761 -5 -5 -2.761 -5 0 C
-5 2.761 -2.761 5 0 5 C
2.761 5 5 2.761 5 0 C
S
GR
GS
[0.6 0 0 0.6 362.48152 53.20274] CT
/Helvetica 15 F
GS
[1 0 0 1 0 0] CT
0 6 moveto 
1 -1 scale
(y) t 
GR
GR
GS
[0.6 0 0 0.6 0 0] CT
1 0 0 RC
1 LJ
0.833 LW
N
550.948 88.671 M
585.582 88.671 L
S
GR
GS
[0.6 0 0 0.6 351.34915 53.20274] CT
1 0 0 RC
N
f1626255170
f
GR
GS
[0.6 0 0 0.6 351.34915 53.20274] CT
1 0 0 RC
10.0 ML
N
5 0 M
5 -2.761 2.761 -5 0 -5 C
-2.761 -5 -5 -2.761 -5 0 C
-5 2.761 -2.761 5 0 5 C
2.761 5 5 2.761 5 0 C
S
GR
GS
[0.6 0 0 0.6 0 0] CT
0.149 GC
10.0 ML
0.833 LW
N
546 101 M
546 56 L
617 56 L
617 101 L
cp
S
GR
%%Trailer
%%Pages: 1
%%EOF
