%!PS-Adobe-3.0 EPSF-3.0
%%Creator: (MATLAB, The Mathworks, Inc. Version 9.3.0.713579 \(R2017b\). Operating System: Windows 10)
%%Title: C:/surfdrive/HAN/DSPIPS/Material/DSPIPS_workshopNotes/figures/single_sided_spectrum_signal_corrupted_by_noise.eps
%%CreationDate: 2019-01-18T14:14:19
%%Pages: (atend)
%%BoundingBox: 0 0 420 315
%%LanguageLevel: 3
%%EndComments
%%BeginProlog
%%BeginResource: procset (Apache XML Graphics Std ProcSet) 1.2 0
%%Version: 1.2 0
%%Copyright: (Copyright 2001-2003,2010 The Apache Software Foundation. License terms: http://www.apache.org/licenses/LICENSE-2.0)
/bd{bind def}bind def
/ld{load def}bd
/GR/grestore ld
/GS/gsave ld
/RM/rmoveto ld
/C/curveto ld
/t/show ld
/L/lineto ld
/ML/setmiterlimit ld
/CT/concat ld
/f/fill ld
/N/newpath ld
/S/stroke ld
/CC/setcmykcolor ld
/A/ashow ld
/cp/closepath ld
/RC/setrgbcolor ld
/LJ/setlinejoin ld
/GC/setgray ld
/LW/setlinewidth ld
/M/moveto ld
/re {4 2 roll M
1 index 0 rlineto
0 exch rlineto
neg 0 rlineto
cp } bd
/_ctm matrix def
/_tm matrix def
/BT { _ctm currentmatrix pop matrix _tm copy pop 0 0 moveto } bd
/ET { _ctm setmatrix } bd
/iTm { _ctm setmatrix _tm concat } bd
/Tm { _tm astore pop iTm 0 0 moveto } bd
/ux 0.0 def
/uy 0.0 def
/F {
  /Tp exch def
  /Tf exch def
  Tf findfont Tp scalefont setfont
  /cf Tf def  /cs Tp def
} bd
/ULS {currentpoint /uy exch def /ux exch def} bd
/ULE {
  /Tcx currentpoint pop def
  gsave
  newpath
  cf findfont cs scalefont dup
  /FontMatrix get 0 get /Ts exch def /FontInfo get dup
  /UnderlinePosition get Ts mul /To exch def
  /UnderlineThickness get Ts mul /Tt exch def
  ux uy To add moveto  Tcx uy To add lineto
  Tt setlinewidth stroke
  grestore
} bd
/OLE {
  /Tcx currentpoint pop def
  gsave
  newpath
  cf findfont cs scalefont dup
  /FontMatrix get 0 get /Ts exch def /FontInfo get dup
  /UnderlinePosition get Ts mul /To exch def
  /UnderlineThickness get Ts mul /Tt exch def
  ux uy To add cs add moveto Tcx uy To add cs add lineto
  Tt setlinewidth stroke
  grestore
} bd
/SOE {
  /Tcx currentpoint pop def
  gsave
  newpath
  cf findfont cs scalefont dup
  /FontMatrix get 0 get /Ts exch def /FontInfo get dup
  /UnderlinePosition get Ts mul /To exch def
  /UnderlineThickness get Ts mul /Tt exch def
  ux uy To add cs 10 mul 26 idiv add moveto Tcx uy To add cs 10 mul 26 idiv add lineto
  Tt setlinewidth stroke
  grestore
} bd
/QT {
/Y22 exch store
/X22 exch store
/Y21 exch store
/X21 exch store
currentpoint
/Y21 load 2 mul add 3 div exch
/X21 load 2 mul add 3 div exch
/X21 load 2 mul /X22 load add 3 div
/Y21 load 2 mul /Y22 load add 3 div
/X22 load /Y22 load curveto
} bd
/SSPD {
dup length /d exch dict def
{
/v exch def
/k exch def
currentpagedevice k known {
/cpdv currentpagedevice k get def
v cpdv ne {
/upd false def
/nullv v type /nulltype eq def
/nullcpdv cpdv type /nulltype eq def
nullv nullcpdv or
{
/upd true def
} {
/sametype v type cpdv type eq def
sametype {
v type /arraytype eq {
/vlen v length def
/cpdvlen cpdv length def
vlen cpdvlen eq {
0 1 vlen 1 sub {
/i exch def
/obj v i get def
/cpdobj cpdv i get def
obj cpdobj ne {
/upd true def
exit
} if
} for
} {
/upd true def
} ifelse
} {
v type /dicttype eq {
v {
/dv exch def
/dk exch def
/cpddv cpdv dk get def
dv cpddv ne {
/upd true def
exit
} if
} forall
} {
/upd true def
} ifelse
} ifelse
} if
} ifelse
upd true eq {
d k v put
} if
} if
} if
} forall
d length 0 gt {
d setpagedevice
} if
} bd
/RE { % /NewFontName [NewEncodingArray] /FontName RE -
  findfont dup length dict begin
  {
    1 index /FID ne
    {def} {pop pop} ifelse
  } forall
  /Encoding exch def
  /FontName 1 index def
  currentdict definefont pop
  end
} bind def
%%EndResource
%%BeginResource: procset (Apache XML Graphics EPS ProcSet) 1.0 0
%%Version: 1.0 0
%%Copyright: (Copyright 2002-2003 The Apache Software Foundation. License terms: http://www.apache.org/licenses/LICENSE-2.0)
/BeginEPSF { %def
/b4_Inc_state save def         % Save state for cleanup
/dict_count countdictstack def % Count objects on dict stack
/op_count count 1 sub def      % Count objects on operand stack
userdict begin                 % Push userdict on dict stack
/showpage { } def              % Redefine showpage, { } = null proc
0 setgray 0 setlinecap         % Prepare graphics state
1 setlinewidth 0 setlinejoin
10 setmiterlimit [ ] 0 setdash newpath
/languagelevel where           % If level not equal to 1 then
{pop languagelevel             % set strokeadjust and
1 ne                           % overprint to their defaults.
{false setstrokeadjust false setoverprint
} if
} if
} bd
/EndEPSF { %def
count op_count sub {pop} repeat            % Clean up stacks
countdictstack dict_count sub {end} repeat
b4_Inc_state restore
} bd
%%EndResource
%FOPBeginFontDict
%%IncludeResource: font Courier-Oblique
%%IncludeResource: font Courier-BoldOblique
%%IncludeResource: font Courier-Bold
%%IncludeResource: font ZapfDingbats
%%IncludeResource: font Symbol
%%IncludeResource: font Helvetica
%%IncludeResource: font Helvetica-Oblique
%%IncludeResource: font Helvetica-Bold
%%IncludeResource: font Helvetica-BoldOblique
%%IncludeResource: font Times-Roman
%%IncludeResource: font Times-Italic
%%IncludeResource: font Times-Bold
%%IncludeResource: font Times-BoldItalic
%%IncludeResource: font Courier
%FOPEndFontDict
%%BeginResource: encoding WinAnsiEncoding
/WinAnsiEncoding [
/.notdef /.notdef /.notdef /.notdef /.notdef
/.notdef /.notdef /.notdef /.notdef /.notdef
/.notdef /.notdef /.notdef /.notdef /.notdef
/.notdef /.notdef /.notdef /.notdef /.notdef
/.notdef /.notdef /.notdef /.notdef /.notdef
/.notdef /.notdef /.notdef /.notdef /.notdef
/.notdef /.notdef /space /exclam /quotedbl
/numbersign /dollar /percent /ampersand /quotesingle
/parenleft /parenright /asterisk /plus /comma
/hyphen /period /slash /zero /one
/two /three /four /five /six
/seven /eight /nine /colon /semicolon
/less /equal /greater /question /at
/A /B /C /D /E
/F /G /H /I /J
/K /L /M /N /O
/P /Q /R /S /T
/U /V /W /X /Y
/Z /bracketleft /backslash /bracketright /asciicircum
/underscore /quoteleft /a /b /c
/d /e /f /g /h
/i /j /k /l /m
/n /o /p /q /r
/s /t /u /v /w
/x /y /z /braceleft /bar
/braceright /asciitilde /bullet /Euro /bullet
/quotesinglbase /florin /quotedblbase /ellipsis /dagger
/daggerdbl /circumflex /perthousand /Scaron /guilsinglleft
/OE /bullet /Zcaron /bullet /bullet
/quoteleft /quoteright /quotedblleft /quotedblright /bullet
/endash /emdash /asciitilde /trademark /scaron
/guilsinglright /oe /bullet /zcaron /Ydieresis
/space /exclamdown /cent /sterling /currency
/yen /brokenbar /section /dieresis /copyright
/ordfeminine /guillemotleft /logicalnot /sfthyphen /registered
/macron /degree /plusminus /twosuperior /threesuperior
/acute /mu /paragraph /middot /cedilla
/onesuperior /ordmasculine /guillemotright /onequarter /onehalf
/threequarters /questiondown /Agrave /Aacute /Acircumflex
/Atilde /Adieresis /Aring /AE /Ccedilla
/Egrave /Eacute /Ecircumflex /Edieresis /Igrave
/Iacute /Icircumflex /Idieresis /Eth /Ntilde
/Ograve /Oacute /Ocircumflex /Otilde /Odieresis
/multiply /Oslash /Ugrave /Uacute /Ucircumflex
/Udieresis /Yacute /Thorn /germandbls /agrave
/aacute /acircumflex /atilde /adieresis /aring
/ae /ccedilla /egrave /eacute /ecircumflex
/edieresis /igrave /iacute /icircumflex /idieresis
/eth /ntilde /ograve /oacute /ocircumflex
/otilde /odieresis /divide /oslash /ugrave
/uacute /ucircumflex /udieresis /yacute /thorn
/ydieresis
] def
%%EndResource
%FOPBeginFontReencode
/Courier-Oblique findfont
dup length dict begin
  {1 index /FID ne {def} {pop pop} ifelse} forall
  /Encoding WinAnsiEncoding def
  currentdict
end
/Courier-Oblique exch definefont pop
/Courier-BoldOblique findfont
dup length dict begin
  {1 index /FID ne {def} {pop pop} ifelse} forall
  /Encoding WinAnsiEncoding def
  currentdict
end
/Courier-BoldOblique exch definefont pop
/Courier-Bold findfont
dup length dict begin
  {1 index /FID ne {def} {pop pop} ifelse} forall
  /Encoding WinAnsiEncoding def
  currentdict
end
/Courier-Bold exch definefont pop
/Helvetica findfont
dup length dict begin
  {1 index /FID ne {def} {pop pop} ifelse} forall
  /Encoding WinAnsiEncoding def
  currentdict
end
/Helvetica exch definefont pop
/Helvetica-Oblique findfont
dup length dict begin
  {1 index /FID ne {def} {pop pop} ifelse} forall
  /Encoding WinAnsiEncoding def
  currentdict
end
/Helvetica-Oblique exch definefont pop
/Helvetica-Bold findfont
dup length dict begin
  {1 index /FID ne {def} {pop pop} ifelse} forall
  /Encoding WinAnsiEncoding def
  currentdict
end
/Helvetica-Bold exch definefont pop
/Helvetica-BoldOblique findfont
dup length dict begin
  {1 index /FID ne {def} {pop pop} ifelse} forall
  /Encoding WinAnsiEncoding def
  currentdict
end
/Helvetica-BoldOblique exch definefont pop
/Times-Roman findfont
dup length dict begin
  {1 index /FID ne {def} {pop pop} ifelse} forall
  /Encoding WinAnsiEncoding def
  currentdict
end
/Times-Roman exch definefont pop
/Times-Italic findfont
dup length dict begin
  {1 index /FID ne {def} {pop pop} ifelse} forall
  /Encoding WinAnsiEncoding def
  currentdict
end
/Times-Italic exch definefont pop
/Times-Bold findfont
dup length dict begin
  {1 index /FID ne {def} {pop pop} ifelse} forall
  /Encoding WinAnsiEncoding def
  currentdict
end
/Times-Bold exch definefont pop
/Times-BoldItalic findfont
dup length dict begin
  {1 index /FID ne {def} {pop pop} ifelse} forall
  /Encoding WinAnsiEncoding def
  currentdict
end
/Times-BoldItalic exch definefont pop
/Courier findfont
dup length dict begin
  {1 index /FID ne {def} {pop pop} ifelse} forall
  /Encoding WinAnsiEncoding def
  currentdict
end
/Courier exch definefont pop
%FOPEndFontReencode
%%EndProlog
%%Page: 1 1
%%PageBoundingBox: 0 0 420 315
%%BeginPageSetup
[1 0 0 -1 0 315] CT
%%EndPageSetup
GS
[0.6 0 0 0.6 0 0] CT
1 GC
N
0 0 700 525 re
f
GR
GS
[0.6 0 0 0.6 0 0] CT
1 GC
N
0 0 700 525 re
f
GR
GS
[0.6 0 0 0.6 0 0] CT
1 GC
N
91 467 M
634 467 L
634 39 L
91 39 L
cp
f
GR
GS
[0.6 0 0 0.6 0 0] CT
0.873 GC
1 LJ
0.833 LW
N
91 467 M
91 39 L
S
GR
GS
[0.6 0 0 0.6 0 0] CT
0.873 GC
1 LJ
0.833 LW
N
145.3 467 M
145.3 39 L
S
GR
GS
[0.6 0 0 0.6 0 0] CT
0.873 GC
1 LJ
0.833 LW
N
199.6 467 M
199.6 39 L
S
GR
GS
[0.6 0 0 0.6 0 0] CT
0.873 GC
1 LJ
0.833 LW
N
253.9 467 M
253.9 39 L
S
GR
GS
[0.6 0 0 0.6 0 0] CT
0.873 GC
1 LJ
0.833 LW
N
308.2 467 M
308.2 39 L
S
GR
GS
[0.6 0 0 0.6 0 0] CT
0.873 GC
1 LJ
0.833 LW
N
362.5 467 M
362.5 39 L
S
GR
GS
[0.6 0 0 0.6 0 0] CT
0.873 GC
1 LJ
0.833 LW
N
416.8 467 M
416.8 39 L
S
GR
GS
[0.6 0 0 0.6 0 0] CT
0.873 GC
1 LJ
0.833 LW
N
471.1 467 M
471.1 39 L
S
GR
GS
[0.6 0 0 0.6 0 0] CT
0.873 GC
1 LJ
0.833 LW
N
525.4 467 M
525.4 39 L
S
GR
GS
[0.6 0 0 0.6 0 0] CT
0.873 GC
1 LJ
0.833 LW
N
579.7 467 M
579.7 39 L
S
GR
GS
[0.6 0 0 0.6 0 0] CT
0.873 GC
1 LJ
0.833 LW
N
634 467 M
634 39 L
S
GR
GS
[0.6 0 0 0.6 0 0] CT
0.873 GC
1 LJ
0.833 LW
N
634 467 M
91 467 L
S
GR
GS
[0.6 0 0 0.6 0 0] CT
0.873 GC
1 LJ
0.833 LW
N
634 395.667 M
91 395.667 L
S
GR
GS
[0.6 0 0 0.6 0 0] CT
0.873 GC
1 LJ
0.833 LW
N
634 324.333 M
91 324.333 L
S
GR
GS
[0.6 0 0 0.6 0 0] CT
0.873 GC
1 LJ
0.833 LW
N
634 253 M
91 253 L
S
GR
GS
[0.6 0 0 0.6 0 0] CT
0.873 GC
1 LJ
0.833 LW
N
634 181.667 M
91 181.667 L
S
GR
GS
[0.6 0 0 0.6 0 0] CT
0.873 GC
1 LJ
0.833 LW
N
634 110.333 M
91 110.333 L
S
GR
GS
[0.6 0 0 0.6 0 0] CT
0.873 GC
1 LJ
0.833 LW
N
634 39 M
91 39 L
S
GR
GS
[0.6 0 0 0.6 0 0] CT
0.149 GC
2 setlinecap
1 LJ
0.833 LW
N
91 467 M
634 467 L
S
GR
GS
[0.6 0 0 0.6 0 0] CT
0.149 GC
2 setlinecap
1 LJ
0.833 LW
N
91 39 M
634 39 L
S
GR
GS
[0.6 0 0 0.6 0 0] CT
0.149 GC
2 setlinecap
1 LJ
0.833 LW
N
91 467 M
91 461.57 L
S
GR
GS
[0.6 0 0 0.6 0 0] CT
0.149 GC
2 setlinecap
1 LJ
0.833 LW
N
145.3 467 M
145.3 461.57 L
S
GR
GS
[0.6 0 0 0.6 0 0] CT
0.149 GC
2 setlinecap
1 LJ
0.833 LW
N
199.6 467 M
199.6 461.57 L
S
GR
GS
[0.6 0 0 0.6 0 0] CT
0.149 GC
2 setlinecap
1 LJ
0.833 LW
N
253.9 467 M
253.9 461.57 L
S
GR
GS
[0.6 0 0 0.6 0 0] CT
0.149 GC
2 setlinecap
1 LJ
0.833 LW
N
308.2 467 M
308.2 461.57 L
S
GR
GS
[0.6 0 0 0.6 0 0] CT
0.149 GC
2 setlinecap
1 LJ
0.833 LW
N
362.5 467 M
362.5 461.57 L
S
GR
GS
[0.6 0 0 0.6 0 0] CT
0.149 GC
2 setlinecap
1 LJ
0.833 LW
N
416.8 467 M
416.8 461.57 L
S
GR
GS
[0.6 0 0 0.6 0 0] CT
0.149 GC
2 setlinecap
1 LJ
0.833 LW
N
471.1 467 M
471.1 461.57 L
S
GR
GS
[0.6 0 0 0.6 0 0] CT
0.149 GC
2 setlinecap
1 LJ
0.833 LW
N
525.4 467 M
525.4 461.57 L
S
GR
GS
[0.6 0 0 0.6 0 0] CT
0.149 GC
2 setlinecap
1 LJ
0.833 LW
N
579.7 467 M
579.7 461.57 L
S
GR
GS
[0.6 0 0 0.6 0 0] CT
0.149 GC
2 setlinecap
1 LJ
0.833 LW
N
634 467 M
634 461.57 L
S
GR
GS
[0.6 0 0 0.6 0 0] CT
0.149 GC
2 setlinecap
1 LJ
0.833 LW
N
91 39 M
91 44.43 L
S
GR
GS
[0.6 0 0 0.6 0 0] CT
0.149 GC
2 setlinecap
1 LJ
0.833 LW
N
145.3 39 M
145.3 44.43 L
S
GR
GS
[0.6 0 0 0.6 0 0] CT
0.149 GC
2 setlinecap
1 LJ
0.833 LW
N
199.6 39 M
199.6 44.43 L
S
GR
GS
[0.6 0 0 0.6 0 0] CT
0.149 GC
2 setlinecap
1 LJ
0.833 LW
N
253.9 39 M
253.9 44.43 L
S
GR
GS
[0.6 0 0 0.6 0 0] CT
0.149 GC
2 setlinecap
1 LJ
0.833 LW
N
308.2 39 M
308.2 44.43 L
S
GR
GS
[0.6 0 0 0.6 0 0] CT
0.149 GC
2 setlinecap
1 LJ
0.833 LW
N
362.5 39 M
362.5 44.43 L
S
GR
GS
[0.6 0 0 0.6 0 0] CT
0.149 GC
2 setlinecap
1 LJ
0.833 LW
N
416.8 39 M
416.8 44.43 L
S
GR
GS
[0.6 0 0 0.6 0 0] CT
0.149 GC
2 setlinecap
1 LJ
0.833 LW
N
471.1 39 M
471.1 44.43 L
S
GR
GS
[0.6 0 0 0.6 0 0] CT
0.149 GC
2 setlinecap
1 LJ
0.833 LW
N
525.4 39 M
525.4 44.43 L
S
GR
GS
[0.6 0 0 0.6 0 0] CT
0.149 GC
2 setlinecap
1 LJ
0.833 LW
N
579.7 39 M
579.7 44.43 L
S
GR
GS
[0.6 0 0 0.6 0 0] CT
0.149 GC
2 setlinecap
1 LJ
0.833 LW
N
634 39 M
634 44.43 L
S
GR
GS
[0.6 0 0 0.6 54.6 284.19999] CT
0.149 GC
/Helvetica 16.667 F
GS
[1 0 0 1 0 0] CT
-5 17 moveto 
1 -1 scale
(0) t 
GR
GR
GS
[0.6 0 0 0.6 87.18 284.19999] CT
0.149 GC
/Helvetica 16.667 F
GS
[1 0 0 1 0 0] CT
-9.5 17 moveto 
1 -1 scale
(50) t 
GR
GR
GS
[0.6 0 0 0.6 119.76 284.19999] CT
0.149 GC
/Helvetica 16.667 F
GS
[1 0 0 1 0 0] CT
-14 17 moveto 
1 -1 scale
(100) t 
GR
GR
GS
[0.6 0 0 0.6 152.34 284.19999] CT
0.149 GC
/Helvetica 16.667 F
GS
[1 0 0 1 0 0] CT
-14 17 moveto 
1 -1 scale
(150) t 
GR
GR
GS
[0.6 0 0 0.6 184.92001 284.19999] CT
0.149 GC
/Helvetica 16.667 F
GS
[1 0 0 1 0 0] CT
-14 17 moveto 
1 -1 scale
(200) t 
GR
GR
GS
[0.6 0 0 0.6 217.5 284.19999] CT
0.149 GC
/Helvetica 16.667 F
GS
[1 0 0 1 0 0] CT
-14 17 moveto 
1 -1 scale
(250) t 
GR
GR
GS
[0.6 0 0 0.6 250.07999 284.19999] CT
0.149 GC
/Helvetica 16.667 F
GS
[1 0 0 1 0 0] CT
-14 17 moveto 
1 -1 scale
(300) t 
GR
GR
GS
[0.6 0 0 0.6 282.66 284.19999] CT
0.149 GC
/Helvetica 16.667 F
GS
[1 0 0 1 0 0] CT
-14 17 moveto 
1 -1 scale
(350) t 
GR
GR
GS
[0.6 0 0 0.6 315.24001 284.19999] CT
0.149 GC
/Helvetica 16.667 F
GS
[1 0 0 1 0 0] CT
-14 17 moveto 
1 -1 scale
(400) t 
GR
GR
GS
[0.6 0 0 0.6 347.82001 284.19999] CT
0.149 GC
/Helvetica 16.667 F
GS
[1 0 0 1 0 0] CT
-14 17 moveto 
1 -1 scale
(450) t 
GR
GR
GS
[0.6 0 0 0.6 380.4 284.19999] CT
0.149 GC
/Helvetica 16.667 F
GS
[1 0 0 1 0 0] CT
-14 17 moveto 
1 -1 scale
(500) t 
GR
GR
GS
[0.6 0 0 0.6 217.50016 297.80001] CT
0.149 GC
/Helvetica 18.333 F
GS
[1 0 0 1 0 0] CT
-22.5 19 moveto 
1 -1 scale
(f \(Hz\)) t 
GR
GR
GS
[0.6 0 0 0.6 0 0] CT
0.149 GC
2 setlinecap
1 LJ
0.833 LW
N
91 467 M
91 39 L
S
GR
GS
[0.6 0 0 0.6 0 0] CT
0.149 GC
2 setlinecap
1 LJ
0.833 LW
N
634 467 M
634 39 L
S
GR
GS
[0.6 0 0 0.6 0 0] CT
0.149 GC
2 setlinecap
1 LJ
0.833 LW
N
91 467 M
96.43 467 L
S
GR
GS
[0.6 0 0 0.6 0 0] CT
0.149 GC
2 setlinecap
1 LJ
0.833 LW
N
91 395.667 M
96.43 395.667 L
S
GR
GS
[0.6 0 0 0.6 0 0] CT
0.149 GC
2 setlinecap
1 LJ
0.833 LW
N
91 324.333 M
96.43 324.333 L
S
GR
GS
[0.6 0 0 0.6 0 0] CT
0.149 GC
2 setlinecap
1 LJ
0.833 LW
N
91 253 M
96.43 253 L
S
GR
GS
[0.6 0 0 0.6 0 0] CT
0.149 GC
2 setlinecap
1 LJ
0.833 LW
N
91 181.667 M
96.43 181.667 L
S
GR
GS
[0.6 0 0 0.6 0 0] CT
0.149 GC
2 setlinecap
1 LJ
0.833 LW
N
91 110.333 M
96.43 110.333 L
S
GR
GS
[0.6 0 0 0.6 0 0] CT
0.149 GC
2 setlinecap
1 LJ
0.833 LW
N
91 39 M
96.43 39 L
S
GR
GS
[0.6 0 0 0.6 0 0] CT
0.149 GC
2 setlinecap
1 LJ
0.833 LW
N
634 467 M
628.57 467 L
S
GR
GS
[0.6 0 0 0.6 0 0] CT
0.149 GC
2 setlinecap
1 LJ
0.833 LW
N
634 395.667 M
628.57 395.667 L
S
GR
GS
[0.6 0 0 0.6 0 0] CT
0.149 GC
2 setlinecap
1 LJ
0.833 LW
N
634 324.333 M
628.57 324.333 L
S
GR
GS
[0.6 0 0 0.6 0 0] CT
0.149 GC
2 setlinecap
1 LJ
0.833 LW
N
634 253 M
628.57 253 L
S
GR
GS
[0.6 0 0 0.6 0 0] CT
0.149 GC
2 setlinecap
1 LJ
0.833 LW
N
634 181.667 M
628.57 181.667 L
S
GR
GS
[0.6 0 0 0.6 0 0] CT
0.149 GC
2 setlinecap
1 LJ
0.833 LW
N
634 110.333 M
628.57 110.333 L
S
GR
GS
[0.6 0 0 0.6 0 0] CT
0.149 GC
2 setlinecap
1 LJ
0.833 LW
N
634 39 M
628.57 39 L
S
GR
GS
[0.6 0 0 0.6 50.6 280.2] CT
0.149 GC
/Helvetica 16.667 F
GS
[1 0 0 1 0 0] CT
-10 6.5 moveto 
1 -1 scale
(0) t 
GR
GR
GS
[0.6 0 0 0.6 50.6 237.39999] CT
0.149 GC
/Helvetica 16.667 F
GS
[1 0 0 1 0 0] CT
-24 6.5 moveto 
1 -1 scale
(0.2) t 
GR
GR
GS
[0.6 0 0 0.6 50.6 194.60001] CT
0.149 GC
/Helvetica 16.667 F
GS
[1 0 0 1 0 0] CT
-24 6.5 moveto 
1 -1 scale
(0.4) t 
GR
GR
GS
[0.6 0 0 0.6 50.6 151.79999] CT
0.149 GC
/Helvetica 16.667 F
GS
[1 0 0 1 0 0] CT
-24 6.5 moveto 
1 -1 scale
(0.6) t 
GR
GR
GS
[0.6 0 0 0.6 50.6 108.99999] CT
0.149 GC
/Helvetica 16.667 F
GS
[1 0 0 1 0 0] CT
-24 6.5 moveto 
1 -1 scale
(0.8) t 
GR
GR
GS
[0.6 0 0 0.6 50.6 66.2] CT
0.149 GC
/Helvetica 16.667 F
GS
[1 0 0 1 0 0] CT
-10 6.5 moveto 
1 -1 scale
(1) t 
GR
GR
GS
[0.6 0 0 0.6 50.6 23.39999] CT
0.149 GC
/Helvetica 16.667 F
GS
[1 0 0 1 0 0] CT
-24 6.5 moveto 
1 -1 scale
(1.2) t 
GR
GR
GS
[0 -0.6 0.6 0 33.2 151.79987] CT
0.149 GC
/Helvetica 18.333 F
GS
[1 0 0 1 0 0] CT
-25 -5 moveto 
1 -1 scale
(|P1\(f\)|) t 
GR
GR
GS
[0.6 0 0 0.6 217.5002 21.74998] CT
/Helvetica-Bold 18.333 F
GS
[1 0 0 1 0 0] CT
-177 -5 moveto 
1 -1 scale
(Single-Sided Amplitude Spectrum of X\(t\)) t 
GR
GR
GS
[0.6 0 0 0.6 0 0] CT
0 0.447 0.741 RC
1 LJ
0.833 LW
N
91 449.317 M
91.724 437.745 L
92.448 462.688 L
93.172 444.288 L
93.896 444.558 L
94.62 419.892 L
95.344 426.475 L
96.068 453.923 L
96.792 423.481 L
97.516 459.199 L
98.24 446.327 L
98.964 446.777 L
99.688 417.039 L
100.412 447.194 L
101.136 449.443 L
101.86 407.83 L
102.584 427.518 L
103.308 434.465 L
104.032 420.228 L
104.756 391.589 L
105.48 439.896 L
106.204 441.43 L
106.928 424.993 L
107.652 428.803 L
108.376 459.694 L
109.1 430.482 L
109.824 436.494 L
110.548 413.129 L
111.272 432.421 L
111.996 441.615 L
112.72 407.52 L
113.444 413.122 L
114.168 441.505 L
114.892 457.949 L
115.616 435.189 L
116.34 463.482 L
117.064 436.093 L
117.788 424.238 L
118.512 450.99 L
119.236 460.606 L
119.96 440.19 L
120.684 464.267 L
121.408 455.629 L
122.132 419.429 L
122.856 452.304 L
123.58 429.614 L
124.304 444.042 L
125.028 449.282 L
125.752 415.493 L
126.476 449.278 L
127.2 411.59 L
127.924 425.159 L
128.648 429.995 L
129.372 438.343 L
130.096 421.799 L
130.82 433.191 L
131.544 441.158 L
132.268 440.869 L
132.992 454.301 L
133.716 446.365 L
134.44 390.665 L
135.164 421.918 L
135.888 386.908 L
136.612 439.503 L
137.336 429.814 L
138.06 425.485 L
138.784 427.963 L
139.508 438.208 L
140.232 426.106 L
140.956 442.066 L
141.68 430.571 L
142.404 443.789 L
143.128 425.913 L
143.852 438.02 L
144.576 452.867 L
145.3 227.109 L
146.024 436.458 L
146.748 432.616 L
147.472 445.868 L
148.196 458.607 L
148.92 428.4 L
149.644 439.358 L
150.368 397.517 L
151.092 439.019 L
151.816 395.135 L
152.54 439.389 L
153.264 428.173 L
153.988 436.484 L
154.712 445.982 L
155.436 418.93 L
156.16 460.51 L
156.884 395.039 L
157.608 404.76 L
158.332 411.199 L
159.056 446.06 L
159.78 432.274 L
160.504 400.624 L
161.228 393.095 L
161.952 423.689 L
162.676 459.108 L
163.4 415.518 L
164.124 447.105 L
164.848 432.548 L
165.572 442.893 L
166.296 443.204 L
167.02 426.31 L
167.744 412.188 L
168.468 461.483 L
169.192 425.606 L
169.916 441.172 L
170.64 455.526 L
171.364 444.151 L
172.088 451.254 L
172.812 422.672 L
173.536 456.371 L
174.26 441.261 L
174.984 409.215 L
175.708 449.073 L
176.432 456.541 L
177.156 437.778 L
177.88 441.768 L
178.604 464.919 L
179.328 447.069 L
180.052 449.19 L
180.776 442.731 L
181.5 448.874 L
182.224 414.317 L
182.948 430.915 L
183.672 436.121 L
184.396 438.619 L
185.12 415.623 L
185.844 435.384 L
186.568 439.812 L
187.292 411.091 L
188.016 454.427 L
188.74 449.623 L
189.464 431.688 L
190.188 459.394 L
190.912 447.534 L
191.636 422.051 L
192.36 440.63 L
193.084 447.954 L
193.808 426.885 L
194.532 448.933 L
195.256 432.492 L
195.98 457.148 L
196.704 434.151 L
197.428 397.964 L
198.152 419.384 L
198.876 434.88 L
199.6 462.615 L
200.324 406.189 L
201.048 435.451 L
201.772 395.022 L
202.496 458.601 L
203.22 435.36 L
203.944 457.14 L
204.668 424.441 L
205.392 446.1 L
206.116 403.56 L
206.84 449.961 L
207.564 430.272 L
208.288 434.297 L
209.012 455.489 L
209.736 421.469 L
210.46 432.732 L
211.184 440.587 L
211.908 443.08 L
212.632 419.306 L
213.356 422.563 L
214.08 434.383 L
214.804 452.323 L
215.528 434.282 L
216.252 424.253 L
216.976 441.732 L
217.7 429.054 L
218.424 408.852 L
219.148 448.161 L
219.872 428.389 L
220.596 414.592 L
221.32 109.65 L
222.044 447.931 L
222.768 420.486 L
223.492 450.55 L
224.216 438.08 L
224.94 429.424 L
225.664 411.29 L
226.388 443.812 L
227.112 440.037 L
227.836 456.12 L
228.56 434.678 L
229.284 438.774 L
230.008 447.964 L
230.732 436.875 L
231.456 447.65 L
232.18 444.282 L
232.904 457.872 L
233.628 416.57 L
234.352 453.828 L
235.076 446.25 L
235.8 452.308 L
236.524 440.888 L
237.248 451.449 L
237.972 453.256 L
238.696 448.922 L
239.42 422.505 L
240.144 390.944 L
240.868 435.34 L
241.592 390.96 L
242.316 422.585 L
243.04 459.66 L
243.764 401.806 L
244.488 431.363 L
245.212 449.726 L
245.936 434.159 L
246.66 427.332 L
247.384 395.939 L
248.108 440.482 L
248.832 455.825 L
249.556 430.67 L
250.28 449.195 L
251.004 429.176 L
251.728 450.525 L
252.452 437.26 L
253.176 450.972 L
253.9 419.941 L
254.624 424.746 L
255.348 414.004 L
256.072 430.4 L
256.796 433.332 L
257.52 447.883 L
258.244 453.29 L
258.968 435.714 L
259.692 451.594 L
260.416 420.678 L
261.14 417.386 L
261.864 424.205 L
262.588 460.248 L
263.312 418.4 L
264.036 458.093 L
264.76 448.747 L
265.484 442.852 L
266.208 434.815 L
266.932 444.938 L
267.656 428.893 L
268.38 421.253 L
269.104 421.664 L
269.828 414.719 L
270.552 441.887 L
271.276 445.219 L
272 462.043 L
272.724 432.256 L
273.448 436.29 L
274.172 434.69 L
274.896 448.513 L
275.62 433.208 L
276.344 431.384 L
277.068 433.637 L
277.792 423.917 L
278.516 430.197 L
279.24 409.012 L
279.964 434.028 L
280.688 451.836 L
281.412 385.676 L
282.136 417.223 L
282.86 401.901 L
283.584 420.808 L
284.308 463.165 L
285.032 449.795 L
285.756 435.946 L
286.48 426.67 L
287.204 423.641 L
287.928 452.021 L
288.652 432.697 L
289.376 436.579 L
290.1 465.482 L
290.824 428.772 L
291.548 461.206 L
292.272 445.966 L
292.996 428.511 L
293.72 460.48 L
294.444 413.253 L
295.168 423.35 L
295.892 437.49 L
296.616 420.711 L
297.34 414.122 L
298.064 437.319 L
298.788 461.701 L
299.512 397.577 L
300.236 410.481 L
300.96 441.683 L
301.684 418.11 L
302.408 426.971 L
303.132 426.148 L
303.856 458.609 L
304.58 433.997 L
305.304 439.365 L
306.028 426.36 L
306.752 437.384 L
307.476 434.989 L
308.2 451.62 L
308.924 426.716 L
309.648 445.427 L
310.372 439.912 L
311.096 437.29 L
311.82 432.813 L
312.544 437.314 L
313.268 430.568 L
313.992 436.243 L
314.716 458.608 L
315.44 420.98 L
316.164 455.546 L
316.888 381.837 L
317.612 422.237 L
318.336 447.524 L
319.06 423.836 L
319.784 427.369 L
320.508 431.131 L
321.232 440.283 L
321.956 418.965 L
322.68 430.756 L
323.404 440.311 L
324.128 435.924 L
324.852 434.165 L
325.576 396.245 L
326.3 433.461 L
327.024 462.845 L
327.748 439.819 L
328.472 425.395 L
329.196 457.963 L
329.92 432.756 L
330.644 441.528 L
331.368 426.981 L
332.092 441.7 L
332.816 456.04 L
333.54 420.272 L
334.264 440.146 L
334.988 414.724 L
335.712 427.393 L
336.436 462.235 L
337.16 462.318 L
337.884 455.247 L
338.608 442.558 L
339.332 418.95 L
340.056 443.135 L
340.78 449.756 L
341.504 432.319 L
342.228 415.389 L
342.952 427.6 L
343.676 441.153 L
344.4 438.49 L
345.124 461.41 L
345.848 440.425 L
346.572 438.791 L
347.296 410.306 L
348.02 411.844 L
348.744 452.26 L
349.468 437.698 L
350.192 436.644 L
350.916 448.951 L
351.64 445.775 L
352.364 415.272 L
353.088 408.452 L
353.812 430.646 L
354.536 451.742 L
355.26 414.027 L
355.984 406.676 L
356.708 411.822 L
357.432 439.343 L
358.156 437.152 L
358.88 423.131 L
359.604 464.726 L
360.328 416.766 L
361.052 391.087 L
361.776 432.206 L
362.5 435.105 L
363.224 450.603 L
363.948 450.155 L
364.672 454.967 L
365.396 452.036 L
366.12 423.985 L
366.844 399.285 L
367.568 451.483 L
368.292 411.266 L
369.016 446.598 L
369.74 415.069 L
370.464 450.636 L
371.188 423.657 L
371.912 440.927 L
372.636 436.603 L
373.36 408.263 L
374.084 426.242 L
374.808 443.76 L
375.532 413.638 L
376.256 459.809 L
376.98 445.081 L
377.704 446.567 L
378.428 445.396 L
379.152 447.73 L
379.876 453.495 L
380.6 416.452 L
381.324 459.976 L
382.048 426.436 L
382.772 438.131 L
383.496 456.037 L
384.22 444.729 L
384.944 418.505 L
385.668 444.39 L
386.392 417.54 L
387.116 425.023 L
387.84 435.575 L
388.564 453.915 L
389.288 457.312 L
390.012 407.418 L
390.736 457.638 L
391.46 422.694 L
392.184 464.074 L
392.908 444.251 L
393.632 456.154 L
394.356 416.633 L
395.08 435.926 L
395.804 432.827 L
396.528 408.135 L
397.252 455.349 L
397.976 418.808 L
398.7 440.8 L
399.424 402.876 L
400.148 409.089 L
400.872 443.172 L
401.596 432.479 L
402.32 433.567 L
403.044 428.906 L
403.768 448.437 L
404.492 415.084 L
405.216 438.414 L
405.94 447.721 L
406.664 427.549 L
407.388 448.744 L
408.112 428.402 L
408.836 440.052 L
409.56 432.338 L
410.284 456.268 L
411.008 428.523 L
411.732 438.493 L
412.456 426.693 L
413.18 445.335 L
413.904 439.529 L
414.628 430.209 L
415.352 433.634 L
416.076 419.989 L
416.8 421.815 L
417.524 456.886 L
418.248 440.641 L
418.972 427.741 L
419.696 421.053 L
420.42 383.667 L
421.144 425.213 L
421.868 436.093 L
422.592 429.656 L
423.316 438.236 L
424.04 404.246 L
424.764 450.404 L
425.488 434.613 L
426.212 435.827 L
426.936 431.774 L
427.66 454.011 L
428.384 399.047 L
429.108 436.057 L
429.832 437.734 L
430.556 408.95 L
431.28 427.933 L
432.004 376.509 L
432.728 445.919 L
433.452 441.174 L
434.176 453.259 L
434.9 452.791 L
435.624 434.632 L
436.348 426.86 L
437.072 462.915 L
437.796 442.251 L
438.52 427.194 L
439.244 443.315 L
439.968 434.661 L
440.692 422.049 L
441.416 424.853 L
442.14 452.731 L
442.864 425.371 L
443.588 456.495 L
444.312 415.982 L
445.036 413.777 L
445.76 453.995 L
446.484 440.596 L
447.208 442.616 L
447.932 443.261 L
448.656 415.868 L
449.38 417.979 L
450.104 439.029 L
450.828 447.929 L
451.552 419.283 L
452.276 446.687 L
453 398.971 L
453.724 402.031 L
454.448 426.194 L
455.172 444.69 L
455.896 443.242 L
456.62 429.78 L
457.344 438.811 L
458.068 428.663 L
458.792 445.708 L
459.516 443.947 L
460.24 433.627 L
460.964 434.417 L
461.688 443.884 L
462.412 434.643 L
463.136 443.936 L
463.86 453.979 L
464.584 433.599 L
465.308 448.896 L
466.032 436.151 L
466.756 434.542 L
467.48 408.428 L
468.204 409.392 L
468.928 431.789 L
469.652 407.446 L
470.376 441.269 L
471.1 427.828 L
471.824 430.55 L
472.548 431.11 L
473.272 460.213 L
473.996 434.864 L
474.72 445.423 L
475.444 449.864 L
476.168 434.108 L
476.892 438.249 L
477.616 450.027 L
478.34 442.597 L
479.064 386.322 L
479.788 433.724 L
480.512 434.126 L
481.236 423.914 L
481.96 435.527 L
482.684 458.522 L
483.408 439.19 L
484.132 463.269 L
484.856 405.888 L
485.58 401.345 L
486.304 441.603 L
487.028 428.377 L
487.752 458.253 L
488.476 464.997 L
489.2 437.256 L
489.924 418.24 L
490.648 463.475 L
491.372 433.014 L
492.096 435.62 L
492.82 418.044 L
493.544 437.598 L
494.268 459.024 L
494.992 423.345 L
495.716 434.524 L
496.44 435.4 L
497.164 456.148 L
497.888 419.945 L
498.612 460.923 L
499.336 441.05 L
500.06 426.397 L
500.784 426.786 L
501.508 438.94 L
502.232 417.454 L
502.956 405.75 L
503.68 447.004 L
504.404 436.982 L
505.128 451.316 L
505.852 437.284 L
506.576 416.24 L
507.3 424.004 L
508.024 438.32 L
508.748 435.411 L
509.472 448.368 L
510.196 434.182 L
510.92 453.839 L
511.644 424.906 L
512.368 452.328 L
513.092 429.417 L
513.816 430.735 L
514.54 432.011 L
515.264 457.018 L
515.988 429.249 L
516.712 429.618 L
517.436 460.013 L
518.16 419.434 L
518.884 444.364 L
519.608 442.96 L
520.332 450.278 L
521.056 450.057 L
521.78 426.532 L
522.504 442.666 L
523.228 447.227 L
523.952 432.761 L
524.676 446.758 L
525.4 442.099 L
526.124 452.179 L
526.848 401.959 L
527.572 421.388 L
528.296 423.184 L
529.02 427.6 L
529.744 418.757 L
530.468 388.694 L
531.192 450.612 L
531.916 444.423 L
532.64 456.692 L
533.364 434.57 L
534.088 420.796 L
534.812 426.154 L
535.536 449.204 L
536.26 451.187 L
536.984 396.273 L
537.708 423.052 L
538.432 458.971 L
539.156 455.657 L
539.88 454.23 L
540.604 412.548 L
541.328 426.87 L
542.052 456.529 L
542.776 437.42 L
543.5 435.586 L
544.224 448.265 L
544.948 435.362 L
545.672 439.36 L
546.396 428.895 L
547.12 448.39 L
547.844 433.915 L
548.568 440.252 L
549.292 448.37 L
550.016 451.508 L
550.74 423.64 L
551.464 438.729 L
552.188 436.205 L
552.912 419.172 L
553.636 430.5 L
554.36 426.826 L
555.084 462.544 L
555.808 425.092 L
556.532 437.4 L
557.256 425.35 L
557.98 428.033 L
558.704 416.119 L
559.428 437.368 L
560.152 415.457 L
560.876 453.368 L
561.6 407.891 L
562.324 427.981 L
563.048 417.642 L
563.772 450 L
564.496 418.751 L
565.22 419.465 L
565.944 444.362 L
566.668 412.266 L
567.392 409.213 L
568.116 405.378 L
568.84 431.69 L
569.564 428.05 L
570.288 430.433 L
571.012 415.046 L
571.736 432.5 L
572.46 432.144 L
573.184 425.776 L
573.908 430.352 L
574.632 440.791 L
575.356 416.286 L
576.08 432.027 L
576.804 430.793 L
577.528 457.917 L
578.252 451.91 L
578.976 432.205 L
579.7 456.321 L
580.424 375.931 L
581.148 439.573 L
581.872 413.967 L
582.596 429.087 L
583.32 434.943 L
584.044 432.222 L
584.768 440.028 L
585.492 419.938 L
586.216 412.766 L
586.94 465.128 L
587.664 408.926 L
588.388 430.342 L
589.112 432.255 L
589.836 438.169 L
590.56 446.56 L
591.284 442.115 L
592.008 428.714 L
592.732 450.439 L
593.456 431.679 L
594.18 452.333 L
594.904 449.501 L
595.628 431.393 L
596.352 422.788 L
597.076 443.596 L
597.8 433.523 L
598.524 411.008 L
599.248 411.034 L
599.972 445.005 L
600.696 417.282 L
601.42 426.092 L
602.144 443.242 L
602.868 443.424 L
603.592 457.461 L
604.316 456.255 L
605.04 442.954 L
605.764 452.602 L
606.488 409.812 L
607.212 435.254 L
607.936 435.812 L
608.66 403.219 L
609.384 442.938 L
610.108 424.028 L
610.832 448.403 L
611.556 426.395 L
612.28 454.967 L
613.004 464.091 L
613.728 442.508 L
614.452 441.136 L
615.176 405.807 L
615.9 449.345 L
616.624 447.756 L
617.348 432.651 L
618.072 449.982 L
618.796 444.437 L
619.52 434.23 L
620.244 465.782 L
620.968 431.154 L
621.692 404.734 L
622.416 436.393 L
623.14 434.261 L
623.864 437.454 L
624.588 443.946 L
625.312 442.595 L
626.036 438.379 L
626.76 416.94 L
627.484 440.082 L
628.208 424.829 L
628.932 407.55 L
629.656 451.041 L
630.38 436.915 L
631.104 428.225 L
631.828 442.555 L
632.552 444.025 L
633.276 427.669 L
634 451.946 L
S
GR
%%Trailer
%%Pages: 1
%%EOF
