%!PS-Adobe-3.0 EPSF-3.0
%%Creator: (MATLAB, The Mathworks, Inc. Version 9.3.0.713579 \(R2017b\). Operating System: Windows 10)
%%Title: C:/surfdrive/HAN/DSPIPS/Material/DSPIPS_workshopNotes/figures/stemz.eps
%%CreationDate: 2019-01-17T12:45:48
%%Pages: (atend)
%%BoundingBox: 0 0 420 315
%%LanguageLevel: 3
%%EndComments
%%BeginProlog
%%BeginResource: procset (Apache XML Graphics Std ProcSet) 1.2 0
%%Version: 1.2 0
%%Copyright: (Copyright 2001-2003,2010 The Apache Software Foundation. License terms: http://www.apache.org/licenses/LICENSE-2.0)
/bd{bind def}bind def
/ld{load def}bd
/GR/grestore ld
/GS/gsave ld
/RM/rmoveto ld
/C/curveto ld
/t/show ld
/L/lineto ld
/ML/setmiterlimit ld
/CT/concat ld
/f/fill ld
/N/newpath ld
/S/stroke ld
/CC/setcmykcolor ld
/A/ashow ld
/cp/closepath ld
/RC/setrgbcolor ld
/LJ/setlinejoin ld
/GC/setgray ld
/LW/setlinewidth ld
/M/moveto ld
/re {4 2 roll M
1 index 0 rlineto
0 exch rlineto
neg 0 rlineto
cp } bd
/_ctm matrix def
/_tm matrix def
/BT { _ctm currentmatrix pop matrix _tm copy pop 0 0 moveto } bd
/ET { _ctm setmatrix } bd
/iTm { _ctm setmatrix _tm concat } bd
/Tm { _tm astore pop iTm 0 0 moveto } bd
/ux 0.0 def
/uy 0.0 def
/F {
  /Tp exch def
  /Tf exch def
  Tf findfont Tp scalefont setfont
  /cf Tf def  /cs Tp def
} bd
/ULS {currentpoint /uy exch def /ux exch def} bd
/ULE {
  /Tcx currentpoint pop def
  gsave
  newpath
  cf findfont cs scalefont dup
  /FontMatrix get 0 get /Ts exch def /FontInfo get dup
  /UnderlinePosition get Ts mul /To exch def
  /UnderlineThickness get Ts mul /Tt exch def
  ux uy To add moveto  Tcx uy To add lineto
  Tt setlinewidth stroke
  grestore
} bd
/OLE {
  /Tcx currentpoint pop def
  gsave
  newpath
  cf findfont cs scalefont dup
  /FontMatrix get 0 get /Ts exch def /FontInfo get dup
  /UnderlinePosition get Ts mul /To exch def
  /UnderlineThickness get Ts mul /Tt exch def
  ux uy To add cs add moveto Tcx uy To add cs add lineto
  Tt setlinewidth stroke
  grestore
} bd
/SOE {
  /Tcx currentpoint pop def
  gsave
  newpath
  cf findfont cs scalefont dup
  /FontMatrix get 0 get /Ts exch def /FontInfo get dup
  /UnderlinePosition get Ts mul /To exch def
  /UnderlineThickness get Ts mul /Tt exch def
  ux uy To add cs 10 mul 26 idiv add moveto Tcx uy To add cs 10 mul 26 idiv add lineto
  Tt setlinewidth stroke
  grestore
} bd
/QT {
/Y22 exch store
/X22 exch store
/Y21 exch store
/X21 exch store
currentpoint
/Y21 load 2 mul add 3 div exch
/X21 load 2 mul add 3 div exch
/X21 load 2 mul /X22 load add 3 div
/Y21 load 2 mul /Y22 load add 3 div
/X22 load /Y22 load curveto
} bd
/SSPD {
dup length /d exch dict def
{
/v exch def
/k exch def
currentpagedevice k known {
/cpdv currentpagedevice k get def
v cpdv ne {
/upd false def
/nullv v type /nulltype eq def
/nullcpdv cpdv type /nulltype eq def
nullv nullcpdv or
{
/upd true def
} {
/sametype v type cpdv type eq def
sametype {
v type /arraytype eq {
/vlen v length def
/cpdvlen cpdv length def
vlen cpdvlen eq {
0 1 vlen 1 sub {
/i exch def
/obj v i get def
/cpdobj cpdv i get def
obj cpdobj ne {
/upd true def
exit
} if
} for
} {
/upd true def
} ifelse
} {
v type /dicttype eq {
v {
/dv exch def
/dk exch def
/cpddv cpdv dk get def
dv cpddv ne {
/upd true def
exit
} if
} forall
} {
/upd true def
} ifelse
} ifelse
} if
} ifelse
upd true eq {
d k v put
} if
} if
} if
} forall
d length 0 gt {
d setpagedevice
} if
} bd
/RE { % /NewFontName [NewEncodingArray] /FontName RE -
  findfont dup length dict begin
  {
    1 index /FID ne
    {def} {pop pop} ifelse
  } forall
  /Encoding exch def
  /FontName 1 index def
  currentdict definefont pop
  end
} bind def
%%EndResource
%%BeginResource: procset (Apache XML Graphics EPS ProcSet) 1.0 0
%%Version: 1.0 0
%%Copyright: (Copyright 2002-2003 The Apache Software Foundation. License terms: http://www.apache.org/licenses/LICENSE-2.0)
/BeginEPSF { %def
/b4_Inc_state save def         % Save state for cleanup
/dict_count countdictstack def % Count objects on dict stack
/op_count count 1 sub def      % Count objects on operand stack
userdict begin                 % Push userdict on dict stack
/showpage { } def              % Redefine showpage, { } = null proc
0 setgray 0 setlinecap         % Prepare graphics state
1 setlinewidth 0 setlinejoin
10 setmiterlimit [ ] 0 setdash newpath
/languagelevel where           % If level not equal to 1 then
{pop languagelevel             % set strokeadjust and
1 ne                           % overprint to their defaults.
{false setstrokeadjust false setoverprint
} if
} if
} bd
/EndEPSF { %def
count op_count sub {pop} repeat            % Clean up stacks
countdictstack dict_count sub {end} repeat
b4_Inc_state restore
} bd
%%EndResource
%FOPBeginFontDict
%%IncludeResource: font Courier-Oblique
%%IncludeResource: font Courier-BoldOblique
%%IncludeResource: font Courier-Bold
%%IncludeResource: font ZapfDingbats
%%IncludeResource: font Symbol
%%IncludeResource: font Helvetica
%%IncludeResource: font Helvetica-Oblique
%%IncludeResource: font Helvetica-Bold
%%IncludeResource: font Helvetica-BoldOblique
%%IncludeResource: font Times-Roman
%%IncludeResource: font Times-Italic
%%IncludeResource: font Times-Bold
%%IncludeResource: font Times-BoldItalic
%%IncludeResource: font Courier
%FOPEndFontDict
%%BeginResource: encoding WinAnsiEncoding
/WinAnsiEncoding [
/.notdef /.notdef /.notdef /.notdef /.notdef
/.notdef /.notdef /.notdef /.notdef /.notdef
/.notdef /.notdef /.notdef /.notdef /.notdef
/.notdef /.notdef /.notdef /.notdef /.notdef
/.notdef /.notdef /.notdef /.notdef /.notdef
/.notdef /.notdef /.notdef /.notdef /.notdef
/.notdef /.notdef /space /exclam /quotedbl
/numbersign /dollar /percent /ampersand /quotesingle
/parenleft /parenright /asterisk /plus /comma
/hyphen /period /slash /zero /one
/two /three /four /five /six
/seven /eight /nine /colon /semicolon
/less /equal /greater /question /at
/A /B /C /D /E
/F /G /H /I /J
/K /L /M /N /O
/P /Q /R /S /T
/U /V /W /X /Y
/Z /bracketleft /backslash /bracketright /asciicircum
/underscore /quoteleft /a /b /c
/d /e /f /g /h
/i /j /k /l /m
/n /o /p /q /r
/s /t /u /v /w
/x /y /z /braceleft /bar
/braceright /asciitilde /bullet /Euro /bullet
/quotesinglbase /florin /quotedblbase /ellipsis /dagger
/daggerdbl /circumflex /perthousand /Scaron /guilsinglleft
/OE /bullet /Zcaron /bullet /bullet
/quoteleft /quoteright /quotedblleft /quotedblright /bullet
/endash /emdash /asciitilde /trademark /scaron
/guilsinglright /oe /bullet /zcaron /Ydieresis
/space /exclamdown /cent /sterling /currency
/yen /brokenbar /section /dieresis /copyright
/ordfeminine /guillemotleft /logicalnot /sfthyphen /registered
/macron /degree /plusminus /twosuperior /threesuperior
/acute /mu /paragraph /middot /cedilla
/onesuperior /ordmasculine /guillemotright /onequarter /onehalf
/threequarters /questiondown /Agrave /Aacute /Acircumflex
/Atilde /Adieresis /Aring /AE /Ccedilla
/Egrave /Eacute /Ecircumflex /Edieresis /Igrave
/Iacute /Icircumflex /Idieresis /Eth /Ntilde
/Ograve /Oacute /Ocircumflex /Otilde /Odieresis
/multiply /Oslash /Ugrave /Uacute /Ucircumflex
/Udieresis /Yacute /Thorn /germandbls /agrave
/aacute /acircumflex /atilde /adieresis /aring
/ae /ccedilla /egrave /eacute /ecircumflex
/edieresis /igrave /iacute /icircumflex /idieresis
/eth /ntilde /ograve /oacute /ocircumflex
/otilde /odieresis /divide /oslash /ugrave
/uacute /ucircumflex /udieresis /yacute /thorn
/ydieresis
] def
%%EndResource
%FOPBeginFontReencode
/Courier-Oblique findfont
dup length dict begin
  {1 index /FID ne {def} {pop pop} ifelse} forall
  /Encoding WinAnsiEncoding def
  currentdict
end
/Courier-Oblique exch definefont pop
/Courier-BoldOblique findfont
dup length dict begin
  {1 index /FID ne {def} {pop pop} ifelse} forall
  /Encoding WinAnsiEncoding def
  currentdict
end
/Courier-BoldOblique exch definefont pop
/Courier-Bold findfont
dup length dict begin
  {1 index /FID ne {def} {pop pop} ifelse} forall
  /Encoding WinAnsiEncoding def
  currentdict
end
/Courier-Bold exch definefont pop
/Helvetica findfont
dup length dict begin
  {1 index /FID ne {def} {pop pop} ifelse} forall
  /Encoding WinAnsiEncoding def
  currentdict
end
/Helvetica exch definefont pop
/Helvetica-Oblique findfont
dup length dict begin
  {1 index /FID ne {def} {pop pop} ifelse} forall
  /Encoding WinAnsiEncoding def
  currentdict
end
/Helvetica-Oblique exch definefont pop
/Helvetica-Bold findfont
dup length dict begin
  {1 index /FID ne {def} {pop pop} ifelse} forall
  /Encoding WinAnsiEncoding def
  currentdict
end
/Helvetica-Bold exch definefont pop
/Helvetica-BoldOblique findfont
dup length dict begin
  {1 index /FID ne {def} {pop pop} ifelse} forall
  /Encoding WinAnsiEncoding def
  currentdict
end
/Helvetica-BoldOblique exch definefont pop
/Times-Roman findfont
dup length dict begin
  {1 index /FID ne {def} {pop pop} ifelse} forall
  /Encoding WinAnsiEncoding def
  currentdict
end
/Times-Roman exch definefont pop
/Times-Italic findfont
dup length dict begin
  {1 index /FID ne {def} {pop pop} ifelse} forall
  /Encoding WinAnsiEncoding def
  currentdict
end
/Times-Italic exch definefont pop
/Times-Bold findfont
dup length dict begin
  {1 index /FID ne {def} {pop pop} ifelse} forall
  /Encoding WinAnsiEncoding def
  currentdict
end
/Times-Bold exch definefont pop
/Times-BoldItalic findfont
dup length dict begin
  {1 index /FID ne {def} {pop pop} ifelse} forall
  /Encoding WinAnsiEncoding def
  currentdict
end
/Times-BoldItalic exch definefont pop
/Courier findfont
dup length dict begin
  {1 index /FID ne {def} {pop pop} ifelse} forall
  /Encoding WinAnsiEncoding def
  currentdict
end
/Courier exch definefont pop
%FOPEndFontReencode
%%EndProlog
%%Page: 1 1
%%PageBoundingBox: 0 0 420 315
%%BeginPageSetup
[1 0 0 -1 0 315] CT
%%EndPageSetup
GS
[0.6 0 0 0.6 0 0] CT
1 GC
N
0 0 700 525 re
f
GR
GS
[0.6 0 0 0.6 0 0] CT
1 GC
N
0 0 700 525 re
f
GR
GS
[0.6 0 0 0.6 0 0] CT
1 GC
N
91 467 M
634 467 L
634 39 L
91 39 L
cp
f
GR
GS
[0.6 0 0 0.6 0 0] CT
0.873 GC
1 LJ
0.833 LW
N
91 467 M
91 39 L
S
GR
GS
[0.6 0 0 0.6 0 0] CT
0.873 GC
1 LJ
0.833 LW
N
145.3 467 M
145.3 39 L
S
GR
GS
[0.6 0 0 0.6 0 0] CT
0.873 GC
1 LJ
0.833 LW
N
199.6 467 M
199.6 39 L
S
GR
GS
[0.6 0 0 0.6 0 0] CT
0.873 GC
1 LJ
0.833 LW
N
253.9 467 M
253.9 39 L
S
GR
GS
[0.6 0 0 0.6 0 0] CT
0.873 GC
1 LJ
0.833 LW
N
308.2 467 M
308.2 39 L
S
GR
GS
[0.6 0 0 0.6 0 0] CT
0.873 GC
1 LJ
0.833 LW
N
362.5 467 M
362.5 39 L
S
GR
GS
[0.6 0 0 0.6 0 0] CT
0.873 GC
1 LJ
0.833 LW
N
416.8 467 M
416.8 39 L
S
GR
GS
[0.6 0 0 0.6 0 0] CT
0.873 GC
1 LJ
0.833 LW
N
471.1 467 M
471.1 39 L
S
GR
GS
[0.6 0 0 0.6 0 0] CT
0.873 GC
1 LJ
0.833 LW
N
525.4 467 M
525.4 39 L
S
GR
GS
[0.6 0 0 0.6 0 0] CT
0.873 GC
1 LJ
0.833 LW
N
579.7 467 M
579.7 39 L
S
GR
GS
[0.6 0 0 0.6 0 0] CT
0.873 GC
1 LJ
0.833 LW
N
634 467 M
634 39 L
S
GR
GS
[0.6 0 0 0.6 0 0] CT
0.873 GC
1 LJ
0.833 LW
N
634 467 M
91 467 L
S
GR
GS
[0.6 0 0 0.6 0 0] CT
0.873 GC
1 LJ
0.833 LW
N
634 413.5 M
91 413.5 L
S
GR
GS
[0.6 0 0 0.6 0 0] CT
0.873 GC
1 LJ
0.833 LW
N
634 360 M
91 360 L
S
GR
GS
[0.6 0 0 0.6 0 0] CT
0.873 GC
1 LJ
0.833 LW
N
634 306.5 M
91 306.5 L
S
GR
GS
[0.6 0 0 0.6 0 0] CT
0.873 GC
1 LJ
0.833 LW
N
634 253 M
91 253 L
S
GR
GS
[0.6 0 0 0.6 0 0] CT
0.873 GC
1 LJ
0.833 LW
N
634 199.5 M
91 199.5 L
S
GR
GS
[0.6 0 0 0.6 0 0] CT
0.873 GC
1 LJ
0.833 LW
N
634 146 M
91 146 L
S
GR
GS
[0.6 0 0 0.6 0 0] CT
0.873 GC
1 LJ
0.833 LW
N
634 92.5 M
91 92.5 L
S
GR
GS
[0.6 0 0 0.6 0 0] CT
0.873 GC
1 LJ
0.833 LW
N
634 39 M
91 39 L
S
GR
GS
[0.6 0 0 0.6 0 0] CT
0.149 GC
2 setlinecap
1 LJ
0.833 LW
N
91 467 M
634 467 L
S
GR
GS
[0.6 0 0 0.6 0 0] CT
0.149 GC
2 setlinecap
1 LJ
0.833 LW
N
91 39 M
634 39 L
S
GR
GS
[0.6 0 0 0.6 0 0] CT
0.149 GC
2 setlinecap
1 LJ
0.833 LW
N
91 467 M
91 461.57 L
S
GR
GS
[0.6 0 0 0.6 0 0] CT
0.149 GC
2 setlinecap
1 LJ
0.833 LW
N
145.3 467 M
145.3 461.57 L
S
GR
GS
[0.6 0 0 0.6 0 0] CT
0.149 GC
2 setlinecap
1 LJ
0.833 LW
N
199.6 467 M
199.6 461.57 L
S
GR
GS
[0.6 0 0 0.6 0 0] CT
0.149 GC
2 setlinecap
1 LJ
0.833 LW
N
253.9 467 M
253.9 461.57 L
S
GR
GS
[0.6 0 0 0.6 0 0] CT
0.149 GC
2 setlinecap
1 LJ
0.833 LW
N
308.2 467 M
308.2 461.57 L
S
GR
GS
[0.6 0 0 0.6 0 0] CT
0.149 GC
2 setlinecap
1 LJ
0.833 LW
N
362.5 467 M
362.5 461.57 L
S
GR
GS
[0.6 0 0 0.6 0 0] CT
0.149 GC
2 setlinecap
1 LJ
0.833 LW
N
416.8 467 M
416.8 461.57 L
S
GR
GS
[0.6 0 0 0.6 0 0] CT
0.149 GC
2 setlinecap
1 LJ
0.833 LW
N
471.1 467 M
471.1 461.57 L
S
GR
GS
[0.6 0 0 0.6 0 0] CT
0.149 GC
2 setlinecap
1 LJ
0.833 LW
N
525.4 467 M
525.4 461.57 L
S
GR
GS
[0.6 0 0 0.6 0 0] CT
0.149 GC
2 setlinecap
1 LJ
0.833 LW
N
579.7 467 M
579.7 461.57 L
S
GR
GS
[0.6 0 0 0.6 0 0] CT
0.149 GC
2 setlinecap
1 LJ
0.833 LW
N
634 467 M
634 461.57 L
S
GR
GS
[0.6 0 0 0.6 0 0] CT
0.149 GC
2 setlinecap
1 LJ
0.833 LW
N
91 39 M
91 44.43 L
S
GR
GS
[0.6 0 0 0.6 0 0] CT
0.149 GC
2 setlinecap
1 LJ
0.833 LW
N
145.3 39 M
145.3 44.43 L
S
GR
GS
[0.6 0 0 0.6 0 0] CT
0.149 GC
2 setlinecap
1 LJ
0.833 LW
N
199.6 39 M
199.6 44.43 L
S
GR
GS
[0.6 0 0 0.6 0 0] CT
0.149 GC
2 setlinecap
1 LJ
0.833 LW
N
253.9 39 M
253.9 44.43 L
S
GR
GS
[0.6 0 0 0.6 0 0] CT
0.149 GC
2 setlinecap
1 LJ
0.833 LW
N
308.2 39 M
308.2 44.43 L
S
GR
GS
[0.6 0 0 0.6 0 0] CT
0.149 GC
2 setlinecap
1 LJ
0.833 LW
N
362.5 39 M
362.5 44.43 L
S
GR
GS
[0.6 0 0 0.6 0 0] CT
0.149 GC
2 setlinecap
1 LJ
0.833 LW
N
416.8 39 M
416.8 44.43 L
S
GR
GS
[0.6 0 0 0.6 0 0] CT
0.149 GC
2 setlinecap
1 LJ
0.833 LW
N
471.1 39 M
471.1 44.43 L
S
GR
GS
[0.6 0 0 0.6 0 0] CT
0.149 GC
2 setlinecap
1 LJ
0.833 LW
N
525.4 39 M
525.4 44.43 L
S
GR
GS
[0.6 0 0 0.6 0 0] CT
0.149 GC
2 setlinecap
1 LJ
0.833 LW
N
579.7 39 M
579.7 44.43 L
S
GR
GS
[0.6 0 0 0.6 0 0] CT
0.149 GC
2 setlinecap
1 LJ
0.833 LW
N
634 39 M
634 44.43 L
S
GR
GS
[0.6 0 0 0.6 54.6 284.19999] CT
0.149 GC
/Helvetica 16.667 F
GS
[1 0 0 1 0 0] CT
-5 17 moveto 
1 -1 scale
(0) t 
GR
GR
GS
[0.6 0 0 0.6 87.18 284.19999] CT
0.149 GC
/Helvetica 16.667 F
GS
[1 0 0 1 0 0] CT
-5 17 moveto 
1 -1 scale
(1) t 
GR
GR
GS
[0.6 0 0 0.6 119.76 284.19999] CT
0.149 GC
/Helvetica 16.667 F
GS
[1 0 0 1 0 0] CT
-5 17 moveto 
1 -1 scale
(2) t 
GR
GR
GS
[0.6 0 0 0.6 152.34 284.19999] CT
0.149 GC
/Helvetica 16.667 F
GS
[1 0 0 1 0 0] CT
-5 17 moveto 
1 -1 scale
(3) t 
GR
GR
GS
[0.6 0 0 0.6 184.92001 284.19999] CT
0.149 GC
/Helvetica 16.667 F
GS
[1 0 0 1 0 0] CT
-5 17 moveto 
1 -1 scale
(4) t 
GR
GR
GS
[0.6 0 0 0.6 217.5 284.19999] CT
0.149 GC
/Helvetica 16.667 F
GS
[1 0 0 1 0 0] CT
-5 17 moveto 
1 -1 scale
(5) t 
GR
GR
GS
[0.6 0 0 0.6 250.07999 284.19999] CT
0.149 GC
/Helvetica 16.667 F
GS
[1 0 0 1 0 0] CT
-5 17 moveto 
1 -1 scale
(6) t 
GR
GR
GS
[0.6 0 0 0.6 282.66 284.19999] CT
0.149 GC
/Helvetica 16.667 F
GS
[1 0 0 1 0 0] CT
-5 17 moveto 
1 -1 scale
(7) t 
GR
GR
GS
[0.6 0 0 0.6 315.24001 284.19999] CT
0.149 GC
/Helvetica 16.667 F
GS
[1 0 0 1 0 0] CT
-5 17 moveto 
1 -1 scale
(8) t 
GR
GR
GS
[0.6 0 0 0.6 347.82001 284.19999] CT
0.149 GC
/Helvetica 16.667 F
GS
[1 0 0 1 0 0] CT
-5 17 moveto 
1 -1 scale
(9) t 
GR
GR
GS
[0.6 0 0 0.6 380.4 284.19999] CT
0.149 GC
/Helvetica 16.667 F
GS
[1 0 0 1 0 0] CT
-9.5 17 moveto 
1 -1 scale
(10) t 
GR
GR
GS
[0.6 0 0 0.6 217.50015 297.79999] CT
0.149 GC
/Helvetica 18.333 F
GS
[1 0 0 1 0 0] CT
-15.5 19 moveto 
1 -1 scale
(n[#]) t 
GR
GR
GS
[0.6 0 0 0.6 0 0] CT
0.149 GC
2 setlinecap
1 LJ
0.833 LW
N
91 467 M
91 39 L
S
GR
GS
[0.6 0 0 0.6 0 0] CT
0.149 GC
2 setlinecap
1 LJ
0.833 LW
N
634 467 M
634 39 L
S
GR
GS
[0.6 0 0 0.6 0 0] CT
0.149 GC
2 setlinecap
1 LJ
0.833 LW
N
91 467 M
96.43 467 L
S
GR
GS
[0.6 0 0 0.6 0 0] CT
0.149 GC
2 setlinecap
1 LJ
0.833 LW
N
91 413.5 M
96.43 413.5 L
S
GR
GS
[0.6 0 0 0.6 0 0] CT
0.149 GC
2 setlinecap
1 LJ
0.833 LW
N
91 360 M
96.43 360 L
S
GR
GS
[0.6 0 0 0.6 0 0] CT
0.149 GC
2 setlinecap
1 LJ
0.833 LW
N
91 306.5 M
96.43 306.5 L
S
GR
GS
[0.6 0 0 0.6 0 0] CT
0.149 GC
2 setlinecap
1 LJ
0.833 LW
N
91 253 M
96.43 253 L
S
GR
GS
[0.6 0 0 0.6 0 0] CT
0.149 GC
2 setlinecap
1 LJ
0.833 LW
N
91 199.5 M
96.43 199.5 L
S
GR
GS
[0.6 0 0 0.6 0 0] CT
0.149 GC
2 setlinecap
1 LJ
0.833 LW
N
91 146 M
96.43 146 L
S
GR
GS
[0.6 0 0 0.6 0 0] CT
0.149 GC
2 setlinecap
1 LJ
0.833 LW
N
91 92.5 M
96.43 92.5 L
S
GR
GS
[0.6 0 0 0.6 0 0] CT
0.149 GC
2 setlinecap
1 LJ
0.833 LW
N
91 39 M
96.43 39 L
S
GR
GS
[0.6 0 0 0.6 0 0] CT
0.149 GC
2 setlinecap
1 LJ
0.833 LW
N
634 467 M
628.57 467 L
S
GR
GS
[0.6 0 0 0.6 0 0] CT
0.149 GC
2 setlinecap
1 LJ
0.833 LW
N
634 413.5 M
628.57 413.5 L
S
GR
GS
[0.6 0 0 0.6 0 0] CT
0.149 GC
2 setlinecap
1 LJ
0.833 LW
N
634 360 M
628.57 360 L
S
GR
GS
[0.6 0 0 0.6 0 0] CT
0.149 GC
2 setlinecap
1 LJ
0.833 LW
N
634 306.5 M
628.57 306.5 L
S
GR
GS
[0.6 0 0 0.6 0 0] CT
0.149 GC
2 setlinecap
1 LJ
0.833 LW
N
634 253 M
628.57 253 L
S
GR
GS
[0.6 0 0 0.6 0 0] CT
0.149 GC
2 setlinecap
1 LJ
0.833 LW
N
634 199.5 M
628.57 199.5 L
S
GR
GS
[0.6 0 0 0.6 0 0] CT
0.149 GC
2 setlinecap
1 LJ
0.833 LW
N
634 146 M
628.57 146 L
S
GR
GS
[0.6 0 0 0.6 0 0] CT
0.149 GC
2 setlinecap
1 LJ
0.833 LW
N
634 92.5 M
628.57 92.5 L
S
GR
GS
[0.6 0 0 0.6 0 0] CT
0.149 GC
2 setlinecap
1 LJ
0.833 LW
N
634 39 M
628.57 39 L
S
GR
GS
[0.6 0 0 0.6 50.6 280.2] CT
0.149 GC
/Helvetica 16.667 F
GS
[1 0 0 1 0 0] CT
-15 6.5 moveto 
1 -1 scale
(-2) t 
GR
GR
GS
[0.6 0 0 0.6 50.6 248.1] CT
0.149 GC
/Helvetica 16.667 F
GS
[1 0 0 1 0 0] CT
-29 6.5 moveto 
1 -1 scale
(-1.5) t 
GR
GR
GS
[0.6 0 0 0.6 50.6 216] CT
0.149 GC
/Helvetica 16.667 F
GS
[1 0 0 1 0 0] CT
-15 6.5 moveto 
1 -1 scale
(-1) t 
GR
GR
GS
[0.6 0 0 0.6 50.6 183.9] CT
0.149 GC
/Helvetica 16.667 F
GS
[1 0 0 1 0 0] CT
-29 6.5 moveto 
1 -1 scale
(-0.5) t 
GR
GR
GS
[0.6 0 0 0.6 50.6 151.8] CT
0.149 GC
/Helvetica 16.667 F
GS
[1 0 0 1 0 0] CT
-10 6.5 moveto 
1 -1 scale
(0) t 
GR
GR
GS
[0.6 0 0 0.6 50.6 119.7] CT
0.149 GC
/Helvetica 16.667 F
GS
[1 0 0 1 0 0] CT
-24 6.5 moveto 
1 -1 scale
(0.5) t 
GR
GR
GS
[0.6 0 0 0.6 50.6 87.6] CT
0.149 GC
/Helvetica 16.667 F
GS
[1 0 0 1 0 0] CT
-10 6.5 moveto 
1 -1 scale
(1) t 
GR
GR
GS
[0.6 0 0 0.6 50.6 55.5] CT
0.149 GC
/Helvetica 16.667 F
GS
[1 0 0 1 0 0] CT
-24 6.5 moveto 
1 -1 scale
(1.5) t 
GR
GR
GS
[0.6 0 0 0.6 50.6 23.4] CT
0.149 GC
/Helvetica 16.667 F
GS
[1 0 0 1 0 0] CT
-10 6.5 moveto 
1 -1 scale
(2) t 
GR
GR
GS
[0 -0.6 0.6 0 30.2 151.79988] CT
0.149 GC
/Helvetica 18.333 F
GS
[1 0 0 1 0 0] CT
-26.5 -5 moveto 
1 -1 scale
(A[a.u.]) t 
GR
GR
GS
[0.6 0 0 0.6 0 0] CT
0.149 GC
1 LJ
0.833 LW
N
91 253 M
634 253 L
S
GR
GS
[0.6 0 0 0.6 0 0] CT
0 0 1 RC
[1 3] 0 setdash
2 LJ
0.833 LW
N
91 253 M
91.543 251.655 L
92.086 250.311 L
92.629 248.966 L
93.172 247.622 L
93.715 246.278 L
94.258 244.934 L
94.801 243.591 L
95.344 242.248 L
95.887 240.905 L
96.43 239.563 L
96.973 238.221 L
97.516 236.88 L
98.059 235.54 L
98.602 234.2 L
99.145 232.861 L
99.688 231.523 L
100.231 230.185 L
100.774 228.849 L
101.317 227.513 L
101.86 226.179 L
102.403 224.845 L
102.946 223.513 L
103.489 222.182 L
104.032 220.852 L
104.575 219.523 L
105.118 218.196 L
105.661 216.87 L
106.204 215.545 L
106.747 214.222 L
107.29 212.9 L
107.833 211.58 L
108.376 210.262 L
108.919 208.945 L
109.462 207.63 L
110.005 206.317 L
110.548 205.006 L
111.091 203.697 L
111.634 202.389 L
112.177 201.084 L
112.72 199.78 L
113.263 198.479 L
113.806 197.18 L
114.349 195.883 L
114.892 194.588 L
115.435 193.296 L
115.978 192.006 L
116.521 190.718 L
117.064 189.433 L
117.607 188.15 L
118.15 186.87 L
118.693 185.593 L
119.236 184.318 L
119.779 183.046 L
120.322 181.777 L
120.865 180.51 L
121.408 179.246 L
121.951 177.986 L
122.494 176.728 L
123.037 175.473 L
123.58 174.221 L
124.123 172.973 L
124.666 171.727 L
125.209 170.485 L
125.752 169.246 L
126.295 168.01 L
126.838 166.778 L
127.381 165.549 L
127.924 164.324 L
128.467 163.102 L
129.01 161.883 L
129.553 160.668 L
130.096 159.457 L
130.639 158.25 L
131.182 157.046 L
131.725 155.846 L
132.268 154.65 L
132.811 153.458 L
133.354 152.269 L
133.897 151.085 L
134.44 149.905 L
134.983 148.728 L
135.526 147.556 L
136.069 146.388 L
136.612 145.225 L
137.155 144.065 L
137.698 142.91 L
138.241 141.759 L
138.784 140.613 L
139.327 139.471 L
139.87 138.333 L
140.413 137.2 L
140.956 136.072 L
141.499 134.948 L
142.042 133.829 L
142.585 132.714 L
143.128 131.604 L
143.671 130.5 L
144.214 129.399 L
144.757 128.304 L
145.3 127.214 L
145.843 126.129 L
146.386 125.048 L
146.929 123.973 L
147.472 122.903 L
148.015 121.838 L
148.558 120.778 L
149.101 119.723 L
149.644 118.674 L
150.187 117.63 L
150.73 116.591 L
151.273 115.558 L
151.816 114.53 L
152.359 113.508 L
152.902 112.491 L
153.445 111.479 L
153.988 110.473 L
154.531 109.473 L
155.074 108.479 L
155.617 107.49 L
156.16 106.507 L
156.703 105.53 L
157.246 104.558 L
157.789 103.593 L
158.332 102.633 L
158.875 101.679 L
159.418 100.731 L
159.961 99.79 L
160.504 98.854 L
161.047 97.924 L
161.59 97.001 L
162.133 96.083 L
162.676 95.172 L
163.219 94.267 L
163.762 93.369 L
164.305 92.476 L
164.848 91.59 L
165.391 90.711 L
165.934 89.837 L
166.477 88.97 L
167.02 88.11 L
167.563 87.256 L
168.106 86.409 L
168.649 85.568 L
169.192 84.734 L
169.735 83.907 L
170.278 83.086 L
170.821 82.272 L
171.364 81.465 L
171.907 80.664 L
172.45 79.87 L
172.993 79.083 L
173.536 78.303 L
174.079 77.53 L
174.622 76.764 L
175.165 76.005 L
175.708 75.252 L
176.251 74.507 L
176.794 73.769 L
177.337 73.038 L
177.88 72.314 L
178.423 71.597 L
178.966 70.887 L
179.509 70.185 L
180.052 69.489 L
180.595 68.801 L
181.138 68.12 L
181.681 67.447 L
182.224 66.781 L
182.767 66.122 L
183.31 65.47 L
183.853 64.826 L
184.396 64.19 L
184.939 63.56 L
185.482 62.939 L
186.025 62.325 L
186.568 61.718 L
187.111 61.119 L
187.654 60.527 L
188.197 59.943 L
188.74 59.367 L
189.283 58.798 L
189.826 58.237 L
190.369 57.684 L
190.912 57.138 L
191.455 56.601 L
191.998 56.07 L
192.541 55.548 L
193.084 55.033 L
193.627 54.527 L
194.17 54.028 L
194.713 53.537 L
195.256 53.054 L
195.799 52.578 L
196.342 52.111 L
196.885 51.652 L
197.428 51.2 L
197.971 50.757 L
198.514 50.321 L
199.057 49.893 L
199.6 49.474 L
200.143 49.062 L
200.686 48.659 L
201.229 48.264 L
201.772 47.876 L
202.315 47.497 L
202.858 47.126 L
203.401 46.763 L
203.944 46.408 L
204.487 46.062 L
205.03 45.723 L
205.573 45.393 L
206.116 45.071 L
206.659 44.757 L
207.202 44.451 L
207.745 44.154 L
208.288 43.865 L
208.831 43.584 L
209.374 43.311 L
209.917 43.047 L
210.46 42.791 L
211.003 42.543 L
211.546 42.303 L
212.089 42.072 L
212.632 41.849 L
213.175 41.635 L
213.718 41.429 L
214.261 41.231 L
214.804 41.041 L
215.347 40.86 L
215.89 40.687 L
216.433 40.523 L
216.976 40.367 L
217.519 40.22 L
218.062 40.08 L
218.605 39.95 L
219.148 39.827 L
219.691 39.713 L
220.234 39.608 L
220.777 39.511 L
221.32 39.422 L
221.863 39.342 L
222.406 39.27 L
222.949 39.207 L
223.492 39.152 L
224.035 39.106 L
224.578 39.068 L
225.121 39.038 L
225.664 39.017 L
226.207 39.004 L
226.75 39 L
227.293 39.004 L
227.836 39.017 L
228.379 39.038 L
228.922 39.068 L
229.465 39.106 L
230.008 39.152 L
230.551 39.207 L
231.094 39.27 L
231.637 39.342 L
232.18 39.422 L
232.723 39.511 L
233.266 39.608 L
233.809 39.713 L
234.352 39.827 L
234.895 39.95 L
235.438 40.08 L
235.981 40.22 L
236.524 40.367 L
237.067 40.523 L
237.61 40.687 L
238.153 40.86 L
238.696 41.041 L
239.239 41.231 L
239.782 41.429 L
240.325 41.635 L
240.868 41.849 L
241.411 42.072 L
241.954 42.303 L
242.497 42.543 L
243.04 42.791 L
243.583 43.047 L
244.126 43.311 L
244.669 43.584 L
245.212 43.865 L
245.755 44.154 L
246.298 44.451 L
246.841 44.757 L
247.384 45.071 L
247.927 45.393 L
248.47 45.723 L
249.013 46.062 L
249.556 46.408 L
250.099 46.763 L
250.642 47.126 L
251.185 47.497 L
251.728 47.876 L
252.271 48.264 L
252.814 48.659 L
253.357 49.062 L
253.9 49.474 L
254.443 49.893 L
254.986 50.321 L
255.529 50.757 L
256.072 51.2 L
256.615 51.652 L
257.158 52.111 L
257.701 52.578 L
258.244 53.054 L
258.787 53.537 L
259.33 54.028 L
259.873 54.527 L
260.416 55.033 L
260.959 55.548 L
261.502 56.07 L
262.045 56.601 L
262.588 57.138 L
263.131 57.684 L
263.674 58.237 L
264.217 58.798 L
264.76 59.367 L
265.303 59.943 L
265.846 60.527 L
266.389 61.119 L
266.932 61.718 L
267.475 62.325 L
268.018 62.939 L
268.561 63.56 L
269.104 64.19 L
269.647 64.826 L
270.19 65.47 L
270.733 66.122 L
271.276 66.781 L
271.819 67.447 L
272.362 68.12 L
272.905 68.801 L
273.448 69.489 L
273.991 70.185 L
274.534 70.887 L
275.077 71.597 L
275.62 72.314 L
276.163 73.038 L
276.706 73.769 L
277.249 74.507 L
277.792 75.252 L
278.335 76.005 L
278.878 76.764 L
279.421 77.53 L
279.964 78.303 L
280.507 79.083 L
281.05 79.87 L
281.593 80.664 L
282.136 81.465 L
282.679 82.272 L
283.222 83.086 L
283.765 83.907 L
284.308 84.734 L
284.851 85.568 L
285.394 86.409 L
285.937 87.256 L
286.48 88.11 L
287.023 88.97 L
287.566 89.837 L
288.109 90.711 L
288.652 91.59 L
289.195 92.476 L
289.738 93.369 L
290.281 94.267 L
290.824 95.172 L
291.367 96.083 L
291.91 97.001 L
292.453 97.924 L
292.996 98.854 L
293.539 99.79 L
294.082 100.731 L
294.625 101.679 L
295.168 102.633 L
295.711 103.593 L
296.254 104.558 L
296.797 105.53 L
297.34 106.507 L
297.883 107.49 L
298.426 108.479 L
298.969 109.473 L
299.512 110.473 L
300.055 111.479 L
300.598 112.491 L
301.141 113.508 L
301.684 114.53 L
302.227 115.558 L
302.77 116.591 L
303.313 117.63 L
303.856 118.674 L
304.399 119.723 L
304.942 120.778 L
305.485 121.838 L
306.028 122.903 L
306.571 123.973 L
307.114 125.048 L
307.657 126.129 L
308.2 127.214 L
308.743 128.304 L
309.286 129.399 L
309.829 130.5 L
310.372 131.604 L
310.915 132.714 L
311.458 133.829 L
312.001 134.948 L
312.544 136.072 L
313.087 137.2 L
313.63 138.333 L
314.173 139.471 L
314.716 140.613 L
315.259 141.759 L
315.802 142.91 L
316.345 144.065 L
316.888 145.225 L
317.431 146.388 L
317.974 147.556 L
318.517 148.728 L
319.06 149.905 L
319.603 151.085 L
320.146 152.269 L
320.689 153.458 L
321.232 154.65 L
321.775 155.846 L
322.318 157.046 L
322.861 158.25 L
323.404 159.457 L
323.947 160.668 L
324.49 161.883 L
325.033 163.102 L
325.576 164.324 L
326.119 165.549 L
326.662 166.778 L
327.205 168.01 L
327.748 169.246 L
328.291 170.485 L
328.834 171.727 L
329.377 172.973 L
329.92 174.221 L
330.463 175.473 L
331.006 176.728 L
331.549 177.986 L
332.092 179.246 L
332.635 180.51 L
333.178 181.777 L
333.721 183.046 L
334.264 184.318 L
334.807 185.593 L
335.35 186.87 L
335.893 188.15 L
336.436 189.433 L
336.979 190.718 L
337.522 192.006 L
338.065 193.296 L
338.608 194.588 L
339.151 195.883 L
339.694 197.18 L
340.237 198.479 L
340.78 199.78 L
341.323 201.084 L
341.866 202.389 L
342.409 203.697 L
342.952 205.006 L
343.495 206.317 L
344.038 207.63 L
344.581 208.945 L
345.124 210.262 L
345.667 211.58 L
346.21 212.9 L
346.753 214.222 L
347.296 215.545 L
347.839 216.87 L
348.382 218.196 L
348.925 219.523 L
349.468 220.852 L
350.011 222.182 L
350.554 223.513 L
351.097 224.845 L
351.64 226.179 L
352.183 227.513 L
352.726 228.849 L
353.269 230.185 L
353.812 231.523 L
354.355 232.861 L
354.898 234.2 L
355.441 235.54 L
355.984 236.88 L
356.527 238.221 L
357.07 239.563 L
357.613 240.905 L
358.156 242.248 L
358.699 243.591 L
359.242 244.934 L
359.785 246.278 L
360.328 247.622 L
360.871 248.966 L
361.414 250.311 L
361.957 251.655 L
362.5 253 L
363.043 254.345 L
363.586 255.689 L
364.129 257.034 L
364.672 258.378 L
365.215 259.722 L
365.758 261.066 L
366.301 262.409 L
366.844 263.752 L
367.387 265.095 L
367.93 266.437 L
368.473 267.779 L
369.016 269.12 L
369.559 270.46 L
370.102 271.8 L
370.645 273.139 L
371.188 274.477 L
371.731 275.815 L
372.274 277.151 L
372.817 278.487 L
373.36 279.821 L
373.903 281.155 L
374.446 282.487 L
374.989 283.818 L
375.532 285.148 L
376.075 286.477 L
376.618 287.804 L
377.161 289.13 L
377.704 290.455 L
378.247 291.778 L
378.79 293.1 L
379.333 294.42 L
379.876 295.738 L
380.419 297.055 L
380.962 298.37 L
381.505 299.683 L
382.048 300.994 L
382.591 302.303 L
383.134 303.611 L
383.677 304.916 L
384.22 306.22 L
384.763 307.521 L
385.306 308.82 L
385.849 310.117 L
386.392 311.412 L
386.935 312.704 L
387.478 313.994 L
388.021 315.282 L
388.564 316.567 L
389.107 317.85 L
389.65 319.13 L
390.193 320.407 L
390.736 321.682 L
391.279 322.954 L
391.822 324.223 L
392.365 325.49 L
392.908 326.754 L
393.451 328.014 L
393.994 329.272 L
394.537 330.527 L
395.08 331.779 L
395.623 333.027 L
396.166 334.273 L
396.709 335.515 L
397.252 336.754 L
397.795 337.99 L
398.338 339.222 L
398.881 340.451 L
399.424 341.676 L
399.967 342.898 L
400.51 344.117 L
401.053 345.332 L
401.596 346.543 L
402.139 347.75 L
402.682 348.954 L
403.225 350.154 L
403.768 351.35 L
404.311 352.542 L
404.854 353.731 L
405.397 354.915 L
405.94 356.095 L
406.483 357.272 L
407.026 358.444 L
407.569 359.612 L
408.112 360.775 L
408.655 361.935 L
409.198 363.09 L
409.741 364.241 L
410.284 365.387 L
410.827 366.529 L
411.37 367.667 L
411.913 368.8 L
412.456 369.928 L
412.999 371.052 L
413.542 372.171 L
414.085 373.286 L
414.628 374.396 L
415.171 375.5 L
415.714 376.601 L
416.257 377.696 L
416.8 378.786 L
417.343 379.871 L
417.886 380.952 L
418.429 382.027 L
418.972 383.097 L
419.515 384.162 L
420.058 385.222 L
420.601 386.277 L
421.144 387.326 L
421.687 388.37 L
422.23 389.409 L
422.773 390.442 L
423.316 391.47 L
423.859 392.492 L
424.402 393.509 L
424.945 394.521 L
425.488 395.527 L
426.031 396.527 L
426.574 397.521 L
427.117 398.51 L
427.66 399.493 L
428.203 400.47 L
428.746 401.442 L
429.289 402.407 L
429.832 403.367 L
430.375 404.321 L
430.918 405.269 L
431.461 406.21 L
432.004 407.146 L
432.547 408.076 L
433.09 408.999 L
433.633 409.917 L
434.176 410.828 L
434.719 411.733 L
435.262 412.631 L
435.805 413.524 L
436.348 414.41 L
436.891 415.289 L
437.434 416.163 L
437.977 417.03 L
438.52 417.89 L
439.063 418.744 L
439.606 419.591 L
440.149 420.432 L
440.692 421.266 L
441.235 422.093 L
441.778 422.914 L
442.321 423.728 L
442.864 424.535 L
443.407 425.336 L
443.95 426.13 L
444.493 426.917 L
445.036 427.697 L
445.579 428.47 L
446.122 429.236 L
446.665 429.995 L
447.208 430.748 L
447.751 431.493 L
448.294 432.231 L
448.837 432.962 L
449.38 433.686 L
449.923 434.403 L
450.466 435.113 L
451.009 435.815 L
451.552 436.511 L
452.095 437.199 L
452.638 437.88 L
453.181 438.553 L
453.724 439.219 L
454.267 439.878 L
454.81 440.53 L
455.353 441.174 L
455.896 441.81 L
456.439 442.44 L
456.982 443.061 L
457.525 443.675 L
458.068 444.282 L
458.611 444.881 L
459.154 445.473 L
459.697 446.057 L
460.24 446.633 L
460.783 447.202 L
461.326 447.763 L
461.869 448.316 L
462.412 448.862 L
462.955 449.4 L
463.498 449.93 L
464.041 450.452 L
464.584 450.967 L
465.127 451.473 L
465.67 451.972 L
466.213 452.463 L
466.756 452.946 L
467.299 453.422 L
467.842 453.889 L
468.385 454.348 L
468.928 454.8 L
469.471 455.243 L
470.014 455.679 L
470.557 456.107 L
471.1 456.526 L
471.643 456.938 L
472.186 457.341 L
472.729 457.736 L
473.272 458.124 L
473.815 458.503 L
474.358 458.874 L
474.901 459.237 L
475.444 459.592 L
475.987 459.938 L
476.53 460.277 L
477.073 460.607 L
477.616 460.929 L
478.159 461.243 L
478.702 461.549 L
479.245 461.846 L
479.788 462.135 L
480.331 462.416 L
480.874 462.689 L
481.417 462.953 L
481.96 463.209 L
482.503 463.457 L
483.046 463.697 L
483.589 463.928 L
484.132 464.151 L
484.675 464.365 L
485.218 464.571 L
485.761 464.769 L
486.304 464.959 L
486.847 465.14 L
487.39 465.313 L
487.933 465.477 L
488.476 465.633 L
489.019 465.78 L
489.562 465.92 L
490.105 466.05 L
490.648 466.173 L
491.191 466.286 L
491.734 466.392 L
492.277 466.489 L
492.82 466.578 L
493.363 466.658 L
493.906 466.73 L
494.449 466.793 L
494.992 466.848 L
495.535 466.894 L
496.078 466.932 L
496.621 466.962 L
497.164 466.983 L
497.707 466.996 L
498.25 467 L
498.793 466.996 L
499.336 466.983 L
499.879 466.962 L
500.422 466.932 L
500.965 466.894 L
501.508 466.848 L
502.051 466.793 L
502.594 466.73 L
503.137 466.658 L
503.68 466.578 L
504.223 466.489 L
504.766 466.392 L
505.309 466.286 L
505.852 466.173 L
506.395 466.05 L
506.938 465.92 L
507.481 465.78 L
508.024 465.633 L
508.567 465.477 L
509.11 465.313 L
509.653 465.14 L
510.196 464.959 L
510.739 464.769 L
511.282 464.571 L
511.825 464.365 L
512.368 464.151 L
512.911 463.928 L
513.454 463.697 L
513.997 463.457 L
514.54 463.209 L
515.083 462.953 L
515.626 462.689 L
516.169 462.416 L
516.712 462.135 L
517.255 461.846 L
517.798 461.549 L
518.341 461.243 L
518.884 460.929 L
519.427 460.607 L
519.97 460.277 L
520.513 459.938 L
521.056 459.592 L
521.599 459.237 L
522.142 458.874 L
522.685 458.503 L
523.228 458.124 L
523.771 457.736 L
524.314 457.341 L
524.857 456.938 L
525.4 456.526 L
525.943 456.107 L
526.486 455.679 L
527.029 455.243 L
527.572 454.8 L
528.115 454.348 L
528.658 453.889 L
529.201 453.422 L
529.744 452.946 L
530.287 452.463 L
530.83 451.972 L
531.373 451.473 L
531.916 450.967 L
532.459 450.452 L
533.002 449.93 L
533.545 449.4 L
534.088 448.862 L
534.631 448.316 L
535.174 447.763 L
535.717 447.202 L
536.26 446.633 L
536.803 446.057 L
537.346 445.473 L
537.889 444.881 L
538.432 444.282 L
538.975 443.675 L
539.518 443.061 L
540.061 442.44 L
540.604 441.81 L
541.147 441.174 L
541.69 440.53 L
542.233 439.878 L
542.776 439.219 L
543.319 438.553 L
543.862 437.88 L
544.405 437.199 L
544.948 436.511 L
545.491 435.815 L
546.034 435.113 L
546.577 434.403 L
547.12 433.686 L
547.663 432.962 L
548.206 432.231 L
548.749 431.493 L
549.292 430.748 L
549.835 429.995 L
550.378 429.236 L
550.921 428.47 L
551.464 427.697 L
552.007 426.917 L
552.55 426.13 L
553.093 425.336 L
553.636 424.535 L
554.179 423.728 L
554.722 422.914 L
555.265 422.093 L
555.808 421.266 L
556.351 420.432 L
556.894 419.591 L
557.437 418.744 L
557.98 417.89 L
558.523 417.03 L
559.066 416.163 L
559.609 415.289 L
560.152 414.41 L
560.695 413.524 L
561.238 412.631 L
561.781 411.733 L
562.324 410.828 L
562.867 409.917 L
563.41 408.999 L
563.953 408.076 L
564.496 407.146 L
565.039 406.21 L
565.582 405.269 L
566.125 404.321 L
566.668 403.367 L
567.211 402.407 L
567.754 401.442 L
568.297 400.47 L
568.84 399.493 L
569.383 398.51 L
569.926 397.521 L
570.469 396.527 L
571.012 395.527 L
571.555 394.521 L
572.098 393.509 L
572.641 392.492 L
573.184 391.47 L
573.727 390.442 L
574.27 389.409 L
574.813 388.37 L
575.356 387.326 L
575.899 386.277 L
576.442 385.222 L
576.985 384.162 L
577.528 383.097 L
578.071 382.027 L
578.614 380.952 L
579.157 379.871 L
579.7 378.786 L
580.243 377.696 L
580.786 376.601 L
581.329 375.5 L
581.872 374.396 L
582.415 373.286 L
582.958 372.171 L
583.501 371.052 L
584.044 369.928 L
584.587 368.8 L
585.13 367.667 L
585.673 366.529 L
586.216 365.387 L
586.759 364.241 L
587.302 363.09 L
587.845 361.935 L
588.388 360.775 L
588.931 359.612 L
589.474 358.444 L
590.017 357.272 L
590.56 356.095 L
591.103 354.915 L
591.646 353.731 L
592.189 352.542 L
592.732 351.35 L
593.275 350.154 L
593.818 348.954 L
594.361 347.75 L
594.904 346.543 L
595.447 345.332 L
595.99 344.117 L
596.533 342.898 L
597.076 341.676 L
597.619 340.451 L
598.162 339.222 L
598.705 337.99 L
599.248 336.754 L
599.791 335.515 L
600.334 334.273 L
600.877 333.027 L
601.42 331.779 L
601.963 330.527 L
602.506 329.272 L
603.049 328.014 L
603.592 326.754 L
604.135 325.49 L
604.678 324.223 L
605.221 322.954 L
605.764 321.682 L
606.307 320.407 L
606.85 319.13 L
607.393 317.85 L
607.936 316.567 L
608.479 315.282 L
609.022 313.994 L
609.565 312.704 L
610.108 311.412 L
610.651 310.117 L
611.194 308.82 L
611.737 307.521 L
612.28 306.22 L
612.823 304.916 L
613.366 303.611 L
613.909 302.303 L
614.452 300.994 L
614.995 299.683 L
615.538 298.37 L
616.081 297.055 L
616.624 295.738 L
617.167 294.42 L
617.71 293.1 L
618.253 291.778 L
618.796 290.455 L
619.339 289.13 L
619.882 287.804 L
620.425 286.477 L
620.968 285.148 L
621.511 283.818 L
622.054 282.487 L
622.597 281.155 L
623.14 279.821 L
623.683 278.487 L
624.226 277.151 L
624.769 275.815 L
625.312 274.477 L
625.855 273.139 L
626.398 271.8 L
626.941 270.46 L
627.484 269.12 L
628.027 267.779 L
628.57 266.437 L
629.113 265.095 L
629.656 263.752 L
630.199 262.409 L
630.742 261.066 L
631.285 259.722 L
631.828 258.378 L
632.371 257.034 L
632.914 255.689 L
633.457 254.345 L
634 253 L
S
GR
GS
[0.6 0 0 0.6 54.6 151.8] CT
10.0 ML
N
5 0 M
5 -2.761 2.761 -5 0 -5 C
-2.761 -5 -5 -2.761 -5 0 C
-5 2.761 -2.761 5 0 5 C
2.761 5 5 2.761 5 0 C
S
GR
GS
[0.6 0 0 0.6 87.18 76.32838] CT
10.0 ML
N
5 0 M
5 -2.761 2.761 -5 0 -5 C
-2.761 -5 -5 -2.761 -5 0 C
-5 2.761 -2.761 5 0 5 C
2.761 5 5 2.761 5 0 C
S
GR
GS
[0.6 0 0 0.6 119.76 29.68434] CT
10.0 ML
N
5 0 M
5 -2.761 2.761 -5 0 -5 C
-2.761 -5 -5 -2.761 -5 0 C
-5 2.761 -2.761 5 0 5 C
2.761 5 5 2.761 5 0 C
S
GR
GS
[0.6 0 0 0.6 152.34 29.68434] CT
10.0 ML
N
5 0 M
5 -2.761 2.761 -5 0 -5 C
-2.761 -5 -5 -2.761 -5 0 C
-5 2.761 -2.761 5 0 5 C
2.761 5 5 2.761 5 0 C
S
GR
GS
[0.6 0 0 0.6 184.92001 76.32838] CT
10.0 ML
N
5 0 M
5 -2.761 2.761 -5 0 -5 C
-2.761 -5 -5 -2.761 -5 0 C
-5 2.761 -2.761 5 0 5 C
2.761 5 5 2.761 5 0 C
S
GR
GS
[0.6 0 0 0.6 217.5 151.8] CT
10.0 ML
N
5 0 M
5 -2.761 2.761 -5 0 -5 C
-2.761 -5 -5 -2.761 -5 0 C
-5 2.761 -2.761 5 0 5 C
2.761 5 5 2.761 5 0 C
S
GR
GS
[0.6 0 0 0.6 250.07999 227.27162] CT
10.0 ML
N
5 0 M
5 -2.761 2.761 -5 0 -5 C
-2.761 -5 -5 -2.761 -5 0 C
-5 2.761 -2.761 5 0 5 C
2.761 5 5 2.761 5 0 C
S
GR
GS
[0.6 0 0 0.6 282.66 273.91566] CT
10.0 ML
N
5 0 M
5 -2.761 2.761 -5 0 -5 C
-2.761 -5 -5 -2.761 -5 0 C
-5 2.761 -2.761 5 0 5 C
2.761 5 5 2.761 5 0 C
S
GR
GS
[0.6 0 0 0.6 315.24001 273.91566] CT
10.0 ML
N
5 0 M
5 -2.761 2.761 -5 0 -5 C
-2.761 -5 -5 -2.761 -5 0 C
-5 2.761 -2.761 5 0 5 C
2.761 5 5 2.761 5 0 C
S
GR
GS
[0.6 0 0 0.6 347.82001 227.27162] CT
10.0 ML
N
5 0 M
5 -2.761 2.761 -5 0 -5 C
-2.761 -5 -5 -2.761 -5 0 C
-5 2.761 -2.761 5 0 5 C
2.761 5 5 2.761 5 0 C
S
GR
GS
[0.6 0 0 0.6 380.4 151.8] CT
10.0 ML
N
5 0 M
5 -2.761 2.761 -5 0 -5 C
-2.761 -5 -5 -2.761 -5 0 C
-5 2.761 -2.761 5 0 5 C
2.761 5 5 2.761 5 0 C
S
GR
GS
[0.6 0 0 0.6 0 0] CT
1 LJ
0.833 LW
N
91 253 M
91 253 L
S
GR
GS
[0.6 0 0 0.6 0 0] CT
1 LJ
0.833 LW
N
145.3 253 M
145.3 127.214 L
S
GR
GS
[0.6 0 0 0.6 0 0] CT
1 LJ
0.833 LW
N
199.6 253 M
199.6 49.474 L
S
GR
GS
[0.6 0 0 0.6 0 0] CT
1 LJ
0.833 LW
N
253.9 253 M
253.9 49.474 L
S
GR
GS
[0.6 0 0 0.6 0 0] CT
1 LJ
0.833 LW
N
308.2 253 M
308.2 127.214 L
S
GR
GS
[0.6 0 0 0.6 0 0] CT
1 LJ
0.833 LW
N
362.5 253 M
362.5 253 L
S
GR
GS
[0.6 0 0 0.6 0 0] CT
1 LJ
0.833 LW
N
416.8 253 M
416.8 378.786 L
S
GR
GS
[0.6 0 0 0.6 0 0] CT
1 LJ
0.833 LW
N
471.1 253 M
471.1 456.526 L
S
GR
GS
[0.6 0 0 0.6 0 0] CT
1 LJ
0.833 LW
N
525.4 253 M
525.4 456.526 L
S
GR
GS
[0.6 0 0 0.6 0 0] CT
1 LJ
0.833 LW
N
579.7 253 M
579.7 378.786 L
S
GR
GS
[0.6 0 0 0.6 0 0] CT
1 LJ
0.833 LW
N
634 253 M
634 253 L
S
GR
GS
[0.6 0 0 0.6 0 0] CT
1 GC
N
617 101 M
617 56 L
468 56 L
468 101 L
cp
f
GR
GS
[0.6 0 0 0.6 315.87345 40.99726] CT
/Helvetica 15 F
GS
[1 0 0 1 0 0] CT
0 6 moveto 
1 -1 scale
(continuous) t 
GR
GR
GS
[0.6 0 0 0.6 0 0] CT
0 0 1 RC
[1 3] 0 setdash
2 LJ
0.833 LW
N
472.975 68.329 M
522.725 68.329 L
S
GR
GS
[0.6 0 0 0.6 315.87345 53.20274] CT
/Helvetica 15 F
GS
[1 0 0 1 0 0] CT
0 6 moveto 
1 -1 scale
(discrete-time) t 
GR
GR
GS
[0.6 0 0 0.6 0 0] CT
1 LJ
0.833 LW
N
472.975 88.671 M
507.8 88.671 L
S
GR
GS
[0.6 0 0 0.6 304.67979 53.20274] CT
10.0 ML
N
5 0 M
5 -2.761 2.761 -5 0 -5 C
-2.761 -5 -5 -2.761 -5 0 C
-5 2.761 -2.761 5 0 5 C
2.761 5 5 2.761 5 0 C
S
GR
GS
[0.6 0 0 0.6 0 0] CT
0.149 GC
10.0 ML
0.833 LW
N
468 101 M
468 56 L
617 56 L
617 101 L
cp
S
GR
%%Trailer
%%Pages: 1
%%EOF
