%!PS-Adobe-3.0 EPSF-3.0
%%Creator: (MATLAB, The Mathworks, Inc. Version 9.3.0.713579 \(R2017b\). Operating System: Windows 10)
%%Title: C:/surfdrive/HAN/DSPIPS/Material/DSPIPS_workshopNotes/figures/sync_filter_freq.eps
%%CreationDate: 2019-01-23T09:17:34
%%Pages: (atend)
%%BoundingBox: 0 0 420 315
%%LanguageLevel: 3
%%EndComments
%%BeginProlog
%%BeginResource: procset (Apache XML Graphics Std ProcSet) 1.2 0
%%Version: 1.2 0
%%Copyright: (Copyright 2001-2003,2010 The Apache Software Foundation. License terms: http://www.apache.org/licenses/LICENSE-2.0)
/bd{bind def}bind def
/ld{load def}bd
/GR/grestore ld
/GS/gsave ld
/RM/rmoveto ld
/C/curveto ld
/t/show ld
/L/lineto ld
/ML/setmiterlimit ld
/CT/concat ld
/f/fill ld
/N/newpath ld
/S/stroke ld
/CC/setcmykcolor ld
/A/ashow ld
/cp/closepath ld
/RC/setrgbcolor ld
/LJ/setlinejoin ld
/GC/setgray ld
/LW/setlinewidth ld
/M/moveto ld
/re {4 2 roll M
1 index 0 rlineto
0 exch rlineto
neg 0 rlineto
cp } bd
/_ctm matrix def
/_tm matrix def
/BT { _ctm currentmatrix pop matrix _tm copy pop 0 0 moveto } bd
/ET { _ctm setmatrix } bd
/iTm { _ctm setmatrix _tm concat } bd
/Tm { _tm astore pop iTm 0 0 moveto } bd
/ux 0.0 def
/uy 0.0 def
/F {
  /Tp exch def
  /Tf exch def
  Tf findfont Tp scalefont setfont
  /cf Tf def  /cs Tp def
} bd
/ULS {currentpoint /uy exch def /ux exch def} bd
/ULE {
  /Tcx currentpoint pop def
  gsave
  newpath
  cf findfont cs scalefont dup
  /FontMatrix get 0 get /Ts exch def /FontInfo get dup
  /UnderlinePosition get Ts mul /To exch def
  /UnderlineThickness get Ts mul /Tt exch def
  ux uy To add moveto  Tcx uy To add lineto
  Tt setlinewidth stroke
  grestore
} bd
/OLE {
  /Tcx currentpoint pop def
  gsave
  newpath
  cf findfont cs scalefont dup
  /FontMatrix get 0 get /Ts exch def /FontInfo get dup
  /UnderlinePosition get Ts mul /To exch def
  /UnderlineThickness get Ts mul /Tt exch def
  ux uy To add cs add moveto Tcx uy To add cs add lineto
  Tt setlinewidth stroke
  grestore
} bd
/SOE {
  /Tcx currentpoint pop def
  gsave
  newpath
  cf findfont cs scalefont dup
  /FontMatrix get 0 get /Ts exch def /FontInfo get dup
  /UnderlinePosition get Ts mul /To exch def
  /UnderlineThickness get Ts mul /Tt exch def
  ux uy To add cs 10 mul 26 idiv add moveto Tcx uy To add cs 10 mul 26 idiv add lineto
  Tt setlinewidth stroke
  grestore
} bd
/QT {
/Y22 exch store
/X22 exch store
/Y21 exch store
/X21 exch store
currentpoint
/Y21 load 2 mul add 3 div exch
/X21 load 2 mul add 3 div exch
/X21 load 2 mul /X22 load add 3 div
/Y21 load 2 mul /Y22 load add 3 div
/X22 load /Y22 load curveto
} bd
/SSPD {
dup length /d exch dict def
{
/v exch def
/k exch def
currentpagedevice k known {
/cpdv currentpagedevice k get def
v cpdv ne {
/upd false def
/nullv v type /nulltype eq def
/nullcpdv cpdv type /nulltype eq def
nullv nullcpdv or
{
/upd true def
} {
/sametype v type cpdv type eq def
sametype {
v type /arraytype eq {
/vlen v length def
/cpdvlen cpdv length def
vlen cpdvlen eq {
0 1 vlen 1 sub {
/i exch def
/obj v i get def
/cpdobj cpdv i get def
obj cpdobj ne {
/upd true def
exit
} if
} for
} {
/upd true def
} ifelse
} {
v type /dicttype eq {
v {
/dv exch def
/dk exch def
/cpddv cpdv dk get def
dv cpddv ne {
/upd true def
exit
} if
} forall
} {
/upd true def
} ifelse
} ifelse
} if
} ifelse
upd true eq {
d k v put
} if
} if
} if
} forall
d length 0 gt {
d setpagedevice
} if
} bd
/RE { % /NewFontName [NewEncodingArray] /FontName RE -
  findfont dup length dict begin
  {
    1 index /FID ne
    {def} {pop pop} ifelse
  } forall
  /Encoding exch def
  /FontName 1 index def
  currentdict definefont pop
  end
} bind def
%%EndResource
%%BeginResource: procset (Apache XML Graphics EPS ProcSet) 1.0 0
%%Version: 1.0 0
%%Copyright: (Copyright 2002-2003 The Apache Software Foundation. License terms: http://www.apache.org/licenses/LICENSE-2.0)
/BeginEPSF { %def
/b4_Inc_state save def         % Save state for cleanup
/dict_count countdictstack def % Count objects on dict stack
/op_count count 1 sub def      % Count objects on operand stack
userdict begin                 % Push userdict on dict stack
/showpage { } def              % Redefine showpage, { } = null proc
0 setgray 0 setlinecap         % Prepare graphics state
1 setlinewidth 0 setlinejoin
10 setmiterlimit [ ] 0 setdash newpath
/languagelevel where           % If level not equal to 1 then
{pop languagelevel             % set strokeadjust and
1 ne                           % overprint to their defaults.
{false setstrokeadjust false setoverprint
} if
} if
} bd
/EndEPSF { %def
count op_count sub {pop} repeat            % Clean up stacks
countdictstack dict_count sub {end} repeat
b4_Inc_state restore
} bd
%%EndResource
%FOPBeginFontDict
%%IncludeResource: font Courier-Oblique
%%IncludeResource: font Courier-BoldOblique
%%IncludeResource: font Courier-Bold
%%IncludeResource: font ZapfDingbats
%%IncludeResource: font Symbol
%%IncludeResource: font Helvetica
%%IncludeResource: font Helvetica-Oblique
%%IncludeResource: font Helvetica-Bold
%%IncludeResource: font Helvetica-BoldOblique
%%IncludeResource: font Times-Roman
%%IncludeResource: font Times-Italic
%%IncludeResource: font Times-Bold
%%IncludeResource: font Times-BoldItalic
%%IncludeResource: font Courier
%FOPEndFontDict
%%BeginResource: encoding WinAnsiEncoding
/WinAnsiEncoding [
/.notdef /.notdef /.notdef /.notdef /.notdef
/.notdef /.notdef /.notdef /.notdef /.notdef
/.notdef /.notdef /.notdef /.notdef /.notdef
/.notdef /.notdef /.notdef /.notdef /.notdef
/.notdef /.notdef /.notdef /.notdef /.notdef
/.notdef /.notdef /.notdef /.notdef /.notdef
/.notdef /.notdef /space /exclam /quotedbl
/numbersign /dollar /percent /ampersand /quotesingle
/parenleft /parenright /asterisk /plus /comma
/hyphen /period /slash /zero /one
/two /three /four /five /six
/seven /eight /nine /colon /semicolon
/less /equal /greater /question /at
/A /B /C /D /E
/F /G /H /I /J
/K /L /M /N /O
/P /Q /R /S /T
/U /V /W /X /Y
/Z /bracketleft /backslash /bracketright /asciicircum
/underscore /quoteleft /a /b /c
/d /e /f /g /h
/i /j /k /l /m
/n /o /p /q /r
/s /t /u /v /w
/x /y /z /braceleft /bar
/braceright /asciitilde /bullet /Euro /bullet
/quotesinglbase /florin /quotedblbase /ellipsis /dagger
/daggerdbl /circumflex /perthousand /Scaron /guilsinglleft
/OE /bullet /Zcaron /bullet /bullet
/quoteleft /quoteright /quotedblleft /quotedblright /bullet
/endash /emdash /asciitilde /trademark /scaron
/guilsinglright /oe /bullet /zcaron /Ydieresis
/space /exclamdown /cent /sterling /currency
/yen /brokenbar /section /dieresis /copyright
/ordfeminine /guillemotleft /logicalnot /sfthyphen /registered
/macron /degree /plusminus /twosuperior /threesuperior
/acute /mu /paragraph /middot /cedilla
/onesuperior /ordmasculine /guillemotright /onequarter /onehalf
/threequarters /questiondown /Agrave /Aacute /Acircumflex
/Atilde /Adieresis /Aring /AE /Ccedilla
/Egrave /Eacute /Ecircumflex /Edieresis /Igrave
/Iacute /Icircumflex /Idieresis /Eth /Ntilde
/Ograve /Oacute /Ocircumflex /Otilde /Odieresis
/multiply /Oslash /Ugrave /Uacute /Ucircumflex
/Udieresis /Yacute /Thorn /germandbls /agrave
/aacute /acircumflex /atilde /adieresis /aring
/ae /ccedilla /egrave /eacute /ecircumflex
/edieresis /igrave /iacute /icircumflex /idieresis
/eth /ntilde /ograve /oacute /ocircumflex
/otilde /odieresis /divide /oslash /ugrave
/uacute /ucircumflex /udieresis /yacute /thorn
/ydieresis
] def
%%EndResource
%FOPBeginFontReencode
/Courier-Oblique findfont
dup length dict begin
  {1 index /FID ne {def} {pop pop} ifelse} forall
  /Encoding WinAnsiEncoding def
  currentdict
end
/Courier-Oblique exch definefont pop
/Courier-BoldOblique findfont
dup length dict begin
  {1 index /FID ne {def} {pop pop} ifelse} forall
  /Encoding WinAnsiEncoding def
  currentdict
end
/Courier-BoldOblique exch definefont pop
/Courier-Bold findfont
dup length dict begin
  {1 index /FID ne {def} {pop pop} ifelse} forall
  /Encoding WinAnsiEncoding def
  currentdict
end
/Courier-Bold exch definefont pop
/Helvetica findfont
dup length dict begin
  {1 index /FID ne {def} {pop pop} ifelse} forall
  /Encoding WinAnsiEncoding def
  currentdict
end
/Helvetica exch definefont pop
/Helvetica-Oblique findfont
dup length dict begin
  {1 index /FID ne {def} {pop pop} ifelse} forall
  /Encoding WinAnsiEncoding def
  currentdict
end
/Helvetica-Oblique exch definefont pop
/Helvetica-Bold findfont
dup length dict begin
  {1 index /FID ne {def} {pop pop} ifelse} forall
  /Encoding WinAnsiEncoding def
  currentdict
end
/Helvetica-Bold exch definefont pop
/Helvetica-BoldOblique findfont
dup length dict begin
  {1 index /FID ne {def} {pop pop} ifelse} forall
  /Encoding WinAnsiEncoding def
  currentdict
end
/Helvetica-BoldOblique exch definefont pop
/Times-Roman findfont
dup length dict begin
  {1 index /FID ne {def} {pop pop} ifelse} forall
  /Encoding WinAnsiEncoding def
  currentdict
end
/Times-Roman exch definefont pop
/Times-Italic findfont
dup length dict begin
  {1 index /FID ne {def} {pop pop} ifelse} forall
  /Encoding WinAnsiEncoding def
  currentdict
end
/Times-Italic exch definefont pop
/Times-Bold findfont
dup length dict begin
  {1 index /FID ne {def} {pop pop} ifelse} forall
  /Encoding WinAnsiEncoding def
  currentdict
end
/Times-Bold exch definefont pop
/Times-BoldItalic findfont
dup length dict begin
  {1 index /FID ne {def} {pop pop} ifelse} forall
  /Encoding WinAnsiEncoding def
  currentdict
end
/Times-BoldItalic exch definefont pop
/Courier findfont
dup length dict begin
  {1 index /FID ne {def} {pop pop} ifelse} forall
  /Encoding WinAnsiEncoding def
  currentdict
end
/Courier exch definefont pop
%FOPEndFontReencode
%%EndProlog
%%Page: 1 1
%%PageBoundingBox: 0 0 420 315
%%BeginPageSetup
[1 0 0 -1 0 315] CT
%%EndPageSetup
GS
[0.6 0 0 0.6 0 0] CT
1 GC
N
0 0 700 525 re
f
GR
GS
[0.6 0 0 0.6 0 0] CT
1 GC
N
0 0 700 525 re
f
GR
GS
[0.6 0 0 0.6 0 0] CT
1 GC
N
91 467 M
634 467 L
634 39 L
91 39 L
cp
f
GR
GS
[0.6 0 0 0.6 0 0] CT
0.873 GC
1 LJ
0.833 LW
N
91 467 M
91 39 L
S
GR
GS
[0.6 0 0 0.6 0 0] CT
0.873 GC
1 LJ
0.833 LW
N
145.3 467 M
145.3 39 L
S
GR
GS
[0.6 0 0 0.6 0 0] CT
0.873 GC
1 LJ
0.833 LW
N
199.6 467 M
199.6 39 L
S
GR
GS
[0.6 0 0 0.6 0 0] CT
0.873 GC
1 LJ
0.833 LW
N
253.9 467 M
253.9 39 L
S
GR
GS
[0.6 0 0 0.6 0 0] CT
0.873 GC
1 LJ
0.833 LW
N
308.2 467 M
308.2 39 L
S
GR
GS
[0.6 0 0 0.6 0 0] CT
0.873 GC
1 LJ
0.833 LW
N
362.5 467 M
362.5 39 L
S
GR
GS
[0.6 0 0 0.6 0 0] CT
0.873 GC
1 LJ
0.833 LW
N
416.8 467 M
416.8 39 L
S
GR
GS
[0.6 0 0 0.6 0 0] CT
0.873 GC
1 LJ
0.833 LW
N
471.1 467 M
471.1 39 L
S
GR
GS
[0.6 0 0 0.6 0 0] CT
0.873 GC
1 LJ
0.833 LW
N
525.4 467 M
525.4 39 L
S
GR
GS
[0.6 0 0 0.6 0 0] CT
0.873 GC
1 LJ
0.833 LW
N
579.7 467 M
579.7 39 L
S
GR
GS
[0.6 0 0 0.6 0 0] CT
0.873 GC
1 LJ
0.833 LW
N
634 467 M
634 39 L
S
GR
GS
[0.6 0 0 0.6 0 0] CT
0.873 GC
1 LJ
0.833 LW
N
634 467 M
91 467 L
S
GR
GS
[0.6 0 0 0.6 0 0] CT
0.873 GC
1 LJ
0.833 LW
N
634 428.091 M
91 428.091 L
S
GR
GS
[0.6 0 0 0.6 0 0] CT
0.873 GC
1 LJ
0.833 LW
N
634 389.182 M
91 389.182 L
S
GR
GS
[0.6 0 0 0.6 0 0] CT
0.873 GC
1 LJ
0.833 LW
N
634 350.273 M
91 350.273 L
S
GR
GS
[0.6 0 0 0.6 0 0] CT
0.873 GC
1 LJ
0.833 LW
N
634 311.364 M
91 311.364 L
S
GR
GS
[0.6 0 0 0.6 0 0] CT
0.873 GC
1 LJ
0.833 LW
N
634 272.455 M
91 272.455 L
S
GR
GS
[0.6 0 0 0.6 0 0] CT
0.873 GC
1 LJ
0.833 LW
N
634 233.545 M
91 233.545 L
S
GR
GS
[0.6 0 0 0.6 0 0] CT
0.873 GC
1 LJ
0.833 LW
N
634 194.636 M
91 194.636 L
S
GR
GS
[0.6 0 0 0.6 0 0] CT
0.873 GC
1 LJ
0.833 LW
N
634 155.727 M
91 155.727 L
S
GR
GS
[0.6 0 0 0.6 0 0] CT
0.873 GC
1 LJ
0.833 LW
N
634 116.818 M
91 116.818 L
S
GR
GS
[0.6 0 0 0.6 0 0] CT
0.873 GC
1 LJ
0.833 LW
N
634 77.909 M
91 77.909 L
S
GR
GS
[0.6 0 0 0.6 0 0] CT
0.873 GC
1 LJ
0.833 LW
N
634 39 M
91 39 L
S
GR
GS
[0.6 0 0 0.6 0 0] CT
0.149 GC
2 setlinecap
1 LJ
0.833 LW
N
91 467 M
634 467 L
S
GR
GS
[0.6 0 0 0.6 0 0] CT
0.149 GC
2 setlinecap
1 LJ
0.833 LW
N
91 39 M
634 39 L
S
GR
GS
[0.6 0 0 0.6 0 0] CT
0.149 GC
2 setlinecap
1 LJ
0.833 LW
N
91 467 M
91 461.57 L
S
GR
GS
[0.6 0 0 0.6 0 0] CT
0.149 GC
2 setlinecap
1 LJ
0.833 LW
N
145.3 467 M
145.3 461.57 L
S
GR
GS
[0.6 0 0 0.6 0 0] CT
0.149 GC
2 setlinecap
1 LJ
0.833 LW
N
199.6 467 M
199.6 461.57 L
S
GR
GS
[0.6 0 0 0.6 0 0] CT
0.149 GC
2 setlinecap
1 LJ
0.833 LW
N
253.9 467 M
253.9 461.57 L
S
GR
GS
[0.6 0 0 0.6 0 0] CT
0.149 GC
2 setlinecap
1 LJ
0.833 LW
N
308.2 467 M
308.2 461.57 L
S
GR
GS
[0.6 0 0 0.6 0 0] CT
0.149 GC
2 setlinecap
1 LJ
0.833 LW
N
362.5 467 M
362.5 461.57 L
S
GR
GS
[0.6 0 0 0.6 0 0] CT
0.149 GC
2 setlinecap
1 LJ
0.833 LW
N
416.8 467 M
416.8 461.57 L
S
GR
GS
[0.6 0 0 0.6 0 0] CT
0.149 GC
2 setlinecap
1 LJ
0.833 LW
N
471.1 467 M
471.1 461.57 L
S
GR
GS
[0.6 0 0 0.6 0 0] CT
0.149 GC
2 setlinecap
1 LJ
0.833 LW
N
525.4 467 M
525.4 461.57 L
S
GR
GS
[0.6 0 0 0.6 0 0] CT
0.149 GC
2 setlinecap
1 LJ
0.833 LW
N
579.7 467 M
579.7 461.57 L
S
GR
GS
[0.6 0 0 0.6 0 0] CT
0.149 GC
2 setlinecap
1 LJ
0.833 LW
N
634 467 M
634 461.57 L
S
GR
GS
[0.6 0 0 0.6 0 0] CT
0.149 GC
2 setlinecap
1 LJ
0.833 LW
N
91 39 M
91 44.43 L
S
GR
GS
[0.6 0 0 0.6 0 0] CT
0.149 GC
2 setlinecap
1 LJ
0.833 LW
N
145.3 39 M
145.3 44.43 L
S
GR
GS
[0.6 0 0 0.6 0 0] CT
0.149 GC
2 setlinecap
1 LJ
0.833 LW
N
199.6 39 M
199.6 44.43 L
S
GR
GS
[0.6 0 0 0.6 0 0] CT
0.149 GC
2 setlinecap
1 LJ
0.833 LW
N
253.9 39 M
253.9 44.43 L
S
GR
GS
[0.6 0 0 0.6 0 0] CT
0.149 GC
2 setlinecap
1 LJ
0.833 LW
N
308.2 39 M
308.2 44.43 L
S
GR
GS
[0.6 0 0 0.6 0 0] CT
0.149 GC
2 setlinecap
1 LJ
0.833 LW
N
362.5 39 M
362.5 44.43 L
S
GR
GS
[0.6 0 0 0.6 0 0] CT
0.149 GC
2 setlinecap
1 LJ
0.833 LW
N
416.8 39 M
416.8 44.43 L
S
GR
GS
[0.6 0 0 0.6 0 0] CT
0.149 GC
2 setlinecap
1 LJ
0.833 LW
N
471.1 39 M
471.1 44.43 L
S
GR
GS
[0.6 0 0 0.6 0 0] CT
0.149 GC
2 setlinecap
1 LJ
0.833 LW
N
525.4 39 M
525.4 44.43 L
S
GR
GS
[0.6 0 0 0.6 0 0] CT
0.149 GC
2 setlinecap
1 LJ
0.833 LW
N
579.7 39 M
579.7 44.43 L
S
GR
GS
[0.6 0 0 0.6 0 0] CT
0.149 GC
2 setlinecap
1 LJ
0.833 LW
N
634 39 M
634 44.43 L
S
GR
GS
[0.6 0 0 0.6 54.6 284.19999] CT
0.149 GC
/Helvetica 16.667 F
GS
[1 0 0 1 0 0] CT
-5 17 moveto 
1 -1 scale
(0) t 
GR
GR
GS
[0.6 0 0 0.6 87.18 284.19999] CT
0.149 GC
/Helvetica 16.667 F
GS
[1 0 0 1 0 0] CT
-5 17 moveto 
1 -1 scale
(1) t 
GR
GR
GS
[0.6 0 0 0.6 119.76 284.19999] CT
0.149 GC
/Helvetica 16.667 F
GS
[1 0 0 1 0 0] CT
-5 17 moveto 
1 -1 scale
(2) t 
GR
GR
GS
[0.6 0 0 0.6 152.34 284.19999] CT
0.149 GC
/Helvetica 16.667 F
GS
[1 0 0 1 0 0] CT
-5 17 moveto 
1 -1 scale
(3) t 
GR
GR
GS
[0.6 0 0 0.6 184.92001 284.19999] CT
0.149 GC
/Helvetica 16.667 F
GS
[1 0 0 1 0 0] CT
-5 17 moveto 
1 -1 scale
(4) t 
GR
GR
GS
[0.6 0 0 0.6 217.5 284.19999] CT
0.149 GC
/Helvetica 16.667 F
GS
[1 0 0 1 0 0] CT
-5 17 moveto 
1 -1 scale
(5) t 
GR
GR
GS
[0.6 0 0 0.6 250.07999 284.19999] CT
0.149 GC
/Helvetica 16.667 F
GS
[1 0 0 1 0 0] CT
-5 17 moveto 
1 -1 scale
(6) t 
GR
GR
GS
[0.6 0 0 0.6 282.66 284.19999] CT
0.149 GC
/Helvetica 16.667 F
GS
[1 0 0 1 0 0] CT
-5 17 moveto 
1 -1 scale
(7) t 
GR
GR
GS
[0.6 0 0 0.6 315.24001 284.19999] CT
0.149 GC
/Helvetica 16.667 F
GS
[1 0 0 1 0 0] CT
-5 17 moveto 
1 -1 scale
(8) t 
GR
GR
GS
[0.6 0 0 0.6 347.82001 284.19999] CT
0.149 GC
/Helvetica 16.667 F
GS
[1 0 0 1 0 0] CT
-5 17 moveto 
1 -1 scale
(9) t 
GR
GR
GS
[0.6 0 0 0.6 380.4 284.19999] CT
0.149 GC
/Helvetica 16.667 F
GS
[1 0 0 1 0 0] CT
-9.5 17 moveto 
1 -1 scale
(10) t 
GR
GR
GS
[0.6 0 0 0.6 217.50015 297.80001] CT
0.149 GC
/Helvetica 18.333 F
GS
[1 0 0 1 0 0] CT
-26 19 moveto 
1 -1 scale
(f [kHz]) t 
GR
GR
GS
[0.6 0 0 0.6 0 0] CT
0.149 GC
2 setlinecap
1 LJ
0.833 LW
N
91 467 M
91 39 L
S
GR
GS
[0.6 0 0 0.6 0 0] CT
0.149 GC
2 setlinecap
1 LJ
0.833 LW
N
634 467 M
634 39 L
S
GR
GS
[0.6 0 0 0.6 0 0] CT
0.149 GC
2 setlinecap
1 LJ
0.833 LW
N
91 467 M
96.43 467 L
S
GR
GS
[0.6 0 0 0.6 0 0] CT
0.149 GC
2 setlinecap
1 LJ
0.833 LW
N
91 428.091 M
96.43 428.091 L
S
GR
GS
[0.6 0 0 0.6 0 0] CT
0.149 GC
2 setlinecap
1 LJ
0.833 LW
N
91 389.182 M
96.43 389.182 L
S
GR
GS
[0.6 0 0 0.6 0 0] CT
0.149 GC
2 setlinecap
1 LJ
0.833 LW
N
91 350.273 M
96.43 350.273 L
S
GR
GS
[0.6 0 0 0.6 0 0] CT
0.149 GC
2 setlinecap
1 LJ
0.833 LW
N
91 311.364 M
96.43 311.364 L
S
GR
GS
[0.6 0 0 0.6 0 0] CT
0.149 GC
2 setlinecap
1 LJ
0.833 LW
N
91 272.455 M
96.43 272.455 L
S
GR
GS
[0.6 0 0 0.6 0 0] CT
0.149 GC
2 setlinecap
1 LJ
0.833 LW
N
91 233.545 M
96.43 233.545 L
S
GR
GS
[0.6 0 0 0.6 0 0] CT
0.149 GC
2 setlinecap
1 LJ
0.833 LW
N
91 194.636 M
96.43 194.636 L
S
GR
GS
[0.6 0 0 0.6 0 0] CT
0.149 GC
2 setlinecap
1 LJ
0.833 LW
N
91 155.727 M
96.43 155.727 L
S
GR
GS
[0.6 0 0 0.6 0 0] CT
0.149 GC
2 setlinecap
1 LJ
0.833 LW
N
91 116.818 M
96.43 116.818 L
S
GR
GS
[0.6 0 0 0.6 0 0] CT
0.149 GC
2 setlinecap
1 LJ
0.833 LW
N
91 77.909 M
96.43 77.909 L
S
GR
GS
[0.6 0 0 0.6 0 0] CT
0.149 GC
2 setlinecap
1 LJ
0.833 LW
N
91 39 M
96.43 39 L
S
GR
GS
[0.6 0 0 0.6 0 0] CT
0.149 GC
2 setlinecap
1 LJ
0.833 LW
N
634 467 M
628.57 467 L
S
GR
GS
[0.6 0 0 0.6 0 0] CT
0.149 GC
2 setlinecap
1 LJ
0.833 LW
N
634 428.091 M
628.57 428.091 L
S
GR
GS
[0.6 0 0 0.6 0 0] CT
0.149 GC
2 setlinecap
1 LJ
0.833 LW
N
634 389.182 M
628.57 389.182 L
S
GR
GS
[0.6 0 0 0.6 0 0] CT
0.149 GC
2 setlinecap
1 LJ
0.833 LW
N
634 350.273 M
628.57 350.273 L
S
GR
GS
[0.6 0 0 0.6 0 0] CT
0.149 GC
2 setlinecap
1 LJ
0.833 LW
N
634 311.364 M
628.57 311.364 L
S
GR
GS
[0.6 0 0 0.6 0 0] CT
0.149 GC
2 setlinecap
1 LJ
0.833 LW
N
634 272.455 M
628.57 272.455 L
S
GR
GS
[0.6 0 0 0.6 0 0] CT
0.149 GC
2 setlinecap
1 LJ
0.833 LW
N
634 233.545 M
628.57 233.545 L
S
GR
GS
[0.6 0 0 0.6 0 0] CT
0.149 GC
2 setlinecap
1 LJ
0.833 LW
N
634 194.636 M
628.57 194.636 L
S
GR
GS
[0.6 0 0 0.6 0 0] CT
0.149 GC
2 setlinecap
1 LJ
0.833 LW
N
634 155.727 M
628.57 155.727 L
S
GR
GS
[0.6 0 0 0.6 0 0] CT
0.149 GC
2 setlinecap
1 LJ
0.833 LW
N
634 116.818 M
628.57 116.818 L
S
GR
GS
[0.6 0 0 0.6 0 0] CT
0.149 GC
2 setlinecap
1 LJ
0.833 LW
N
634 77.909 M
628.57 77.909 L
S
GR
GS
[0.6 0 0 0.6 0 0] CT
0.149 GC
2 setlinecap
1 LJ
0.833 LW
N
634 39 M
628.57 39 L
S
GR
GS
[0.6 0 0 0.6 50.6 280.2] CT
0.149 GC
/Helvetica 16.667 F
GS
[1 0 0 1 0 0] CT
-25 6.5 moveto 
1 -1 scale
(-50) t 
GR
GR
GS
[0.6 0 0 0.6 50.6 256.85455] CT
0.149 GC
/Helvetica 16.667 F
GS
[1 0 0 1 0 0] CT
-25 6.5 moveto 
1 -1 scale
(-45) t 
GR
GR
GS
[0.6 0 0 0.6 50.6 233.50909] CT
0.149 GC
/Helvetica 16.667 F
GS
[1 0 0 1 0 0] CT
-25 6.5 moveto 
1 -1 scale
(-40) t 
GR
GR
GS
[0.6 0 0 0.6 50.6 210.16364] CT
0.149 GC
/Helvetica 16.667 F
GS
[1 0 0 1 0 0] CT
-25 6.5 moveto 
1 -1 scale
(-35) t 
GR
GR
GS
[0.6 0 0 0.6 50.6 186.81819] CT
0.149 GC
/Helvetica 16.667 F
GS
[1 0 0 1 0 0] CT
-25 6.5 moveto 
1 -1 scale
(-30) t 
GR
GR
GS
[0.6 0 0 0.6 50.6 163.47274] CT
0.149 GC
/Helvetica 16.667 F
GS
[1 0 0 1 0 0] CT
-25 6.5 moveto 
1 -1 scale
(-25) t 
GR
GR
GS
[0.6 0 0 0.6 50.6 140.12727] CT
0.149 GC
/Helvetica 16.667 F
GS
[1 0 0 1 0 0] CT
-25 6.5 moveto 
1 -1 scale
(-20) t 
GR
GR
GS
[0.6 0 0 0.6 50.6 116.78182] CT
0.149 GC
/Helvetica 16.667 F
GS
[1 0 0 1 0 0] CT
-25 6.5 moveto 
1 -1 scale
(-15) t 
GR
GR
GS
[0.6 0 0 0.6 50.6 93.43637] CT
0.149 GC
/Helvetica 16.667 F
GS
[1 0 0 1 0 0] CT
-25 6.5 moveto 
1 -1 scale
(-10) t 
GR
GR
GS
[0.6 0 0 0.6 50.6 70.09091] CT
0.149 GC
/Helvetica 16.667 F
GS
[1 0 0 1 0 0] CT
-15 6.5 moveto 
1 -1 scale
(-5) t 
GR
GR
GS
[0.6 0 0 0.6 50.6 46.74545] CT
0.149 GC
/Helvetica 16.667 F
GS
[1 0 0 1 0 0] CT
-10 6.5 moveto 
1 -1 scale
(0) t 
GR
GR
GS
[0.6 0 0 0.6 50.6 23.4] CT
0.149 GC
/Helvetica 16.667 F
GS
[1 0 0 1 0 0] CT
-10 6.5 moveto 
1 -1 scale
(5) t 
GR
GR
GS
[0 -0.6 0.6 0 32.6 151.79987] CT
0.149 GC
/Helvetica 18.333 F
GS
[1 0 0 1 0 0] CT
-30.5 -5 moveto 
1 -1 scale
(|H| [dB]) t 
GR
GR
GS
[0.6 0 0 0.6 0 0] CT
0 0.447 0.741 RC
1 LJ
0.833 LW
N
91 80.041 M
91.25 80.04 L
91.255 80.04 L
91.5 80.038 L
91.505 80.038 L
91.749 80.033 L
91.755 80.033 L
91.999 80.027 L
92.005 80.027 L
92.249 80.019 L
92.254 80.018 L
92.499 80.009 L
92.504 80.008 L
92.748 79.997 L
92.754 79.997 L
92.998 79.983 L
93.004 79.983 L
93.248 79.968 L
93.253 79.968 L
93.498 79.951 L
93.503 79.951 L
93.748 79.932 L
93.753 79.932 L
93.997 79.912 L
94.003 79.911 L
94.247 79.889 L
94.253 79.889 L
94.497 79.865 L
94.502 79.865 L
94.747 79.84 L
94.752 79.839 L
94.996 79.813 L
95.002 79.812 L
95.246 79.784 L
95.252 79.783 L
95.496 79.753 L
95.501 79.753 L
95.746 79.722 L
95.751 79.721 L
95.996 79.688 L
96.001 79.687 L
96.245 79.653 L
96.251 79.652 L
96.495 79.616 L
96.501 79.616 L
96.745 79.579 L
96.75 79.578 L
96.995 79.539 L
97 79.538 L
97.25 79.498 L
97.255 79.497 L
97.5 79.456 L
97.505 79.455 L
97.749 79.412 L
97.755 79.411 L
97.999 79.368 L
98.005 79.367 L
98.249 79.322 L
98.254 79.321 L
98.499 79.275 L
98.504 79.274 L
98.749 79.227 L
98.754 79.225 L
98.998 79.177 L
99.004 79.176 L
99.248 79.127 L
99.254 79.126 L
99.498 79.076 L
99.503 79.074 L
99.748 79.023 L
99.753 79.022 L
99.998 78.97 L
100.003 78.969 L
100.247 78.916 L
100.253 78.915 L
100.497 78.861 L
100.503 78.86 L
100.747 78.805 L
100.752 78.804 L
100.997 78.749 L
101.002 78.748 L
101.246 78.692 L
101.252 78.69 L
101.496 78.634 L
101.502 78.633 L
101.746 78.576 L
101.751 78.574 L
101.996 78.517 L
102.001 78.515 L
102.246 78.457 L
102.251 78.456 L
102.495 78.398 L
102.501 78.396 L
102.745 78.337 L
102.751 78.336 L
102.995 78.277 L
103 78.275 L
103.245 78.216 L
103.25 78.215 L
103.5 78.154 L
103.505 78.152 L
103.75 78.092 L
103.755 78.091 L
103.999 78.031 L
104.005 78.03 L
104.249 77.97 L
104.255 77.968 L
104.499 77.908 L
104.504 77.907 L
104.749 77.847 L
104.754 77.845 L
104.999 77.785 L
105.004 77.784 L
105.248 77.724 L
105.254 77.723 L
105.498 77.663 L
105.504 77.662 L
105.748 77.602 L
105.753 77.601 L
105.998 77.541 L
106.003 77.54 L
106.247 77.481 L
106.253 77.48 L
106.497 77.421 L
106.503 77.42 L
106.747 77.362 L
106.752 77.361 L
106.997 77.303 L
107.002 77.302 L
107.247 77.244 L
107.252 77.243 L
107.496 77.187 L
107.502 77.185 L
107.746 77.129 L
107.752 77.128 L
107.996 77.073 L
108.001 77.071 L
108.246 77.017 L
108.251 77.016 L
108.495 76.962 L
108.501 76.96 L
108.745 76.907 L
108.751 76.906 L
108.995 76.854 L
109 76.853 L
109.245 76.801 L
109.25 76.8 L
109.495 76.749 L
109.5 76.748 L
109.75 76.698 L
109.755 76.696 L
110 76.648 L
110.005 76.647 L
110.249 76.599 L
110.255 76.598 L
110.499 76.552 L
110.505 76.551 L
110.749 76.505 L
110.754 76.504 L
110.999 76.46 L
111.004 76.459 L
111.248 76.416 L
111.254 76.415 L
111.498 76.373 L
111.504 76.372 L
111.748 76.331 L
111.753 76.33 L
111.998 76.291 L
112.003 76.29 L
112.248 76.252 L
112.253 76.251 L
112.497 76.214 L
112.503 76.214 L
112.747 76.178 L
112.753 76.177 L
112.997 76.143 L
113.002 76.143 L
113.247 76.11 L
113.252 76.109 L
113.496 76.078 L
113.502 76.078 L
113.746 76.048 L
113.752 76.047 L
113.996 76.019 L
114.001 76.019 L
114.246 75.992 L
114.251 75.991 L
114.496 75.966 L
114.501 75.966 L
114.745 75.942 L
114.751 75.942 L
114.995 75.92 L
115.001 75.919 L
115.245 75.899 L
115.25 75.898 L
115.495 75.88 L
115.5 75.879 L
115.75 75.862 L
115.755 75.861 L
116 75.846 L
116.005 75.846 L
116.249 75.832 L
116.255 75.832 L
116.499 75.819 L
116.505 75.819 L
116.749 75.809 L
116.754 75.809 L
116.999 75.8 L
117.004 75.8 L
117.249 75.793 L
117.254 75.792 L
117.498 75.787 L
117.504 75.787 L
117.748 75.783 L
117.754 75.783 L
117.998 75.781 L
118.003 75.781 L
118.15 75.781 L
118.248 75.781 L
118.253 75.781 L
118.498 75.783 L
118.503 75.783 L
118.747 75.786 L
118.753 75.786 L
118.997 75.791 L
119.003 75.791 L
119.247 75.798 L
119.252 75.798 L
119.497 75.807 L
119.502 75.807 L
119.746 75.817 L
119.752 75.817 L
119.996 75.829 L
120.002 75.83 L
120.246 75.843 L
120.251 75.843 L
120.496 75.859 L
120.501 75.859 L
120.746 75.876 L
120.751 75.876 L
120.995 75.895 L
121.001 75.895 L
121.245 75.916 L
121.251 75.916 L
121.495 75.938 L
121.5 75.939 L
121.745 75.962 L
121.75 75.963 L
122 75.989 L
122.005 75.989 L
122.25 76.016 L
122.255 76.017 L
122.499 76.045 L
122.505 76.046 L
122.749 76.076 L
122.755 76.076 L
122.999 76.108 L
123.004 76.109 L
123.249 76.142 L
123.254 76.142 L
123.499 76.177 L
123.504 76.178 L
123.748 76.214 L
123.754 76.214 L
123.998 76.252 L
124.004 76.253 L
124.248 76.292 L
124.253 76.293 L
124.498 76.333 L
124.503 76.334 L
124.747 76.375 L
124.753 76.376 L
124.997 76.419 L
125.003 76.42 L
125.247 76.465 L
125.252 76.466 L
125.497 76.511 L
125.502 76.512 L
125.747 76.559 L
125.752 76.56 L
125.996 76.608 L
126.002 76.609 L
126.246 76.658 L
126.252 76.659 L
126.496 76.71 L
126.501 76.711 L
126.746 76.762 L
126.751 76.763 L
126.995 76.816 L
127.001 76.817 L
127.245 76.87 L
127.251 76.871 L
127.495 76.926 L
127.5 76.927 L
127.745 76.982 L
127.75 76.984 L
127.995 77.04 L
128 77.041 L
128.25 77.1 L
128.255 77.101 L
128.5 77.159 L
128.505 77.16 L
128.749 77.219 L
128.755 77.22 L
128.999 77.279 L
129.005 77.281 L
129.249 77.341 L
129.254 77.342 L
129.499 77.403 L
129.504 77.404 L
129.748 77.465 L
129.754 77.467 L
129.998 77.528 L
130.004 77.53 L
130.248 77.592 L
130.253 77.593 L
130.498 77.656 L
130.503 77.658 L
130.748 77.721 L
130.753 77.722 L
130.997 77.785 L
131.003 77.787 L
131.247 77.85 L
131.253 77.852 L
131.497 77.916 L
131.502 77.917 L
131.747 77.981 L
131.752 77.982 L
131.997 78.046 L
132.002 78.048 L
132.246 78.112 L
132.252 78.113 L
132.496 78.178 L
132.501 78.179 L
132.746 78.243 L
132.751 78.245 L
132.996 78.309 L
133.001 78.31 L
133.245 78.374 L
133.251 78.375 L
133.495 78.439 L
133.501 78.44 L
133.745 78.504 L
133.75 78.505 L
133.995 78.568 L
134 78.57 L
134.25 78.634 L
134.255 78.635 L
134.5 78.698 L
134.505 78.699 L
134.75 78.761 L
134.755 78.762 L
134.999 78.823 L
135.005 78.825 L
135.249 78.885 L
135.255 78.887 L
135.499 78.947 L
135.504 78.948 L
135.749 79.007 L
135.754 79.009 L
135.998 79.067 L
136.004 79.069 L
136.248 79.126 L
136.254 79.128 L
136.498 79.185 L
136.503 79.186 L
136.748 79.242 L
136.753 79.243 L
136.998 79.298 L
137.003 79.299 L
137.247 79.354 L
137.253 79.355 L
137.497 79.408 L
137.503 79.409 L
137.747 79.461 L
137.752 79.462 L
137.997 79.513 L
138.002 79.514 L
138.246 79.563 L
138.252 79.565 L
138.496 79.613 L
138.502 79.614 L
138.746 79.661 L
138.751 79.662 L
138.996 79.708 L
139.001 79.709 L
139.246 79.753 L
139.251 79.754 L
139.495 79.797 L
139.501 79.798 L
139.745 79.839 L
139.751 79.84 L
139.995 79.88 L
140 79.881 L
140.245 79.919 L
140.25 79.92 L
140.5 79.958 L
140.505 79.959 L
140.75 79.994 L
140.755 79.995 L
140.999 80.028 L
141.005 80.029 L
141.249 80.061 L
141.255 80.061 L
141.499 80.092 L
141.504 80.092 L
141.749 80.121 L
141.754 80.121 L
141.999 80.148 L
142.004 80.148 L
142.248 80.173 L
142.254 80.174 L
142.498 80.197 L
142.504 80.197 L
142.748 80.218 L
142.753 80.219 L
142.998 80.238 L
143.003 80.238 L
143.247 80.255 L
143.253 80.256 L
143.497 80.271 L
143.503 80.271 L
143.747 80.285 L
143.752 80.285 L
143.997 80.297 L
144.002 80.297 L
144.247 80.306 L
144.252 80.306 L
144.496 80.314 L
144.502 80.314 L
144.746 80.32 L
144.752 80.32 L
144.996 80.323 L
145.001 80.323 L
145.246 80.325 L
145.251 80.325 L
145.3 80.325 L
145.495 80.324 L
145.501 80.324 L
145.745 80.321 L
145.751 80.321 L
145.995 80.317 L
146 80.316 L
146.245 80.31 L
146.25 80.31 L
146.495 80.301 L
146.5 80.301 L
146.75 80.29 L
146.755 80.289 L
147 80.276 L
147.005 80.276 L
147.249 80.261 L
147.255 80.261 L
147.499 80.244 L
147.505 80.244 L
147.749 80.225 L
147.754 80.224 L
147.999 80.204 L
148.004 80.203 L
148.248 80.18 L
148.254 80.18 L
148.498 80.155 L
148.504 80.154 L
148.748 80.128 L
148.753 80.127 L
148.998 80.098 L
149.003 80.098 L
149.248 80.067 L
149.253 80.066 L
149.497 80.034 L
149.503 80.033 L
149.747 79.999 L
149.753 79.998 L
149.997 79.962 L
150.002 79.961 L
150.247 79.923 L
150.252 79.922 L
150.497 79.883 L
150.502 79.882 L
150.746 79.84 L
150.752 79.84 L
150.996 79.796 L
151.001 79.795 L
151.246 79.751 L
151.251 79.75 L
151.496 79.703 L
151.501 79.702 L
151.745 79.654 L
151.751 79.653 L
151.995 79.603 L
152.001 79.602 L
152.245 79.551 L
152.25 79.55 L
152.495 79.497 L
152.5 79.496 L
152.75 79.441 L
152.755 79.44 L
153 79.384 L
153.005 79.383 L
153.25 79.326 L
153.255 79.325 L
153.499 79.267 L
153.505 79.266 L
153.749 79.206 L
153.755 79.205 L
153.999 79.144 L
154.004 79.143 L
154.249 79.081 L
154.254 79.08 L
154.498 79.017 L
154.504 79.016 L
154.748 78.952 L
154.754 78.95 L
154.998 78.886 L
155.003 78.884 L
155.248 78.818 L
155.253 78.817 L
155.498 78.75 L
155.503 78.749 L
155.747 78.681 L
155.753 78.68 L
155.997 78.611 L
156.003 78.61 L
156.247 78.541 L
156.252 78.539 L
156.497 78.47 L
156.502 78.468 L
156.746 78.398 L
156.752 78.396 L
156.996 78.326 L
157.002 78.324 L
157.246 78.253 L
157.251 78.251 L
157.496 78.179 L
157.501 78.178 L
157.746 78.106 L
157.751 78.104 L
157.995 78.032 L
158.001 78.03 L
158.245 77.957 L
158.251 77.956 L
158.495 77.883 L
158.5 77.881 L
158.745 77.808 L
158.75 77.807 L
159 77.732 L
159.005 77.73 L
159.25 77.657 L
159.255 77.656 L
159.499 77.583 L
159.505 77.581 L
159.749 77.508 L
159.755 77.506 L
159.999 77.434 L
160.004 77.432 L
160.249 77.36 L
160.254 77.358 L
160.499 77.286 L
160.504 77.284 L
160.748 77.212 L
160.754 77.211 L
160.998 77.139 L
161.004 77.138 L
161.248 77.067 L
161.253 77.065 L
161.498 76.995 L
161.503 76.993 L
161.747 76.923 L
161.753 76.922 L
161.997 76.853 L
162.003 76.851 L
162.247 76.783 L
162.252 76.781 L
162.497 76.713 L
162.502 76.712 L
162.747 76.645 L
162.752 76.643 L
162.996 76.577 L
163.002 76.576 L
163.246 76.511 L
163.252 76.509 L
163.496 76.445 L
163.501 76.444 L
163.746 76.381 L
163.751 76.379 L
163.995 76.317 L
164.001 76.316 L
164.245 76.255 L
164.251 76.254 L
164.495 76.194 L
164.5 76.193 L
164.745 76.134 L
164.75 76.133 L
164.995 76.076 L
165 76.074 L
165.25 76.017 L
165.255 76.016 L
165.5 75.962 L
165.505 75.961 L
165.749 75.908 L
165.755 75.907 L
165.999 75.855 L
166.005 75.854 L
166.249 75.804 L
166.254 75.803 L
166.499 75.755 L
166.504 75.753 L
166.749 75.707 L
166.754 75.706 L
166.998 75.661 L
167.004 75.66 L
167.248 75.616 L
167.253 75.615 L
167.498 75.574 L
167.503 75.573 L
167.748 75.533 L
167.753 75.532 L
167.997 75.494 L
168.003 75.493 L
168.247 75.457 L
168.253 75.456 L
168.497 75.422 L
168.502 75.421 L
168.747 75.388 L
168.752 75.388 L
168.997 75.357 L
169.002 75.357 L
169.246 75.328 L
169.252 75.327 L
169.496 75.301 L
169.502 75.3 L
169.746 75.276 L
169.751 75.275 L
169.996 75.253 L
170.001 75.252 L
170.245 75.232 L
170.251 75.232 L
170.495 75.213 L
170.501 75.213 L
170.745 75.197 L
170.75 75.197 L
170.995 75.183 L
171 75.182 L
171.25 75.17 L
171.255 75.17 L
171.5 75.161 L
171.505 75.16 L
171.75 75.153 L
171.755 75.153 L
171.999 75.148 L
172.005 75.148 L
172.249 75.145 L
172.255 75.145 L
172.45 75.144 L
172.499 75.144 L
172.504 75.144 L
172.749 75.146 L
172.754 75.146 L
172.998 75.15 L
173.004 75.15 L
173.248 75.156 L
173.254 75.156 L
173.498 75.164 L
173.503 75.165 L
173.748 75.175 L
173.753 75.176 L
173.998 75.189 L
174.003 75.189 L
174.247 75.204 L
174.253 75.204 L
174.497 75.222 L
174.503 75.222 L
174.747 75.242 L
174.752 75.243 L
174.997 75.265 L
175.002 75.265 L
175.246 75.29 L
175.252 75.29 L
175.496 75.317 L
175.502 75.317 L
175.746 75.346 L
175.751 75.347 L
175.996 75.378 L
176.001 75.379 L
176.246 75.412 L
176.251 75.413 L
176.495 75.448 L
176.501 75.449 L
176.745 75.487 L
176.751 75.488 L
176.995 75.528 L
177 75.529 L
177.245 75.571 L
177.25 75.572 L
177.5 75.617 L
177.505 75.618 L
177.75 75.664 L
177.755 75.665 L
177.999 75.714 L
178.005 75.715 L
178.249 75.765 L
178.255 75.767 L
178.499 75.819 L
178.504 75.82 L
178.749 75.875 L
178.754 75.876 L
178.999 75.933 L
179.004 75.934 L
179.248 75.993 L
179.254 75.994 L
179.498 76.054 L
179.504 76.056 L
179.748 76.118 L
179.753 76.12 L
179.998 76.184 L
180.003 76.185 L
180.247 76.251 L
180.253 76.253 L
180.497 76.32 L
180.503 76.322 L
180.747 76.391 L
180.752 76.393 L
180.997 76.464 L
181.002 76.466 L
181.247 76.538 L
181.252 76.54 L
181.496 76.614 L
181.502 76.616 L
181.746 76.692 L
181.752 76.694 L
181.996 76.771 L
182.001 76.773 L
182.246 76.852 L
182.251 76.853 L
182.495 76.934 L
182.501 76.935 L
182.745 77.017 L
182.751 77.019 L
182.995 77.102 L
183 77.103 L
183.245 77.187 L
183.25 77.189 L
183.495 77.274 L
183.5 77.276 L
183.75 77.364 L
183.755 77.366 L
184 77.454 L
184.005 77.456 L
184.249 77.544 L
184.255 77.546 L
184.499 77.635 L
184.505 77.637 L
184.749 77.727 L
184.754 77.729 L
184.999 77.82 L
185.004 77.822 L
185.249 77.913 L
185.254 77.915 L
185.498 78.007 L
185.504 78.009 L
185.748 78.102 L
185.753 78.104 L
185.998 78.197 L
186.003 78.199 L
186.248 78.292 L
186.253 78.294 L
186.497 78.388 L
186.503 78.39 L
186.747 78.484 L
186.753 78.487 L
186.997 78.581 L
187.002 78.583 L
187.247 78.677 L
187.252 78.679 L
187.497 78.774 L
187.502 78.776 L
187.746 78.87 L
187.752 78.872 L
187.996 78.966 L
188.002 78.968 L
188.246 79.062 L
188.251 79.064 L
188.496 79.158 L
188.501 79.16 L
188.745 79.253 L
188.751 79.255 L
188.995 79.348 L
189.001 79.35 L
189.245 79.443 L
189.25 79.445 L
189.495 79.536 L
189.5 79.538 L
189.75 79.631 L
189.755 79.633 L
190 79.723 L
190.005 79.725 L
190.25 79.814 L
190.255 79.816 L
190.499 79.905 L
190.505 79.907 L
190.749 79.994 L
190.755 79.996 L
190.999 80.082 L
191.004 80.084 L
191.249 80.168 L
191.254 80.17 L
191.498 80.254 L
191.504 80.256 L
191.748 80.338 L
191.754 80.34 L
191.998 80.42 L
192.003 80.422 L
192.248 80.501 L
192.253 80.503 L
192.498 80.58 L
192.503 80.582 L
192.747 80.658 L
192.753 80.659 L
192.997 80.733 L
193.003 80.735 L
193.247 80.807 L
193.252 80.809 L
193.497 80.879 L
193.502 80.88 L
193.746 80.948 L
193.752 80.95 L
193.996 81.016 L
194.002 81.017 L
194.246 81.081 L
194.251 81.082 L
194.496 81.144 L
194.501 81.145 L
194.746 81.204 L
194.751 81.205 L
194.995 81.262 L
195.001 81.263 L
195.245 81.318 L
195.251 81.319 L
195.495 81.37 L
195.5 81.372 L
195.745 81.421 L
195.75 81.422 L
196 81.469 L
196.005 81.47 L
196.25 81.514 L
196.255 81.515 L
196.499 81.555 L
196.505 81.556 L
196.749 81.594 L
196.755 81.595 L
196.999 81.63 L
197.004 81.631 L
197.249 81.663 L
197.254 81.663 L
197.499 81.692 L
197.504 81.693 L
197.748 81.719 L
197.754 81.719 L
197.998 81.742 L
198.004 81.742 L
198.248 81.762 L
198.253 81.762 L
198.498 81.779 L
198.503 81.779 L
198.747 81.792 L
198.753 81.792 L
198.997 81.802 L
199.003 81.802 L
199.247 81.809 L
199.252 81.809 L
199.497 81.812 L
199.502 81.812 L
199.6 81.812 L
199.747 81.812 L
199.752 81.812 L
199.996 81.808 L
200.002 81.808 L
200.246 81.8 L
200.252 81.8 L
200.496 81.79 L
200.501 81.789 L
200.746 81.775 L
200.751 81.775 L
200.996 81.757 L
201.001 81.757 L
201.245 81.736 L
201.251 81.735 L
201.495 81.71 L
201.501 81.71 L
201.745 81.682 L
201.75 81.681 L
201.995 81.649 L
202 81.649 L
202.25 81.613 L
202.255 81.612 L
202.5 81.573 L
202.505 81.572 L
202.749 81.53 L
202.755 81.529 L
202.999 81.483 L
203.005 81.482 L
203.249 81.433 L
203.254 81.432 L
203.499 81.379 L
203.504 81.378 L
203.749 81.322 L
203.754 81.32 L
203.998 81.261 L
204.004 81.26 L
204.248 81.197 L
204.254 81.195 L
204.498 81.129 L
204.503 81.128 L
204.748 81.058 L
204.753 81.056 L
204.997 80.984 L
205.003 80.982 L
205.247 80.906 L
205.253 80.904 L
205.497 80.825 L
205.502 80.823 L
205.747 80.741 L
205.752 80.739 L
205.997 80.654 L
206.002 80.652 L
206.246 80.563 L
206.252 80.561 L
206.496 80.47 L
206.502 80.468 L
206.746 80.374 L
206.751 80.371 L
206.996 80.274 L
207.001 80.272 L
207.245 80.172 L
207.251 80.17 L
207.495 80.067 L
207.501 80.065 L
207.745 79.96 L
207.75 79.957 L
207.995 79.85 L
208 79.847 L
208.25 79.734 L
208.255 79.732 L
208.5 79.619 L
208.505 79.617 L
208.75 79.502 L
208.755 79.499 L
208.999 79.382 L
209.005 79.379 L
209.249 79.26 L
209.255 79.257 L
209.499 79.135 L
209.504 79.133 L
209.749 79.009 L
209.754 79.006 L
209.998 78.881 L
210.004 78.878 L
210.248 78.751 L
210.254 78.748 L
210.498 78.619 L
210.503 78.616 L
210.748 78.486 L
210.753 78.483 L
210.998 78.351 L
211.003 78.348 L
211.247 78.214 L
211.253 78.211 L
211.497 78.077 L
211.503 78.074 L
211.747 77.938 L
211.752 77.935 L
211.997 77.798 L
212.002 77.795 L
212.246 77.657 L
212.252 77.654 L
212.496 77.515 L
212.502 77.512 L
212.746 77.372 L
212.751 77.369 L
212.996 77.229 L
213.001 77.226 L
213.246 77.085 L
213.251 77.082 L
213.495 76.94 L
213.501 76.937 L
213.745 76.796 L
213.751 76.793 L
213.995 76.651 L
214 76.648 L
214.245 76.506 L
214.25 76.503 L
214.5 76.358 L
214.505 76.354 L
214.75 76.213 L
214.755 76.21 L
214.999 76.068 L
215.005 76.065 L
215.249 75.924 L
215.255 75.921 L
215.499 75.78 L
215.504 75.777 L
215.749 75.637 L
215.754 75.634 L
215.999 75.495 L
216.004 75.492 L
216.248 75.353 L
216.254 75.35 L
216.498 75.213 L
216.504 75.21 L
216.748 75.073 L
216.753 75.07 L
216.998 74.935 L
217.003 74.932 L
217.247 74.798 L
217.253 74.795 L
217.497 74.662 L
217.503 74.66 L
217.747 74.529 L
217.752 74.526 L
217.997 74.396 L
218.002 74.393 L
218.247 74.266 L
218.252 74.263 L
218.496 74.137 L
218.502 74.135 L
218.746 74.011 L
218.752 74.008 L
218.996 73.886 L
219.001 73.884 L
219.246 73.764 L
219.251 73.762 L
219.496 73.645 L
219.501 73.642 L
219.745 73.527 L
219.751 73.525 L
219.995 73.413 L
220.001 73.41 L
220.245 73.301 L
220.25 73.299 L
220.495 73.192 L
220.5 73.19 L
220.75 73.084 L
220.755 73.081 L
221 72.981 L
221.005 72.979 L
221.249 72.881 L
221.255 72.879 L
221.499 72.785 L
221.505 72.783 L
221.749 72.692 L
221.754 72.69 L
221.999 72.602 L
222.004 72.6 L
222.249 72.516 L
222.254 72.514 L
222.498 72.434 L
222.504 72.432 L
222.748 72.356 L
222.754 72.354 L
222.998 72.281 L
223.003 72.28 L
223.248 72.211 L
223.253 72.209 L
223.497 72.145 L
223.503 72.143 L
223.747 72.083 L
223.753 72.081 L
223.997 72.025 L
224.002 72.024 L
224.247 71.972 L
224.252 71.971 L
224.497 71.924 L
224.502 71.923 L
224.746 71.88 L
224.752 71.879 L
224.996 71.841 L
225.002 71.84 L
225.246 71.806 L
225.251 71.806 L
225.496 71.777 L
225.501 71.777 L
225.745 71.753 L
225.751 71.753 L
225.995 71.734 L
226.001 71.734 L
226.245 71.72 L
226.25 71.72 L
226.495 71.712 L
226.5 71.712 L
226.745 71.709 L
226.75 71.709 L
227 71.712 L
227.005 71.712 L
227.25 71.72 L
227.255 71.721 L
227.499 71.735 L
227.505 71.735 L
227.749 71.755 L
227.755 71.755 L
227.999 71.781 L
228.004 71.781 L
228.249 71.813 L
228.254 71.813 L
228.498 71.851 L
228.504 71.852 L
228.748 71.895 L
228.754 71.896 L
228.998 71.946 L
229.003 71.947 L
229.248 72.003 L
229.253 72.004 L
229.498 72.066 L
229.503 72.068 L
229.747 72.136 L
229.753 72.138 L
229.997 72.213 L
230.003 72.215 L
230.247 72.297 L
230.252 72.299 L
230.497 72.387 L
230.502 72.389 L
230.746 72.484 L
230.752 72.486 L
230.996 72.589 L
231.002 72.591 L
231.246 72.7 L
231.251 72.702 L
231.496 72.818 L
231.501 72.821 L
231.746 72.944 L
231.751 72.947 L
231.995 73.078 L
232.001 73.081 L
232.245 73.218 L
232.251 73.221 L
232.495 73.366 L
232.5 73.37 L
232.745 73.522 L
232.75 73.526 L
233 73.69 L
233.005 73.693 L
233.25 73.861 L
233.255 73.865 L
233.499 74.041 L
233.505 74.045 L
233.749 74.228 L
233.755 74.232 L
233.999 74.423 L
234.004 74.428 L
234.249 74.627 L
234.254 74.632 L
234.499 74.839 L
234.504 74.844 L
234.748 75.059 L
234.754 75.064 L
234.998 75.288 L
235.004 75.293 L
235.248 75.525 L
235.253 75.53 L
235.498 75.771 L
235.503 75.776 L
235.748 76.025 L
235.753 76.031 L
235.997 76.288 L
236.003 76.294 L
236.247 76.56 L
236.253 76.566 L
236.497 76.841 L
236.502 76.848 L
236.747 77.132 L
236.752 77.138 L
236.996 77.431 L
237.002 77.437 L
237.246 77.739 L
237.252 77.746 L
237.496 78.057 L
237.501 78.064 L
237.746 78.384 L
237.751 78.391 L
237.996 78.721 L
238.001 78.728 L
238.245 79.067 L
238.251 79.075 L
238.495 79.423 L
238.501 79.431 L
238.745 79.789 L
238.75 79.797 L
238.995 80.165 L
239 80.173 L
239.25 80.559 L
239.255 80.568 L
239.5 80.955 L
239.505 80.964 L
239.749 81.362 L
239.755 81.371 L
239.999 81.778 L
240.005 81.788 L
240.249 82.206 L
240.254 82.215 L
240.499 82.643 L
240.504 82.653 L
240.749 83.091 L
240.754 83.101 L
240.998 83.55 L
241.004 83.561 L
241.248 84.02 L
241.254 84.031 L
241.498 84.501 L
241.503 84.512 L
241.748 84.993 L
241.753 85.004 L
241.997 85.496 L
242.003 85.507 L
242.247 86.011 L
242.253 86.022 L
242.497 86.537 L
242.502 86.548 L
242.747 87.074 L
242.752 87.086 L
242.997 87.624 L
243.002 87.636 L
243.246 88.185 L
243.252 88.197 L
243.496 88.758 L
243.502 88.771 L
243.746 89.343 L
243.751 89.356 L
243.996 89.941 L
244.001 89.954 L
244.245 90.55 L
244.251 90.564 L
244.495 91.173 L
244.501 91.186 L
244.745 91.808 L
244.75 91.822 L
244.995 92.456 L
245 92.47 L
245.245 93.116 L
245.25 93.131 L
245.5 93.805 L
245.505 93.82 L
245.75 94.493 L
245.755 94.508 L
245.999 95.194 L
246.005 95.209 L
246.249 95.908 L
246.255 95.924 L
246.499 96.637 L
246.504 96.653 L
246.749 97.379 L
246.754 97.395 L
246.998 98.136 L
247.004 98.152 L
247.248 98.906 L
247.254 98.923 L
247.498 99.692 L
247.503 99.709 L
247.748 100.492 L
247.753 100.51 L
247.998 101.307 L
248.003 101.325 L
248.247 102.137 L
248.253 102.156 L
248.497 102.983 L
248.503 103.002 L
248.747 103.844 L
248.752 103.863 L
248.997 104.721 L
249.002 104.741 L
249.246 105.614 L
249.252 105.634 L
249.496 106.524 L
249.502 106.544 L
249.746 107.45 L
249.751 107.47 L
249.996 108.393 L
250.001 108.413 L
250.246 109.352 L
250.251 109.373 L
250.495 110.33 L
250.501 110.351 L
250.745 111.324 L
250.751 111.346 L
250.995 112.337 L
251 112.359 L
251.245 113.368 L
251.25 113.391 L
251.5 114.441 L
251.505 114.464 L
251.75 115.509 L
251.755 115.533 L
251.999 116.597 L
252.005 116.621 L
252.249 117.705 L
252.255 117.729 L
252.499 118.832 L
252.504 118.857 L
252.749 119.98 L
252.754 120.006 L
252.999 121.149 L
253.004 121.175 L
253.248 122.339 L
253.254 122.365 L
253.498 123.55 L
253.504 123.577 L
253.748 124.783 L
253.753 124.81 L
253.998 126.039 L
254.003 126.067 L
254.248 127.318 L
254.253 127.346 L
254.497 128.62 L
254.503 128.649 L
254.747 129.946 L
254.753 129.975 L
254.997 131.297 L
255.002 131.326 L
255.247 132.673 L
255.252 132.703 L
255.496 134.074 L
255.502 134.105 L
255.746 135.502 L
255.752 135.533 L
255.996 136.957 L
256.001 136.989 L
256.246 138.44 L
256.251 138.472 L
256.496 139.951 L
256.501 139.984 L
256.745 141.491 L
256.751 141.525 L
256.995 143.061 L
257.001 143.096 L
257.245 144.662 L
257.25 144.697 L
257.495 146.295 L
257.5 146.331 L
257.75 147.997 L
257.755 148.034 L
258 149.697 L
258.005 149.735 L
258.249 151.432 L
258.255 151.47 L
258.499 153.203 L
258.505 153.242 L
258.749 155.011 L
258.754 155.051 L
258.999 156.857 L
259.004 156.898 L
259.249 158.743 L
259.254 158.785 L
259.498 160.67 L
259.504 160.713 L
259.748 162.64 L
259.754 162.683 L
259.998 164.654 L
260.003 164.698 L
260.248 166.714 L
260.253 166.76 L
260.497 168.822 L
260.503 168.869 L
260.747 170.98 L
260.753 171.028 L
260.997 173.19 L
261.002 173.239 L
261.247 175.454 L
261.252 175.504 L
261.497 177.776 L
261.502 177.827 L
261.746 180.156 L
261.752 180.209 L
261.996 182.6 L
262.002 182.654 L
262.246 185.109 L
262.251 185.164 L
262.496 187.687 L
262.501 187.744 L
262.745 190.338 L
262.751 190.396 L
262.995 193.066 L
263.001 193.126 L
263.245 195.876 L
263.25 195.938 L
263.495 198.773 L
263.5 198.837 L
263.745 201.762 L
263.75 201.828 L
264 204.917 L
264.005 204.985 L
264.25 208.112 L
264.255 208.183 L
264.499 211.42 L
264.505 211.493 L
264.749 214.85 L
264.755 214.926 L
264.999 218.411 L
265.004 218.49 L
265.249 222.115 L
265.254 222.197 L
265.498 225.974 L
265.504 226.06 L
265.748 230.003 L
265.754 230.093 L
265.998 234.219 L
266.003 234.313 L
266.248 238.641 L
266.253 238.739 L
266.498 243.291 L
266.503 243.395 L
266.747 248.198 L
266.753 248.308 L
266.997 253.395 L
267.003 253.511 L
267.247 258.919 L
267.252 259.044 L
267.497 264.822 L
267.502 264.954 L
267.747 271.162 L
267.752 271.305 L
267.996 278.017 L
268.002 278.173 L
268.246 285.488 L
268.251 285.658 L
268.496 293.707 L
268.501 293.895 L
268.746 302.858 L
268.751 303.069 L
268.995 313.2 L
269.001 313.44 L
269.245 325.122 L
269.251 325.403 L
269.495 339.246 L
269.5 339.584 L
269.745 356.651 L
269.75 357.079 L
270 380.076 L
270.005 380.667 L
270.25 414.088 L
270.255 415.044 L
270.443 467.051 L
S
GR
GS
[0.6 0 0 0.6 0 0] CT
0 0.447 0.741 RC
1 LJ
0.833 LW
N
270.864 467.051 M
270.999 423.996 L
271.005 422.989 L
271.249 388.879 L
271.254 388.295 L
271.499 366.433 L
271.504 366.025 L
271.748 350.041 L
271.754 349.73 L
271.998 337.213 L
272.004 336.964 L
272.248 326.741 L
272.253 326.533 L
272.498 317.942 L
272.503 317.766 L
272.748 310.396 L
272.753 310.243 L
272.997 303.824 L
273.003 303.69 L
273.247 298.032 L
273.253 297.913 L
273.497 292.88 L
273.502 292.774 L
273.747 288.263 L
273.752 288.168 L
273.996 284.1 L
274.002 284.014 L
274.246 280.329 L
274.252 280.25 L
274.496 276.898 L
274.501 276.827 L
274.746 273.768 L
274.751 273.703 L
274.996 270.905 L
275.001 270.845 L
275.245 268.28 L
275.251 268.226 L
275.495 265.871 L
275.501 265.821 L
275.745 263.658 L
275.75 263.612 L
275.995 261.624 L
276 261.582 L
276.25 259.716 L
276.255 259.677 L
276.5 258.001 L
276.505 257.965 L
276.749 256.427 L
276.755 256.394 L
276.999 254.984 L
277.005 254.954 L
277.249 253.663 L
277.254 253.636 L
277.499 252.458 L
277.504 252.433 L
277.749 251.361 L
277.754 251.339 L
277.998 250.367 L
278.004 250.347 L
278.248 249.471 L
278.254 249.452 L
278.498 248.667 L
278.503 248.651 L
278.748 247.952 L
278.753 247.938 L
278.997 247.322 L
279.003 247.309 L
279.247 246.774 L
279.253 246.763 L
279.497 246.304 L
279.502 246.294 L
279.747 245.91 L
279.752 245.902 L
279.997 245.589 L
280.002 245.583 L
280.246 245.339 L
280.252 245.335 L
280.496 245.159 L
280.502 245.156 L
280.746 245.047 L
280.751 245.045 L
280.996 245 L
281.001 245 L
281.05 244.999 L
281.245 245.018 L
281.251 245.019 L
281.495 245.1 L
281.501 245.102 L
281.745 245.244 L
281.75 245.248 L
281.995 245.449 L
282 245.454 L
282.245 245.716 L
282.25 245.722 L
282.5 246.05 L
282.505 246.058 L
282.75 246.437 L
282.755 246.446 L
282.999 246.884 L
283.005 246.894 L
283.249 247.39 L
283.255 247.402 L
283.499 247.955 L
283.504 247.968 L
283.749 248.579 L
283.754 248.593 L
283.999 249.261 L
284.004 249.277 L
284.248 250.003 L
284.254 250.02 L
284.498 250.805 L
284.503 250.823 L
284.748 251.667 L
284.753 251.687 L
284.998 252.59 L
285.003 252.611 L
285.247 253.574 L
285.253 253.596 L
285.497 254.621 L
285.503 254.644 L
285.747 255.73 L
285.752 255.755 L
285.997 256.905 L
286.002 256.931 L
286.247 258.145 L
286.252 258.173 L
286.496 259.452 L
286.502 259.482 L
286.746 260.829 L
286.751 260.86 L
286.996 262.276 L
287.001 262.309 L
287.246 263.797 L
287.251 263.83 L
287.495 265.392 L
287.501 265.428 L
287.745 267.065 L
287.751 267.103 L
287.995 268.82 L
288 268.859 L
288.245 270.658 L
288.25 270.698 L
288.5 272.626 L
288.505 272.669 L
288.75 274.645 L
288.755 274.69 L
289 276.759 L
289.005 276.806 L
289.249 278.975 L
289.255 279.024 L
289.499 281.296 L
289.505 281.348 L
289.749 283.73 L
289.754 283.784 L
289.999 286.283 L
290.004 286.34 L
290.248 288.963 L
290.254 289.023 L
290.498 291.779 L
290.504 291.842 L
290.748 294.741 L
290.753 294.807 L
290.998 297.859 L
291.003 297.929 L
291.248 301.149 L
291.253 301.222 L
291.497 304.623 L
291.503 304.701 L
291.747 308.301 L
291.753 308.383 L
291.997 312.202 L
292.002 312.29 L
292.247 316.352 L
292.252 316.445 L
292.496 320.779 L
292.502 320.878 L
292.746 325.518 L
292.752 325.625 L
292.996 330.612 L
293.001 330.727 L
293.246 336.115 L
293.251 336.24 L
293.496 342.093 L
293.501 342.229 L
293.745 348.632 L
293.751 348.781 L
293.995 355.843 L
294.001 356.008 L
294.245 363.878 L
294.25 364.063 L
294.495 372.947 L
294.5 373.157 L
294.75 383.599 L
294.755 383.844 L
295 395.861 L
295.005 396.153 L
295.249 410.723 L
295.255 411.083 L
295.499 429.614 L
295.505 430.088 L
295.749 455.63 L
295.754 456.32 L
295.818 467.051 L
S
GR
GS
[0.6 0 0 0.6 0 0] CT
0 0.447 0.741 RC
1 LJ
0.833 LW
N
296.759 467.051 M
296.998 439.479 L
297.003 438.973 L
297.248 419.516 L
297.253 419.144 L
297.497 404.332 L
297.503 404.04 L
297.747 392.122 L
297.753 391.882 L
297.997 381.946 L
298.002 381.742 L
298.247 373.25 L
298.252 373.074 L
298.497 365.683 L
298.502 365.529 L
298.746 359.005 L
298.752 358.869 L
298.996 353.049 L
299.002 352.926 L
299.246 347.689 L
299.251 347.579 L
299.496 342.832 L
299.501 342.732 L
299.745 338.406 L
299.751 338.314 L
299.995 334.352 L
300.001 334.267 L
300.245 330.624 L
300.25 330.547 L
300.495 327.186 L
300.5 327.114 L
300.745 324.006 L
300.75 323.939 L
301 320.996 L
301.005 320.934 L
301.25 318.262 L
301.255 318.205 L
301.499 315.72 L
301.505 315.667 L
301.749 313.352 L
301.755 313.303 L
301.999 311.147 L
302.004 311.1 L
302.249 309.09 L
302.254 309.047 L
302.499 307.173 L
302.504 307.133 L
302.748 305.386 L
302.754 305.348 L
302.998 303.72 L
303.003 303.685 L
303.248 302.169 L
303.253 302.137 L
303.498 300.726 L
303.503 300.696 L
303.747 299.386 L
303.753 299.358 L
303.997 298.144 L
304.003 298.118 L
304.247 296.994 L
304.252 296.97 L
304.497 295.933 L
304.502 295.911 L
304.747 294.957 L
304.752 294.937 L
304.996 294.063 L
305.002 294.045 L
305.246 293.248 L
305.251 293.231 L
305.496 292.509 L
305.501 292.493 L
305.746 291.843 L
305.751 291.83 L
305.995 291.249 L
306.001 291.237 L
306.245 290.725 L
306.251 290.714 L
306.495 290.268 L
306.5 290.259 L
306.745 289.877 L
306.75 289.869 L
307 289.544 L
307.005 289.538 L
307.25 289.283 L
307.255 289.278 L
307.5 289.084 L
307.505 289.08 L
307.749 288.946 L
307.755 288.943 L
307.999 288.868 L
308.005 288.867 L
308.2 288.849 L
308.249 288.85 L
308.254 288.85 L
308.499 288.891 L
308.504 288.893 L
308.748 288.99 L
308.754 288.993 L
308.998 289.148 L
309.004 289.152 L
309.248 289.363 L
309.253 289.369 L
309.498 289.636 L
309.503 289.643 L
309.748 289.967 L
309.753 289.975 L
309.997 290.355 L
310.003 290.364 L
310.247 290.801 L
310.253 290.811 L
310.497 291.305 L
310.502 291.316 L
310.747 291.867 L
310.752 291.88 L
310.996 292.487 L
311.002 292.502 L
311.246 293.167 L
311.252 293.183 L
311.496 293.907 L
311.501 293.924 L
311.746 294.708 L
311.751 294.726 L
311.996 295.57 L
312.001 295.589 L
312.245 296.495 L
312.251 296.516 L
312.495 297.484 L
312.501 297.506 L
312.745 298.537 L
312.75 298.561 L
312.995 299.658 L
313 299.683 L
313.25 300.873 L
313.255 300.9 L
313.5 302.134 L
313.505 302.162 L
313.749 303.467 L
313.755 303.497 L
313.999 304.874 L
314.005 304.906 L
314.249 306.359 L
314.254 306.392 L
314.499 307.923 L
314.504 307.958 L
314.749 309.571 L
314.754 309.607 L
314.998 311.304 L
315.004 311.343 L
315.248 313.129 L
315.254 313.169 L
315.498 315.047 L
315.503 315.09 L
315.748 317.065 L
315.753 317.11 L
315.997 319.188 L
316.003 319.235 L
316.247 321.421 L
316.253 321.47 L
316.497 323.77 L
316.502 323.823 L
316.747 326.245 L
316.752 326.3 L
316.997 328.852 L
317.002 328.91 L
317.246 331.602 L
317.252 331.663 L
317.496 334.505 L
317.502 334.57 L
317.746 337.574 L
317.751 337.643 L
317.996 340.823 L
318.001 340.896 L
318.245 344.269 L
318.251 344.347 L
318.495 347.932 L
318.501 348.014 L
318.745 351.834 L
318.75 351.921 L
318.995 356.002 L
319 356.096 L
319.245 360.47 L
319.25 360.571 L
319.5 365.386 L
319.505 365.495 L
319.75 370.59 L
319.755 370.708 L
319.999 376.246 L
320.005 376.374 L
320.249 382.43 L
320.255 382.572 L
320.499 389.247 L
320.504 389.403 L
320.749 396.83 L
320.754 397.005 L
320.999 405.368 L
321.004 405.566 L
321.248 415.127 L
321.254 415.356 L
321.498 426.51 L
321.503 426.78 L
321.748 440.16 L
321.753 440.489 L
321.998 457.206 L
322.003 457.628 L
322.106 467.051 L
S
GR
GS
[0.6 0 0 0.6 0 0] CT
0 0.447 0.741 RC
1 LJ
0.833 LW
N
323.669 467.051 M
323.746 460.122 L
323.752 459.707 L
323.996 443.341 L
324.001 443.02 L
324.246 430.047 L
324.251 429.787 L
324.495 419.068 L
324.501 418.85 L
324.745 409.742 L
324.751 409.555 L
324.995 401.657 L
325 401.493 L
325.245 394.539 L
325.25 394.393 L
325.5 388.067 L
325.505 387.937 L
325.75 382.376 L
325.755 382.258 L
326 377.218 L
326.005 377.111 L
326.249 372.513 L
326.255 372.415 L
326.499 368.2 L
326.505 368.11 L
326.749 364.228 L
326.754 364.146 L
326.999 360.558 L
327.004 360.482 L
327.248 357.157 L
327.254 357.086 L
327.498 353.996 L
327.504 353.93 L
327.748 351.053 L
327.753 350.991 L
327.998 348.308 L
328.003 348.25 L
328.248 345.744 L
328.253 345.69 L
328.497 343.346 L
328.503 343.296 L
328.747 341.103 L
328.753 341.056 L
328.997 339.003 L
329.002 338.959 L
329.247 337.036 L
329.252 336.995 L
329.496 335.194 L
329.502 335.155 L
329.746 333.469 L
329.752 333.433 L
329.996 331.856 L
330.001 331.822 L
330.246 330.347 L
330.251 330.315 L
330.496 328.938 L
330.501 328.908 L
330.745 327.623 L
330.751 327.595 L
330.995 326.399 L
331.001 326.373 L
331.245 325.261 L
331.25 325.238 L
331.495 324.207 L
331.5 324.185 L
331.75 323.212 L
331.755 323.192 L
332 322.317 L
332.005 322.298 L
332.249 321.496 L
332.255 321.479 L
332.499 320.747 L
332.505 320.732 L
332.749 320.069 L
332.754 320.055 L
332.999 319.459 L
333.004 319.446 L
333.249 318.915 L
333.254 318.904 L
333.498 318.437 L
333.504 318.427 L
333.748 318.022 L
333.754 318.014 L
333.998 317.67 L
334.003 317.663 L
334.248 317.38 L
334.253 317.374 L
334.497 317.15 L
334.503 317.145 L
334.747 316.979 L
334.753 316.976 L
334.997 316.868 L
335.002 316.866 L
335.247 316.815 L
335.252 316.814 L
335.35 316.81 L
335.497 316.82 L
335.502 316.821 L
335.746 316.883 L
335.752 316.885 L
335.996 317.002 L
336.002 317.006 L
336.246 317.179 L
336.251 317.184 L
336.496 317.413 L
336.501 317.419 L
336.746 317.705 L
336.751 317.712 L
336.995 318.053 L
337.001 318.061 L
337.245 318.459 L
337.25 318.468 L
337.495 318.922 L
337.5 318.933 L
337.745 319.444 L
337.75 319.456 L
338 320.038 L
338.005 320.051 L
338.25 320.679 L
338.255 320.694 L
338.499 321.38 L
338.505 321.396 L
338.749 322.143 L
338.755 322.16 L
338.999 322.967 L
339.004 322.986 L
339.249 323.855 L
339.254 323.875 L
339.499 324.807 L
339.504 324.828 L
339.748 325.825 L
339.754 325.848 L
339.998 326.91 L
340.004 326.935 L
340.248 328.065 L
340.253 328.091 L
340.498 329.291 L
340.503 329.319 L
340.747 330.591 L
340.753 330.62 L
340.997 331.967 L
341.003 331.998 L
341.247 333.421 L
341.252 333.454 L
341.497 334.957 L
341.502 334.991 L
341.747 336.578 L
341.752 336.614 L
341.996 338.287 L
342.002 338.326 L
342.246 340.09 L
342.252 340.13 L
342.496 341.989 L
342.501 342.031 L
342.746 343.99 L
342.751 344.035 L
342.995 346.1 L
343.001 346.147 L
343.245 348.323 L
343.251 348.373 L
343.495 350.668 L
343.5 350.72 L
343.745 353.142 L
343.75 353.197 L
344 355.812 L
344.005 355.871 L
344.25 358.576 L
344.255 358.638 L
344.5 361.501 L
344.505 361.566 L
344.749 364.599 L
344.755 364.669 L
344.999 367.888 L
345.005 367.961 L
345.249 371.384 L
345.254 371.463 L
345.499 375.11 L
345.504 375.194 L
345.748 379.09 L
345.754 379.18 L
345.998 383.356 L
346.004 383.452 L
346.248 387.944 L
346.253 388.047 L
346.498 392.898 L
346.503 393.01 L
346.748 398.275 L
346.753 398.397 L
346.997 404.144 L
347.003 404.278 L
347.247 410.596 L
347.253 410.744 L
347.497 417.752 L
347.502 417.916 L
347.747 425.772 L
347.752 425.957 L
347.996 434.884 L
348.002 435.096 L
348.246 445.422 L
348.252 445.67 L
348.496 457.904 L
348.501 458.202 L
348.646 467.051 L
S
GR
GS
[0.6 0 0 0.6 0 0] CT
0 0.447 0.741 RC
1 LJ
0.833 LW
N
350.855 467.051 M
350.999 458.614 L
351.005 458.33 L
351.249 446.702 L
351.254 446.466 L
351.499 436.678 L
351.504 436.477 L
351.749 428.046 L
351.754 427.871 L
351.998 420.482 L
352.004 420.328 L
352.248 413.767 L
352.254 413.629 L
352.498 407.743 L
352.503 407.619 L
352.748 402.293 L
352.753 402.18 L
352.997 397.329 L
353.003 397.226 L
353.247 392.783 L
353.253 392.688 L
353.497 388.598 L
353.503 388.511 L
353.747 384.732 L
353.752 384.651 L
353.997 381.148 L
354.002 381.073 L
354.246 377.817 L
354.252 377.747 L
354.496 374.713 L
354.502 374.648 L
354.746 371.815 L
354.751 371.755 L
354.996 369.106 L
355.001 369.049 L
355.246 366.57 L
355.251 366.516 L
355.495 364.193 L
355.501 364.143 L
355.745 361.963 L
355.751 361.916 L
355.995 359.872 L
356 359.828 L
356.245 357.909 L
356.25 357.867 L
356.5 356.028 L
356.505 355.989 L
356.75 354.301 L
356.755 354.265 L
356.999 352.683 L
357.005 352.649 L
357.249 351.165 L
357.255 351.134 L
357.499 349.745 L
357.504 349.715 L
357.749 348.417 L
357.754 348.389 L
357.999 347.177 L
358.004 347.151 L
358.248 346.022 L
358.254 345.998 L
358.498 344.948 L
358.504 344.925 L
358.748 343.952 L
358.753 343.931 L
358.998 343.032 L
359.003 343.013 L
359.247 342.186 L
359.253 342.168 L
359.497 341.41 L
359.503 341.394 L
359.747 340.704 L
359.752 340.689 L
359.997 340.065 L
360.002 340.052 L
360.247 339.491 L
360.252 339.48 L
360.496 338.982 L
360.502 338.972 L
360.746 338.536 L
360.752 338.527 L
360.996 338.152 L
361.001 338.145 L
361.246 337.829 L
361.251 337.823 L
361.495 337.566 L
361.501 337.561 L
361.745 337.362 L
361.751 337.358 L
361.995 337.216 L
362 337.214 L
362.245 337.129 L
362.25 337.127 L
362.495 337.099 L
362.5 337.099 L
362.75 337.127 L
362.755 337.128 L
363 337.213 L
363.005 337.215 L
363.249 337.355 L
363.255 337.359 L
363.499 337.555 L
363.505 337.56 L
363.749 337.811 L
363.754 337.817 L
363.999 338.124 L
364.004 338.132 L
364.248 338.495 L
364.254 338.503 L
364.498 338.923 L
364.504 338.933 L
364.748 339.409 L
364.753 339.421 L
364.998 339.954 L
365.003 339.967 L
365.248 340.559 L
365.253 340.573 L
365.497 341.224 L
365.503 341.239 L
365.747 341.949 L
365.753 341.966 L
365.997 342.737 L
366.002 342.755 L
366.247 343.588 L
366.252 343.607 L
366.496 344.504 L
366.502 344.525 L
366.746 345.486 L
366.752 345.508 L
366.996 346.535 L
367.001 346.559 L
367.246 347.654 L
367.251 347.679 L
367.496 348.845 L
367.501 348.872 L
367.745 350.109 L
367.751 350.138 L
367.995 351.45 L
368.001 351.48 L
368.245 352.87 L
368.25 352.901 L
368.495 354.371 L
368.5 354.405 L
368.75 355.994 L
368.755 356.029 L
369 357.672 L
369.005 357.709 L
369.249 359.443 L
369.255 359.483 L
369.499 361.312 L
369.505 361.354 L
369.749 363.285 L
369.754 363.329 L
369.999 365.366 L
370.004 365.412 L
370.249 367.562 L
370.254 367.611 L
370.498 369.88 L
370.504 369.932 L
370.748 372.329 L
370.754 372.384 L
370.998 374.918 L
371.003 374.976 L
371.248 377.656 L
371.253 377.718 L
371.497 380.557 L
371.503 380.622 L
371.747 383.634 L
371.753 383.703 L
371.997 386.903 L
372.003 386.976 L
372.247 390.382 L
372.252 390.46 L
372.497 394.093 L
372.502 394.177 L
372.746 398.063 L
372.752 398.152 L
372.996 402.322 L
373.002 402.418 L
373.246 406.908 L
373.251 407.011 L
373.496 411.866 L
373.501 411.979 L
373.746 417.255 L
373.751 417.378 L
373.995 423.146 L
374.001 423.281 L
374.245 429.634 L
374.251 429.782 L
374.495 436.841 L
374.5 437.007 L
374.745 444.937 L
374.75 445.125 L
375 454.374 L
375.005 454.59 L
375.25 465.11 L
375.255 465.363 L
375.288 467.051 L
S
GR
GS
[0.6 0 0 0.6 0 0] CT
0 0.447 0.741 RC
1 LJ
0.833 LW
N
378.158 467.051 M
378.247 462.913 L
378.252 462.681 L
378.497 453.038 L
378.502 452.84 L
378.747 444.508 L
378.752 444.335 L
378.996 437.015 L
379.002 436.862 L
379.246 430.349 L
379.252 430.212 L
379.496 424.358 L
379.501 424.235 L
379.746 418.93 L
379.751 418.818 L
379.995 413.978 L
380.001 413.875 L
380.245 409.436 L
380.251 409.342 L
380.495 405.251 L
380.5 405.163 L
380.745 401.379 L
380.75 401.298 L
380.995 397.785 L
381 397.71 L
381.25 394.371 L
381.255 394.301 L
381.5 391.256 L
381.505 391.191 L
381.749 388.345 L
381.755 388.284 L
381.999 385.619 L
382.005 385.562 L
382.249 383.065 L
382.254 383.011 L
382.499 380.668 L
382.504 380.618 L
382.748 378.418 L
382.754 378.37 L
382.998 376.304 L
383.004 376.259 L
383.248 374.317 L
383.253 374.275 L
383.498 372.45 L
383.503 372.411 L
383.748 370.696 L
383.753 370.659 L
383.997 369.048 L
384.003 369.013 L
384.247 367.502 L
384.253 367.469 L
384.497 366.051 L
384.502 366.021 L
384.747 364.693 L
384.752 364.664 L
384.996 363.422 L
385.002 363.396 L
385.246 362.236 L
385.252 362.211 L
385.496 361.13 L
385.501 361.107 L
385.746 360.103 L
385.751 360.081 L
385.996 359.151 L
386.001 359.131 L
386.245 358.272 L
386.251 358.253 L
386.495 357.463 L
386.501 357.447 L
386.745 356.724 L
386.75 356.709 L
386.995 356.052 L
387 356.038 L
387.25 355.433 L
387.255 355.42 L
387.5 354.892 L
387.505 354.881 L
387.75 354.413 L
387.755 354.404 L
387.999 353.997 L
388.005 353.988 L
388.249 353.641 L
388.254 353.633 L
388.499 353.344 L
388.504 353.339 L
388.749 353.107 L
388.754 353.103 L
388.998 352.929 L
389.004 352.925 L
389.248 352.808 L
389.254 352.806 L
389.498 352.744 L
389.503 352.744 L
389.65 352.734 L
389.748 352.738 L
389.753 352.739 L
389.998 352.789 L
390.003 352.791 L
390.247 352.896 L
390.253 352.899 L
390.497 353.061 L
390.503 353.065 L
390.747 353.282 L
390.752 353.287 L
390.997 353.56 L
391.002 353.566 L
391.246 353.895 L
391.252 353.903 L
391.496 354.287 L
391.502 354.297 L
391.746 354.738 L
391.751 354.749 L
391.996 355.248 L
392.001 355.259 L
392.246 355.816 L
392.251 355.829 L
392.495 356.445 L
392.501 356.459 L
392.745 357.134 L
392.751 357.15 L
392.995 357.886 L
393 357.903 L
393.245 358.7 L
393.25 358.719 L
393.5 359.599 L
393.505 359.619 L
393.75 360.546 L
393.755 360.567 L
393.999 361.56 L
394.005 361.583 L
394.249 362.643 L
394.255 362.667 L
394.499 363.798 L
394.504 363.824 L
394.749 365.026 L
394.754 365.054 L
394.999 366.331 L
395.004 366.36 L
395.248 367.714 L
395.254 367.745 L
395.498 369.179 L
395.504 369.212 L
395.748 370.729 L
395.753 370.764 L
395.998 372.368 L
396.003 372.404 L
396.247 374.099 L
396.253 374.138 L
396.497 375.929 L
396.503 375.969 L
396.747 377.86 L
396.752 377.903 L
396.997 379.9 L
397.002 379.946 L
397.247 382.054 L
397.252 382.102 L
397.496 384.33 L
397.502 384.381 L
397.746 386.736 L
397.752 386.789 L
397.996 389.28 L
398.001 389.337 L
398.246 391.973 L
398.251 392.033 L
398.495 394.827 L
398.501 394.891 L
398.745 397.856 L
398.751 397.924 L
398.995 401.075 L
399 401.147 L
399.245 404.502 L
399.25 404.579 L
399.495 408.16 L
399.5 408.242 L
399.75 412.161 L
399.755 412.249 L
400 416.367 L
400.005 416.462 L
400.249 420.896 L
400.255 420.999 L
400.499 425.795 L
400.505 425.906 L
400.749 431.118 L
400.754 431.239 L
400.999 436.939 L
401.004 437.071 L
401.248 443.347 L
401.254 443.494 L
401.498 450.464 L
401.504 450.628 L
401.748 458.455 L
401.753 458.64 L
401.984 467.051 L
S
GR
GS
[0.6 0 0 0.6 0 0] CT
0 0.447 0.741 RC
1 LJ
0.833 LW
N
405.512 467.051 M
405.75 458.816 L
405.755 458.64 L
406 451.223 L
406.005 451.068 L
406.25 444.471 L
406.255 444.332 L
406.499 438.404 L
406.505 438.278 L
406.749 432.906 L
406.755 432.793 L
406.999 427.892 L
407.004 427.788 L
407.249 423.291 L
407.254 423.196 L
407.498 419.051 L
407.504 418.963 L
407.748 415.128 L
407.754 415.046 L
407.998 411.485 L
408.003 411.409 L
408.248 408.094 L
408.253 408.023 L
408.498 404.929 L
408.503 404.862 L
408.747 401.969 L
408.753 401.907 L
408.997 399.198 L
409.003 399.139 L
409.247 396.598 L
409.252 396.543 L
409.497 394.158 L
409.502 394.106 L
409.746 391.864 L
409.752 391.816 L
409.996 389.708 L
410.002 389.663 L
410.246 387.681 L
410.251 387.638 L
410.496 385.773 L
410.501 385.733 L
410.746 383.98 L
410.751 383.942 L
410.995 382.293 L
411.001 382.258 L
411.245 380.708 L
411.251 380.675 L
411.495 379.22 L
411.5 379.189 L
411.745 377.824 L
411.75 377.795 L
412 376.489 L
412.005 376.461 L
412.25 375.267 L
412.255 375.241 L
412.499 374.127 L
412.505 374.103 L
412.749 373.065 L
412.755 373.042 L
412.999 372.078 L
413.004 372.058 L
413.249 371.165 L
413.254 371.146 L
413.499 370.323 L
413.504 370.305 L
413.748 369.549 L
413.754 369.533 L
413.998 368.843 L
414.004 368.829 L
414.248 368.203 L
414.253 368.19 L
414.498 367.627 L
414.503 367.615 L
414.747 367.114 L
414.753 367.103 L
414.997 366.662 L
415.003 366.653 L
415.247 366.271 L
415.252 366.264 L
415.497 365.94 L
415.502 365.934 L
415.747 365.669 L
415.752 365.664 L
415.996 365.455 L
416.002 365.452 L
416.246 365.3 L
416.252 365.297 L
416.496 365.202 L
416.501 365.201 L
416.746 365.161 L
416.751 365.161 L
416.8 365.16 L
416.995 365.177 L
417.001 365.178 L
417.245 365.25 L
417.251 365.252 L
417.495 365.38 L
417.5 365.383 L
417.745 365.566 L
417.75 365.57 L
417.995 365.809 L
418 365.815 L
418.25 366.116 L
418.255 366.123 L
418.5 366.475 L
418.505 366.483 L
418.749 366.891 L
418.755 366.901 L
418.999 367.367 L
419.005 367.378 L
419.249 367.901 L
419.254 367.913 L
419.499 368.495 L
419.504 368.508 L
419.748 369.149 L
419.754 369.164 L
419.998 369.866 L
420.004 369.882 L
420.248 370.645 L
420.253 370.663 L
420.498 371.489 L
420.503 371.508 L
420.748 372.398 L
420.753 372.418 L
420.997 373.374 L
421.003 373.396 L
421.247 374.419 L
421.253 374.443 L
421.497 375.535 L
421.502 375.56 L
421.747 376.725 L
421.752 376.751 L
421.996 377.989 L
422.002 378.018 L
422.246 379.332 L
422.252 379.362 L
422.496 380.756 L
422.501 380.788 L
422.746 382.264 L
422.751 382.298 L
422.996 383.86 L
423.001 383.896 L
423.245 385.548 L
423.251 385.586 L
423.495 387.333 L
423.501 387.373 L
423.745 389.219 L
423.75 389.261 L
423.995 391.211 L
424 391.256 L
424.25 393.364 L
424.255 393.411 L
424.5 395.592 L
424.505 395.642 L
424.75 397.948 L
424.755 398.001 L
424.999 400.441 L
425.005 400.497 L
425.249 403.081 L
425.255 403.141 L
425.499 405.88 L
425.504 405.943 L
425.749 408.85 L
425.754 408.916 L
425.998 412.007 L
426.004 412.078 L
426.248 415.368 L
426.254 415.444 L
426.498 418.955 L
426.503 419.036 L
426.748 422.792 L
426.753 422.879 L
426.998 426.909 L
427.003 427.002 L
427.247 431.34 L
427.253 431.441 L
427.497 436.13 L
427.503 436.239 L
427.747 441.331 L
427.752 441.449 L
427.997 447.012 L
428.002 447.141 L
428.246 453.258 L
428.252 453.4 L
428.496 460.183 L
428.502 460.342 L
428.717 467.051 L
S
GR
GS
[0.6 0 0 0.6 0 0] CT
0 0.447 0.741 RC
1 LJ
0.833 LW
N
432.894 467.051 M
432.998 463.8 L
433.003 463.641 L
433.247 456.855 L
433.253 456.712 L
433.497 450.624 L
433.503 450.496 L
433.747 444.987 L
433.752 444.87 L
433.997 439.849 L
434.002 439.743 L
434.247 435.14 L
434.252 435.042 L
434.496 430.802 L
434.502 430.711 L
434.746 426.79 L
434.752 426.706 L
434.996 423.065 L
435.001 422.987 L
435.246 419.598 L
435.251 419.526 L
435.495 416.363 L
435.501 416.295 L
435.745 413.338 L
435.751 413.274 L
435.995 410.504 L
436 410.445 L
436.245 407.846 L
436.25 407.79 L
436.495 405.349 L
436.5 405.297 L
436.75 402.953 L
436.755 402.903 L
437 400.748 L
437.005 400.702 L
437.249 398.674 L
437.255 398.63 L
437.499 396.721 L
437.505 396.68 L
437.749 394.883 L
437.754 394.845 L
437.999 393.154 L
438.004 393.118 L
438.249 391.527 L
438.254 391.493 L
438.498 389.998 L
438.504 389.966 L
438.748 388.563 L
438.754 388.532 L
438.998 387.216 L
439.003 387.187 L
439.248 385.954 L
439.253 385.927 L
439.497 384.774 L
439.503 384.749 L
439.747 383.673 L
439.753 383.65 L
439.997 382.648 L
440.002 382.627 L
440.247 381.697 L
440.252 381.677 L
440.497 380.818 L
440.502 380.799 L
440.746 380.007 L
440.752 379.991 L
440.996 379.265 L
441.002 379.25 L
441.246 378.588 L
441.251 378.574 L
441.496 377.976 L
441.501 377.964 L
441.745 377.427 L
441.751 377.416 L
441.995 376.941 L
442.001 376.931 L
442.245 376.515 L
442.25 376.506 L
442.495 376.149 L
442.5 376.141 L
442.75 375.836 L
442.755 375.83 L
443 375.589 L
443.005 375.585 L
443.25 375.4 L
443.255 375.397 L
443.499 375.269 L
443.505 375.267 L
443.749 375.195 L
443.755 375.194 L
443.95 375.177 L
443.999 375.178 L
444.004 375.178 L
444.249 375.217 L
444.254 375.219 L
444.498 375.313 L
444.504 375.316 L
444.748 375.466 L
444.754 375.47 L
444.998 375.675 L
445.003 375.681 L
445.248 375.942 L
445.253 375.948 L
445.498 376.266 L
445.503 376.273 L
445.747 376.647 L
445.753 376.656 L
445.997 377.087 L
446.003 377.097 L
446.247 377.586 L
446.252 377.597 L
446.497 378.144 L
446.502 378.157 L
446.746 378.762 L
446.752 378.776 L
446.996 379.442 L
447.002 379.458 L
447.246 380.185 L
447.251 380.202 L
447.496 380.991 L
447.501 381.009 L
447.746 381.862 L
447.751 381.882 L
447.995 382.8 L
448.001 382.822 L
448.245 383.807 L
448.251 383.83 L
448.495 384.884 L
448.5 384.908 L
448.745 386.033 L
448.75 386.059 L
449 387.284 L
449.005 387.312 L
449.25 388.587 L
449.255 388.616 L
449.499 389.97 L
449.505 390.001 L
449.749 391.437 L
449.755 391.469 L
449.999 392.99 L
450.004 393.025 L
450.249 394.634 L
450.254 394.671 L
450.499 396.374 L
450.504 396.413 L
450.748 398.213 L
450.754 398.254 L
450.998 400.157 L
451.004 400.201 L
451.248 402.213 L
451.253 402.259 L
451.498 404.387 L
451.503 404.435 L
451.747 406.686 L
451.753 406.737 L
451.997 409.119 L
452.003 409.174 L
452.247 411.696 L
452.252 411.754 L
452.497 414.428 L
452.502 414.489 L
452.747 417.327 L
452.752 417.392 L
452.996 420.409 L
453.002 420.478 L
453.246 423.689 L
453.252 423.763 L
453.496 427.189 L
453.501 427.267 L
453.746 430.93 L
453.751 431.014 L
453.995 434.942 L
454.001 435.032 L
454.245 439.257 L
454.251 439.355 L
454.495 443.917 L
454.5 444.023 L
454.745 448.971 L
454.75 449.086 L
454.995 454.482 L
455 454.608 L
455.25 460.669 L
455.255 460.808 L
455.488 467.051 L
S
GR
GS
[0.6 0 0 0.6 0 0] CT
0 0.447 0.741 RC
1 LJ
0.833 LW
N
460.27 467.051 M
460.495 461.251 L
460.501 461.118 L
460.745 455.43 L
460.75 455.309 L
460.995 450.134 L
461 450.024 L
461.25 445.185 L
461.255 445.084 L
461.5 440.731 L
461.505 440.638 L
461.75 436.615 L
461.755 436.529 L
461.999 432.797 L
462.005 432.717 L
462.249 429.244 L
462.255 429.17 L
462.499 425.93 L
462.504 425.86 L
462.749 422.831 L
462.754 422.765 L
462.998 419.928 L
463.004 419.867 L
463.248 417.205 L
463.254 417.147 L
463.498 414.647 L
463.503 414.593 L
463.748 412.242 L
463.753 412.192 L
463.998 409.98 L
464.003 409.932 L
464.247 407.85 L
464.253 407.805 L
464.497 405.844 L
464.503 405.802 L
464.747 403.955 L
464.752 403.916 L
464.997 402.177 L
465.002 402.139 L
465.246 400.503 L
465.252 400.467 L
465.496 398.928 L
465.502 398.894 L
465.746 397.447 L
465.751 397.416 L
465.996 396.056 L
466.001 396.027 L
466.246 394.752 L
466.251 394.725 L
466.495 393.531 L
466.501 393.505 L
466.745 392.389 L
466.751 392.365 L
466.995 391.324 L
467 391.302 L
467.245 390.334 L
467.25 390.313 L
467.5 389.397 L
467.505 389.378 L
467.75 388.55 L
467.755 388.533 L
467.999 387.772 L
468.005 387.756 L
468.249 387.06 L
468.255 387.045 L
468.499 386.412 L
468.504 386.399 L
468.749 385.829 L
468.754 385.817 L
468.999 385.307 L
469.004 385.297 L
469.248 384.847 L
469.254 384.838 L
469.498 384.447 L
469.504 384.439 L
469.748 384.107 L
469.753 384.1 L
469.998 383.825 L
470.003 383.82 L
470.247 383.601 L
470.253 383.597 L
470.497 383.436 L
470.503 383.433 L
470.747 383.327 L
470.752 383.325 L
470.997 383.275 L
471.002 383.274 L
471.1 383.27 L
471.247 383.28 L
471.252 383.281 L
471.496 383.341 L
471.502 383.343 L
471.746 383.46 L
471.752 383.463 L
471.996 383.634 L
472.001 383.639 L
472.246 383.866 L
472.251 383.872 L
472.496 384.155 L
472.501 384.162 L
472.745 384.502 L
472.751 384.51 L
472.995 384.906 L
473 384.915 L
473.245 385.369 L
473.25 385.38 L
473.495 385.892 L
473.5 385.904 L
473.75 386.487 L
473.755 386.501 L
474 387.132 L
474.005 387.147 L
474.249 387.839 L
474.255 387.855 L
474.499 388.609 L
474.505 388.627 L
474.749 389.444 L
474.754 389.463 L
474.999 390.346 L
475.004 390.366 L
475.249 391.314 L
475.254 391.336 L
475.498 392.353 L
475.504 392.376 L
475.748 393.463 L
475.754 393.488 L
475.998 394.647 L
476.003 394.674 L
476.248 395.908 L
476.253 395.936 L
476.497 397.248 L
476.503 397.278 L
476.747 398.67 L
476.753 398.702 L
476.997 400.178 L
477.002 400.211 L
477.247 401.775 L
477.252 401.811 L
477.497 403.466 L
477.502 403.503 L
477.746 405.254 L
477.752 405.294 L
477.996 407.146 L
478.002 407.189 L
478.246 409.148 L
478.251 409.192 L
478.496 411.264 L
478.501 411.312 L
478.745 413.504 L
478.751 413.554 L
478.995 415.875 L
479.001 415.928 L
479.245 418.385 L
479.25 418.441 L
479.495 421.047 L
479.5 421.106 L
479.75 423.935 L
479.755 423.998 L
480 426.94 L
480.005 427.007 L
480.25 430.138 L
480.255 430.21 L
480.499 433.549 L
480.505 433.625 L
480.749 437.193 L
480.755 437.275 L
480.999 441.099 L
481.004 441.187 L
481.249 445.296 L
481.254 445.391 L
481.498 449.823 L
481.504 449.925 L
481.748 454.727 L
481.754 454.838 L
481.998 460.066 L
482.003 460.188 L
482.248 465.914 L
482.253 466.048 L
482.292 467.051 L
S
GR
GS
[0.6 0 0 0.6 0 0] CT
0 0.447 0.741 RC
1 LJ
0.833 LW
N
487.637 467.051 M
487.748 464.369 L
487.754 464.245 L
487.998 458.896 L
488.004 458.783 L
488.248 453.894 L
488.253 453.79 L
488.498 449.298 L
488.503 449.202 L
488.747 445.054 L
488.753 444.966 L
488.997 441.121 L
489.003 441.039 L
489.247 437.465 L
489.253 437.388 L
489.497 434.055 L
489.502 433.984 L
489.747 430.869 L
489.752 430.802 L
489.996 427.885 L
490.002 427.822 L
490.246 425.086 L
490.252 425.028 L
490.496 422.458 L
490.501 422.403 L
490.746 419.987 L
490.751 419.934 L
490.996 417.661 L
491.001 417.612 L
491.245 415.471 L
491.251 415.425 L
491.495 413.408 L
491.501 413.365 L
491.745 411.465 L
491.75 411.424 L
491.995 409.634 L
492 409.595 L
492.25 407.873 L
492.255 407.837 L
492.5 406.252 L
492.505 406.217 L
492.749 404.726 L
492.755 404.694 L
492.999 403.292 L
493.005 403.261 L
493.249 401.945 L
493.254 401.917 L
493.499 400.682 L
493.504 400.656 L
493.749 399.5 L
493.754 399.475 L
493.998 398.396 L
494.004 398.373 L
494.248 397.367 L
494.254 397.346 L
494.498 396.411 L
494.503 396.391 L
494.748 395.526 L
494.753 395.507 L
494.997 394.709 L
495.003 394.692 L
495.247 393.959 L
495.253 393.944 L
495.497 393.275 L
495.502 393.261 L
495.747 392.655 L
495.752 392.642 L
495.997 392.097 L
496.002 392.086 L
496.246 391.601 L
496.252 391.591 L
496.496 391.165 L
496.502 391.157 L
496.746 390.79 L
496.751 390.782 L
496.996 390.473 L
497.001 390.467 L
497.245 390.215 L
497.251 390.21 L
497.495 390.014 L
497.501 390.01 L
497.745 389.87 L
497.75 389.868 L
497.995 389.784 L
498 389.783 L
498.245 389.755 L
498.25 389.755 L
498.5 389.783 L
498.505 389.784 L
498.75 389.868 L
498.755 389.87 L
498.999 390.009 L
499.005 390.013 L
499.249 390.208 L
499.255 390.213 L
499.499 390.463 L
499.504 390.469 L
499.749 390.776 L
499.754 390.783 L
499.998 391.146 L
500.004 391.155 L
500.248 391.575 L
500.254 391.585 L
500.498 392.063 L
500.503 392.074 L
500.748 392.611 L
500.753 392.624 L
500.998 393.219 L
501.003 393.233 L
501.247 393.89 L
501.253 393.905 L
501.497 394.623 L
501.503 394.639 L
501.747 395.42 L
501.752 395.438 L
501.997 396.282 L
502.002 396.302 L
502.246 397.212 L
502.252 397.233 L
502.496 398.211 L
502.502 398.233 L
502.746 399.28 L
502.751 399.305 L
502.996 400.423 L
503.001 400.449 L
503.246 401.641 L
503.251 401.669 L
503.495 402.937 L
503.501 402.967 L
503.745 404.315 L
503.751 404.346 L
503.995 405.776 L
504 405.809 L
504.245 407.326 L
504.25 407.361 L
504.5 409.004 L
504.505 409.041 L
504.75 410.744 L
504.755 410.783 L
504.999 412.585 L
505.005 412.626 L
505.249 414.533 L
505.255 414.577 L
505.499 416.595 L
505.504 416.641 L
505.749 418.776 L
505.754 418.825 L
505.999 421.086 L
506.004 421.137 L
506.248 423.532 L
506.254 423.586 L
506.498 426.125 L
506.504 426.183 L
506.748 428.876 L
506.753 428.937 L
506.998 431.798 L
507.003 431.864 L
507.247 434.908 L
507.253 434.978 L
507.497 438.222 L
507.503 438.297 L
507.747 441.762 L
507.753 441.841 L
507.997 445.551 L
508.002 445.636 L
508.247 449.619 L
508.252 449.711 L
508.496 454.003 L
508.502 454.102 L
508.746 458.743 L
508.752 458.851 L
508.996 463.896 L
509.001 464.013 L
509.136 467.051 L
S
GR
GS
[0.6 0 0 0.6 0 0] CT
0 0.447 0.741 RC
1 LJ
0.833 LW
N
514.974 467.051 M
514.996 466.545 L
515.002 466.427 L
515.246 461.359 L
515.251 461.251 L
515.496 456.601 L
515.501 456.502 L
515.745 452.216 L
515.751 452.124 L
515.995 448.156 L
516.001 448.071 L
516.245 444.384 L
516.25 444.305 L
516.495 440.871 L
516.5 440.797 L
516.745 437.589 L
516.75 437.52 L
517 434.452 L
517.005 434.388 L
517.25 431.576 L
517.255 431.516 L
517.499 428.875 L
517.505 428.818 L
517.749 426.336 L
517.755 426.282 L
517.999 423.946 L
518.004 423.896 L
518.249 421.695 L
518.254 421.648 L
518.498 419.575 L
518.504 419.53 L
518.748 417.577 L
518.754 417.535 L
518.998 415.693 L
519.003 415.654 L
519.248 413.918 L
519.253 413.881 L
519.498 412.246 L
519.503 412.211 L
519.747 410.672 L
519.753 410.638 L
519.997 409.19 L
520.003 409.159 L
520.247 407.798 L
520.252 407.768 L
520.497 406.49 L
520.502 406.463 L
520.746 405.265 L
520.752 405.24 L
520.996 404.119 L
521.002 404.095 L
521.246 403.049 L
521.251 403.026 L
521.496 402.052 L
521.501 402.032 L
521.746 401.127 L
521.751 401.108 L
521.995 400.272 L
522.001 400.254 L
522.245 399.484 L
522.251 399.468 L
522.495 398.762 L
522.5 398.747 L
522.745 398.105 L
522.75 398.091 L
523 397.498 L
523.005 397.486 L
523.25 396.967 L
523.255 396.957 L
523.5 396.498 L
523.505 396.488 L
523.749 396.088 L
523.755 396.079 L
523.999 395.737 L
524.004 395.73 L
524.249 395.445 L
524.254 395.439 L
524.499 395.21 L
524.504 395.206 L
524.748 395.034 L
524.754 395.03 L
524.998 394.914 L
525.004 394.912 L
525.248 394.851 L
525.253 394.85 L
525.4 394.841 L
525.498 394.845 L
525.503 394.846 L
525.747 394.896 L
525.753 394.897 L
525.997 395.003 L
526.003 395.005 L
526.247 395.166 L
526.253 395.17 L
526.497 395.387 L
526.502 395.392 L
526.747 395.665 L
526.752 395.671 L
526.996 396 L
527.002 396.008 L
527.246 396.394 L
527.252 396.403 L
527.496 396.846 L
527.501 396.857 L
527.746 397.358 L
527.751 397.37 L
527.996 397.93 L
528.001 397.943 L
528.245 398.564 L
528.251 398.578 L
528.495 399.259 L
528.501 399.275 L
528.745 400.019 L
528.75 400.036 L
528.995 400.843 L
529 400.862 L
529.25 401.754 L
529.255 401.774 L
529.5 402.714 L
529.505 402.736 L
529.749 403.745 L
529.755 403.768 L
529.999 404.848 L
530.005 404.873 L
530.249 406.025 L
530.254 406.051 L
530.499 407.279 L
530.504 407.307 L
530.749 408.614 L
530.754 408.643 L
530.998 410.031 L
531.004 410.063 L
531.248 411.535 L
531.254 411.568 L
531.498 413.129 L
531.503 413.164 L
531.748 414.817 L
531.753 414.855 L
531.997 416.605 L
532.003 416.645 L
532.247 418.498 L
532.253 418.54 L
532.497 420.501 L
532.502 420.546 L
532.747 422.621 L
532.752 422.669 L
532.997 424.866 L
533.002 424.916 L
533.246 427.244 L
533.252 427.297 L
533.496 429.764 L
533.502 429.821 L
533.746 432.438 L
533.751 432.498 L
533.996 435.278 L
534.001 435.342 L
534.245 438.299 L
534.251 438.366 L
534.495 441.516 L
534.501 441.588 L
534.745 444.95 L
534.75 445.027 L
534.995 448.623 L
535 448.706 L
535.245 452.563 L
535.25 452.652 L
535.5 456.898 L
535.505 456.994 L
535.75 461.484 L
535.755 461.588 L
535.999 466.46 L
536.005 466.573 L
536.027 467.051 L
S
GR
GS
[0.6 0 0 0.6 0 0] CT
0 0.447 0.741 RC
1 LJ
0.833 LW
N
542.277 467.051 M
542.499 462.671 L
542.504 462.569 L
542.749 458.138 L
542.754 458.043 L
542.999 453.946 L
543.004 453.858 L
543.248 450.056 L
543.254 449.975 L
543.498 446.436 L
543.504 446.36 L
543.748 443.056 L
543.753 442.985 L
543.998 439.895 L
544.003 439.828 L
544.248 436.932 L
544.253 436.869 L
544.497 434.15 L
544.503 434.091 L
544.747 431.535 L
544.753 431.48 L
544.997 429.075 L
545.002 429.023 L
545.247 426.757 L
545.252 426.708 L
545.496 424.574 L
545.502 424.528 L
545.746 422.515 L
545.752 422.472 L
545.996 420.575 L
546.001 420.534 L
546.246 418.745 L
546.251 418.707 L
546.496 417.02 L
546.501 416.984 L
546.745 415.395 L
546.751 415.361 L
546.995 413.865 L
547.001 413.833 L
547.245 412.426 L
547.25 412.395 L
547.495 411.073 L
547.5 411.045 L
547.75 409.777 L
547.755 409.75 L
548 408.589 L
548.005 408.564 L
548.249 407.479 L
548.255 407.455 L
548.499 406.443 L
548.505 406.421 L
548.749 405.479 L
548.754 405.459 L
548.999 404.586 L
549.004 404.567 L
549.249 403.761 L
549.254 403.744 L
549.498 403.002 L
549.504 402.987 L
549.748 402.309 L
549.754 402.295 L
549.998 401.679 L
550.003 401.666 L
550.248 401.112 L
550.253 401.1 L
550.497 400.606 L
550.503 400.596 L
550.747 400.16 L
550.753 400.151 L
550.997 399.774 L
551.002 399.766 L
551.247 399.447 L
551.252 399.44 L
551.497 399.178 L
551.502 399.172 L
551.746 398.966 L
551.752 398.962 L
551.996 398.812 L
552.002 398.809 L
552.246 398.715 L
552.251 398.713 L
552.496 398.674 L
552.501 398.674 L
552.55 398.673 L
552.745 398.69 L
552.751 398.691 L
552.995 398.763 L
553.001 398.765 L
553.245 398.892 L
553.25 398.895 L
553.495 399.078 L
553.5 399.082 L
553.745 399.321 L
553.75 399.327 L
554 399.629 L
554.005 399.636 L
554.25 399.988 L
554.255 399.997 L
554.499 400.406 L
554.505 400.416 L
554.749 400.884 L
554.755 400.895 L
554.999 401.421 L
555.004 401.433 L
555.249 402.019 L
555.254 402.033 L
555.499 402.679 L
555.504 402.694 L
555.748 403.402 L
555.754 403.419 L
555.998 404.19 L
556.003 404.208 L
556.248 405.043 L
556.253 405.063 L
556.498 405.964 L
556.503 405.985 L
556.747 406.954 L
556.753 406.976 L
556.997 408.016 L
557.003 408.039 L
557.247 409.15 L
557.252 409.176 L
557.497 410.361 L
557.502 410.389 L
557.747 411.651 L
557.752 411.68 L
557.996 413.022 L
558.002 413.053 L
558.246 414.478 L
558.251 414.511 L
558.496 416.023 L
558.501 416.058 L
558.746 417.661 L
558.751 417.697 L
558.995 419.395 L
559.001 419.434 L
559.245 421.233 L
559.251 421.274 L
559.495 423.178 L
559.5 423.221 L
559.745 425.237 L
559.75 425.283 L
560 427.467 L
560.005 427.516 L
560.25 429.78 L
560.255 429.832 L
560.5 432.231 L
560.505 432.286 L
560.749 434.832 L
560.755 434.89 L
560.999 437.593 L
561.005 437.655 L
561.249 440.529 L
561.254 440.595 L
561.499 443.655 L
561.504 443.725 L
561.748 446.989 L
561.754 447.064 L
561.998 450.553 L
562.004 450.633 L
562.248 454.372 L
562.253 454.458 L
562.498 458.477 L
562.503 458.57 L
562.748 462.904 L
562.753 463.004 L
562.964 467.051 L
S
GR
GS
[0.6 0 0 0.6 0 0] CT
0 0.447 0.741 RC
1 LJ
0.833 LW
N
569.537 467.051 M
569.747 463.098 L
569.752 463 L
569.997 458.757 L
570.002 458.666 L
570.246 454.734 L
570.252 454.65 L
570.496 450.993 L
570.502 450.915 L
570.746 447.505 L
570.751 447.432 L
570.996 444.244 L
571.001 444.175 L
571.245 441.189 L
571.251 441.124 L
571.495 438.322 L
571.501 438.261 L
571.745 435.628 L
571.75 435.571 L
571.995 433.093 L
572 433.04 L
572.245 430.706 L
572.25 430.656 L
572.5 428.409 L
572.505 428.362 L
572.75 426.292 L
572.755 426.247 L
572.999 424.294 L
573.005 424.252 L
573.249 422.41 L
573.255 422.371 L
573.499 420.634 L
573.504 420.596 L
573.749 418.959 L
573.754 418.924 L
573.999 417.381 L
574.004 417.348 L
574.248 415.895 L
574.254 415.864 L
574.498 414.498 L
574.503 414.468 L
574.748 413.185 L
574.753 413.157 L
574.998 411.953 L
575.003 411.927 L
575.247 410.8 L
575.253 410.776 L
575.497 409.722 L
575.503 409.7 L
575.747 408.718 L
575.752 408.697 L
575.997 407.785 L
576.002 407.765 L
576.247 406.921 L
576.252 406.903 L
576.496 406.124 L
576.502 406.107 L
576.746 405.393 L
576.751 405.377 L
576.996 404.726 L
577.001 404.712 L
577.246 404.121 L
577.251 404.109 L
577.495 403.579 L
577.501 403.568 L
577.745 403.098 L
577.751 403.088 L
577.995 402.676 L
578 402.668 L
578.245 402.313 L
578.25 402.306 L
578.5 402.003 L
578.505 401.997 L
578.75 401.758 L
578.755 401.754 L
579 401.571 L
579.005 401.567 L
579.249 401.44 L
579.255 401.438 L
579.499 401.366 L
579.505 401.365 L
579.7 401.348 L
579.749 401.349 L
579.754 401.349 L
579.999 401.388 L
580.004 401.39 L
580.248 401.484 L
580.254 401.487 L
580.498 401.637 L
580.504 401.641 L
580.748 401.846 L
580.753 401.852 L
580.998 402.113 L
581.003 402.12 L
581.248 402.438 L
581.253 402.446 L
581.497 402.821 L
581.503 402.83 L
581.747 403.262 L
581.753 403.273 L
581.997 403.764 L
582.002 403.775 L
582.247 404.325 L
582.252 404.338 L
582.496 404.949 L
582.502 404.963 L
582.746 405.634 L
582.752 405.65 L
582.996 406.384 L
583.001 406.401 L
583.246 407.198 L
583.251 407.217 L
583.496 408.08 L
583.501 408.1 L
583.745 409.03 L
583.751 409.051 L
583.995 410.05 L
584.001 410.073 L
584.245 411.143 L
584.25 411.168 L
584.495 412.311 L
584.5 412.337 L
584.75 413.584 L
584.755 413.612 L
585 414.911 L
585.005 414.941 L
585.249 416.322 L
585.255 416.354 L
585.499 417.82 L
585.505 417.854 L
585.749 419.409 L
585.754 419.445 L
585.999 421.093 L
586.004 421.131 L
586.249 422.878 L
586.254 422.918 L
586.498 424.768 L
586.504 424.81 L
586.748 426.77 L
586.754 426.815 L
586.998 428.89 L
587.003 428.937 L
587.248 431.136 L
587.253 431.186 L
587.497 433.516 L
587.503 433.57 L
587.747 436.041 L
587.753 436.098 L
587.997 438.722 L
588.002 438.782 L
588.247 441.571 L
588.252 441.634 L
588.497 444.602 L
588.502 444.67 L
588.746 447.834 L
588.752 447.907 L
588.996 451.286 L
589.002 451.364 L
589.246 454.982 L
589.251 455.065 L
589.496 458.949 L
589.501 459.039 L
589.746 463.222 L
589.751 463.319 L
589.953 467.051 L
S
GR
GS
[0.6 0 0 0.6 0 0] CT
0 0.447 0.741 RC
1 LJ
0.833 LW
N
596.745 467.051 M
596.75 466.962 L
597 462.469 L
597.005 462.375 L
597.25 458.311 L
597.255 458.224 L
597.5 454.449 L
597.505 454.368 L
597.749 450.85 L
597.755 450.775 L
597.999 447.489 L
598.005 447.418 L
598.249 444.341 L
598.254 444.275 L
598.499 441.389 L
598.504 441.327 L
598.748 438.616 L
598.754 438.558 L
598.998 436.008 L
599.004 435.953 L
599.248 433.552 L
599.253 433.5 L
599.498 431.237 L
599.503 431.189 L
599.748 429.055 L
599.753 429.009 L
599.997 426.997 L
600.003 426.953 L
600.247 425.055 L
600.253 425.014 L
600.497 423.223 L
600.502 423.184 L
600.747 421.495 L
600.752 421.458 L
600.996 419.865 L
601.002 419.831 L
601.246 418.33 L
601.252 418.298 L
601.496 416.885 L
601.501 416.855 L
601.746 415.526 L
601.751 415.498 L
601.996 414.25 L
602.001 414.223 L
602.245 413.053 L
602.251 413.028 L
602.495 411.933 L
602.501 411.91 L
602.745 410.888 L
602.75 410.866 L
602.995 409.914 L
603 409.894 L
603.25 408.991 L
603.255 408.973 L
603.5 408.157 L
603.505 408.14 L
603.749 407.389 L
603.755 407.373 L
603.999 406.686 L
604.005 406.671 L
604.249 406.046 L
604.254 406.033 L
604.499 405.469 L
604.504 405.457 L
604.749 404.953 L
604.754 404.942 L
604.998 404.496 L
605.004 404.487 L
605.248 404.1 L
605.254 404.092 L
605.498 403.762 L
605.503 403.755 L
605.748 403.482 L
605.753 403.476 L
605.997 403.259 L
606.003 403.255 L
606.247 403.094 L
606.253 403.091 L
606.497 402.986 L
606.503 402.984 L
606.747 402.934 L
606.752 402.934 L
606.85 402.929 L
606.997 402.939 L
607.002 402.94 L
607.246 403.001 L
607.252 403.003 L
607.496 403.119 L
607.502 403.122 L
607.746 403.294 L
607.751 403.298 L
607.996 403.526 L
608.001 403.531 L
608.245 403.815 L
608.251 403.822 L
608.495 404.163 L
608.501 404.171 L
608.745 404.569 L
608.75 404.579 L
608.995 405.034 L
609 405.045 L
609.245 405.56 L
609.25 405.572 L
609.5 406.16 L
609.505 406.173 L
609.75 406.81 L
609.755 406.825 L
609.999 407.523 L
610.005 407.539 L
610.249 408.301 L
610.255 408.318 L
610.499 409.144 L
610.504 409.163 L
610.749 410.056 L
610.754 410.076 L
610.999 411.037 L
611.004 411.059 L
611.248 412.09 L
611.254 412.113 L
611.498 413.216 L
611.504 413.242 L
611.748 414.419 L
611.753 414.446 L
611.998 415.701 L
612.003 415.73 L
612.247 417.065 L
612.253 417.096 L
612.497 418.515 L
612.503 418.548 L
612.747 420.054 L
612.752 420.089 L
612.997 421.687 L
613.002 421.723 L
613.247 423.417 L
613.252 423.456 L
613.496 425.251 L
613.502 425.292 L
613.746 427.193 L
613.752 427.236 L
613.996 429.251 L
614.001 429.297 L
614.246 431.431 L
614.251 431.48 L
614.495 433.742 L
614.501 433.794 L
614.745 436.193 L
614.751 436.248 L
614.995 438.794 L
615 438.853 L
615.245 441.558 L
615.25 441.62 L
615.5 444.564 L
615.505 444.63 L
615.75 447.701 L
615.755 447.771 L
616 451.049 L
616.005 451.124 L
616.249 454.631 L
616.255 454.711 L
616.499 458.472 L
616.505 458.559 L
616.749 462.604 L
616.754 462.697 L
616.998 467.051 L
S
GR
GS
[0.6 0 0 0.6 0 0] CT
0 0.447 0.741 RC
1 LJ
0.833 LW
N
623.904 467.051 M
623.998 465.3 L
624.003 465.202 L
624.248 460.991 L
624.253 460.901 L
624.497 456.994 L
624.503 456.91 L
624.747 453.274 L
624.753 453.196 L
624.997 449.802 L
625.003 449.729 L
625.247 446.554 L
625.252 446.486 L
625.497 443.509 L
625.502 443.445 L
625.746 440.65 L
625.752 440.59 L
625.996 437.962 L
626.002 437.905 L
626.246 435.431 L
626.251 435.377 L
626.496 433.046 L
626.501 432.996 L
626.745 430.797 L
626.751 430.75 L
626.995 428.676 L
627.001 428.631 L
627.245 426.674 L
627.25 426.632 L
627.495 424.785 L
627.5 424.745 L
627.745 423.003 L
627.75 422.965 L
628 421.286 L
628.005 421.25 L
628.25 419.702 L
628.255 419.669 L
628.499 418.211 L
628.505 418.179 L
628.749 416.807 L
628.755 416.777 L
628.999 415.487 L
629.004 415.459 L
629.249 414.248 L
629.254 414.222 L
629.499 413.087 L
629.504 413.062 L
629.748 412.001 L
629.754 411.978 L
629.998 410.988 L
630.004 410.966 L
630.248 410.045 L
630.253 410.026 L
630.498 409.172 L
630.503 409.154 L
630.747 408.366 L
630.753 408.349 L
630.997 407.625 L
631.003 407.609 L
631.247 406.948 L
631.252 406.934 L
631.497 406.333 L
631.502 406.321 L
631.747 405.781 L
631.752 405.769 L
631.996 405.289 L
632.002 405.279 L
632.246 404.857 L
632.252 404.848 L
632.496 404.483 L
632.501 404.476 L
632.746 404.168 L
632.751 404.162 L
632.995 403.911 L
633.001 403.906 L
633.245 403.711 L
633.251 403.707 L
633.495 403.568 L
633.5 403.566 L
633.745 403.482 L
633.75 403.481 L
633.995 403.453 L
S
GR
%%Trailer
%%Pages: 1
%%EOF
