%!PS-Adobe-3.0 EPSF-3.0
%%Creator: (MATLAB, The Mathworks, Inc. Version 9.3.0.713579 \(R2017b\). Operating System: Windows 10)
%%Title: C:/surfdrive/HAN/DSPIPS/Material/DSPIPS_workshopNotes/figures/untitled.eps
%%CreationDate: 2019-01-25T14:18:07
%%Pages: (atend)
%%BoundingBox: 0 0 420 315
%%LanguageLevel: 3
%%EndComments
%%BeginProlog
%%BeginResource: procset (Apache XML Graphics Std ProcSet) 1.2 0
%%Version: 1.2 0
%%Copyright: (Copyright 2001-2003,2010 The Apache Software Foundation. License terms: http://www.apache.org/licenses/LICENSE-2.0)
/bd{bind def}bind def
/ld{load def}bd
/GR/grestore ld
/GS/gsave ld
/RM/rmoveto ld
/C/curveto ld
/t/show ld
/L/lineto ld
/ML/setmiterlimit ld
/CT/concat ld
/f/fill ld
/N/newpath ld
/S/stroke ld
/CC/setcmykcolor ld
/A/ashow ld
/cp/closepath ld
/RC/setrgbcolor ld
/LJ/setlinejoin ld
/GC/setgray ld
/LW/setlinewidth ld
/M/moveto ld
/re {4 2 roll M
1 index 0 rlineto
0 exch rlineto
neg 0 rlineto
cp } bd
/_ctm matrix def
/_tm matrix def
/BT { _ctm currentmatrix pop matrix _tm copy pop 0 0 moveto } bd
/ET { _ctm setmatrix } bd
/iTm { _ctm setmatrix _tm concat } bd
/Tm { _tm astore pop iTm 0 0 moveto } bd
/ux 0.0 def
/uy 0.0 def
/F {
  /Tp exch def
  /Tf exch def
  Tf findfont Tp scalefont setfont
  /cf Tf def  /cs Tp def
} bd
/ULS {currentpoint /uy exch def /ux exch def} bd
/ULE {
  /Tcx currentpoint pop def
  gsave
  newpath
  cf findfont cs scalefont dup
  /FontMatrix get 0 get /Ts exch def /FontInfo get dup
  /UnderlinePosition get Ts mul /To exch def
  /UnderlineThickness get Ts mul /Tt exch def
  ux uy To add moveto  Tcx uy To add lineto
  Tt setlinewidth stroke
  grestore
} bd
/OLE {
  /Tcx currentpoint pop def
  gsave
  newpath
  cf findfont cs scalefont dup
  /FontMatrix get 0 get /Ts exch def /FontInfo get dup
  /UnderlinePosition get Ts mul /To exch def
  /UnderlineThickness get Ts mul /Tt exch def
  ux uy To add cs add moveto Tcx uy To add cs add lineto
  Tt setlinewidth stroke
  grestore
} bd
/SOE {
  /Tcx currentpoint pop def
  gsave
  newpath
  cf findfont cs scalefont dup
  /FontMatrix get 0 get /Ts exch def /FontInfo get dup
  /UnderlinePosition get Ts mul /To exch def
  /UnderlineThickness get Ts mul /Tt exch def
  ux uy To add cs 10 mul 26 idiv add moveto Tcx uy To add cs 10 mul 26 idiv add lineto
  Tt setlinewidth stroke
  grestore
} bd
/QT {
/Y22 exch store
/X22 exch store
/Y21 exch store
/X21 exch store
currentpoint
/Y21 load 2 mul add 3 div exch
/X21 load 2 mul add 3 div exch
/X21 load 2 mul /X22 load add 3 div
/Y21 load 2 mul /Y22 load add 3 div
/X22 load /Y22 load curveto
} bd
/SSPD {
dup length /d exch dict def
{
/v exch def
/k exch def
currentpagedevice k known {
/cpdv currentpagedevice k get def
v cpdv ne {
/upd false def
/nullv v type /nulltype eq def
/nullcpdv cpdv type /nulltype eq def
nullv nullcpdv or
{
/upd true def
} {
/sametype v type cpdv type eq def
sametype {
v type /arraytype eq {
/vlen v length def
/cpdvlen cpdv length def
vlen cpdvlen eq {
0 1 vlen 1 sub {
/i exch def
/obj v i get def
/cpdobj cpdv i get def
obj cpdobj ne {
/upd true def
exit
} if
} for
} {
/upd true def
} ifelse
} {
v type /dicttype eq {
v {
/dv exch def
/dk exch def
/cpddv cpdv dk get def
dv cpddv ne {
/upd true def
exit
} if
} forall
} {
/upd true def
} ifelse
} ifelse
} if
} ifelse
upd true eq {
d k v put
} if
} if
} if
} forall
d length 0 gt {
d setpagedevice
} if
} bd
/RE { % /NewFontName [NewEncodingArray] /FontName RE -
  findfont dup length dict begin
  {
    1 index /FID ne
    {def} {pop pop} ifelse
  } forall
  /Encoding exch def
  /FontName 1 index def
  currentdict definefont pop
  end
} bind def
%%EndResource
%%BeginResource: procset (Apache XML Graphics EPS ProcSet) 1.0 0
%%Version: 1.0 0
%%Copyright: (Copyright 2002-2003 The Apache Software Foundation. License terms: http://www.apache.org/licenses/LICENSE-2.0)
/BeginEPSF { %def
/b4_Inc_state save def         % Save state for cleanup
/dict_count countdictstack def % Count objects on dict stack
/op_count count 1 sub def      % Count objects on operand stack
userdict begin                 % Push userdict on dict stack
/showpage { } def              % Redefine showpage, { } = null proc
0 setgray 0 setlinecap         % Prepare graphics state
1 setlinewidth 0 setlinejoin
10 setmiterlimit [ ] 0 setdash newpath
/languagelevel where           % If level not equal to 1 then
{pop languagelevel             % set strokeadjust and
1 ne                           % overprint to their defaults.
{false setstrokeadjust false setoverprint
} if
} if
} bd
/EndEPSF { %def
count op_count sub {pop} repeat            % Clean up stacks
countdictstack dict_count sub {end} repeat
b4_Inc_state restore
} bd
%%EndResource
%FOPBeginFontDict
%%IncludeResource: font Courier-Oblique
%%IncludeResource: font Courier-BoldOblique
%%IncludeResource: font Courier-Bold
%%IncludeResource: font ZapfDingbats
%%IncludeResource: font Symbol
%%IncludeResource: font Helvetica
%%IncludeResource: font Helvetica-Oblique
%%IncludeResource: font Helvetica-Bold
%%IncludeResource: font Helvetica-BoldOblique
%%IncludeResource: font Times-Roman
%%IncludeResource: font Times-Italic
%%IncludeResource: font Times-Bold
%%IncludeResource: font Times-BoldItalic
%%IncludeResource: font Courier
%FOPEndFontDict
%%BeginResource: encoding WinAnsiEncoding
/WinAnsiEncoding [
/.notdef /.notdef /.notdef /.notdef /.notdef
/.notdef /.notdef /.notdef /.notdef /.notdef
/.notdef /.notdef /.notdef /.notdef /.notdef
/.notdef /.notdef /.notdef /.notdef /.notdef
/.notdef /.notdef /.notdef /.notdef /.notdef
/.notdef /.notdef /.notdef /.notdef /.notdef
/.notdef /.notdef /space /exclam /quotedbl
/numbersign /dollar /percent /ampersand /quotesingle
/parenleft /parenright /asterisk /plus /comma
/hyphen /period /slash /zero /one
/two /three /four /five /six
/seven /eight /nine /colon /semicolon
/less /equal /greater /question /at
/A /B /C /D /E
/F /G /H /I /J
/K /L /M /N /O
/P /Q /R /S /T
/U /V /W /X /Y
/Z /bracketleft /backslash /bracketright /asciicircum
/underscore /quoteleft /a /b /c
/d /e /f /g /h
/i /j /k /l /m
/n /o /p /q /r
/s /t /u /v /w
/x /y /z /braceleft /bar
/braceright /asciitilde /bullet /Euro /bullet
/quotesinglbase /florin /quotedblbase /ellipsis /dagger
/daggerdbl /circumflex /perthousand /Scaron /guilsinglleft
/OE /bullet /Zcaron /bullet /bullet
/quoteleft /quoteright /quotedblleft /quotedblright /bullet
/endash /emdash /asciitilde /trademark /scaron
/guilsinglright /oe /bullet /zcaron /Ydieresis
/space /exclamdown /cent /sterling /currency
/yen /brokenbar /section /dieresis /copyright
/ordfeminine /guillemotleft /logicalnot /sfthyphen /registered
/macron /degree /plusminus /twosuperior /threesuperior
/acute /mu /paragraph /middot /cedilla
/onesuperior /ordmasculine /guillemotright /onequarter /onehalf
/threequarters /questiondown /Agrave /Aacute /Acircumflex
/Atilde /Adieresis /Aring /AE /Ccedilla
/Egrave /Eacute /Ecircumflex /Edieresis /Igrave
/Iacute /Icircumflex /Idieresis /Eth /Ntilde
/Ograve /Oacute /Ocircumflex /Otilde /Odieresis
/multiply /Oslash /Ugrave /Uacute /Ucircumflex
/Udieresis /Yacute /Thorn /germandbls /agrave
/aacute /acircumflex /atilde /adieresis /aring
/ae /ccedilla /egrave /eacute /ecircumflex
/edieresis /igrave /iacute /icircumflex /idieresis
/eth /ntilde /ograve /oacute /ocircumflex
/otilde /odieresis /divide /oslash /ugrave
/uacute /ucircumflex /udieresis /yacute /thorn
/ydieresis
] def
%%EndResource
%FOPBeginFontReencode
/Courier-Oblique findfont
dup length dict begin
  {1 index /FID ne {def} {pop pop} ifelse} forall
  /Encoding WinAnsiEncoding def
  currentdict
end
/Courier-Oblique exch definefont pop
/Courier-BoldOblique findfont
dup length dict begin
  {1 index /FID ne {def} {pop pop} ifelse} forall
  /Encoding WinAnsiEncoding def
  currentdict
end
/Courier-BoldOblique exch definefont pop
/Courier-Bold findfont
dup length dict begin
  {1 index /FID ne {def} {pop pop} ifelse} forall
  /Encoding WinAnsiEncoding def
  currentdict
end
/Courier-Bold exch definefont pop
/Helvetica findfont
dup length dict begin
  {1 index /FID ne {def} {pop pop} ifelse} forall
  /Encoding WinAnsiEncoding def
  currentdict
end
/Helvetica exch definefont pop
/Helvetica-Oblique findfont
dup length dict begin
  {1 index /FID ne {def} {pop pop} ifelse} forall
  /Encoding WinAnsiEncoding def
  currentdict
end
/Helvetica-Oblique exch definefont pop
/Helvetica-Bold findfont
dup length dict begin
  {1 index /FID ne {def} {pop pop} ifelse} forall
  /Encoding WinAnsiEncoding def
  currentdict
end
/Helvetica-Bold exch definefont pop
/Helvetica-BoldOblique findfont
dup length dict begin
  {1 index /FID ne {def} {pop pop} ifelse} forall
  /Encoding WinAnsiEncoding def
  currentdict
end
/Helvetica-BoldOblique exch definefont pop
/Times-Roman findfont
dup length dict begin
  {1 index /FID ne {def} {pop pop} ifelse} forall
  /Encoding WinAnsiEncoding def
  currentdict
end
/Times-Roman exch definefont pop
/Times-Italic findfont
dup length dict begin
  {1 index /FID ne {def} {pop pop} ifelse} forall
  /Encoding WinAnsiEncoding def
  currentdict
end
/Times-Italic exch definefont pop
/Times-Bold findfont
dup length dict begin
  {1 index /FID ne {def} {pop pop} ifelse} forall
  /Encoding WinAnsiEncoding def
  currentdict
end
/Times-Bold exch definefont pop
/Times-BoldItalic findfont
dup length dict begin
  {1 index /FID ne {def} {pop pop} ifelse} forall
  /Encoding WinAnsiEncoding def
  currentdict
end
/Times-BoldItalic exch definefont pop
/Courier findfont
dup length dict begin
  {1 index /FID ne {def} {pop pop} ifelse} forall
  /Encoding WinAnsiEncoding def
  currentdict
end
/Courier exch definefont pop
%FOPEndFontReencode
%%EndProlog
%%Page: 1 1
%%PageBoundingBox: 0 0 420 315
%%BeginPageSetup
[1 0 0 -1 0 315] CT
%%EndPageSetup
GS
[0.6 0 0 0.6 0 0] CT
1 GC
N
0 0 700 525 re
f
GR
GS
[0.6 0 0 0.6 0 0] CT
1 GC
N
0 0 700 525 re
f
GR
GS
[0.6 0 0 0.6 0 0] CT
1 GC
N
91 467 M
634 467 L
634 39 L
91 39 L
cp
f
GR
GS
[0.6 0 0 0.6 0 0] CT
0.873 GC
1 LJ
0.833 LW
N
91 467 M
91 39 L
S
GR
GS
[0.6 0 0 0.6 0 0] CT
0.873 GC
1 LJ
0.833 LW
N
145.3 467 M
145.3 39 L
S
GR
GS
[0.6 0 0 0.6 0 0] CT
0.873 GC
1 LJ
0.833 LW
N
199.6 467 M
199.6 39 L
S
GR
GS
[0.6 0 0 0.6 0 0] CT
0.873 GC
1 LJ
0.833 LW
N
253.9 467 M
253.9 39 L
S
GR
GS
[0.6 0 0 0.6 0 0] CT
0.873 GC
1 LJ
0.833 LW
N
308.2 467 M
308.2 39 L
S
GR
GS
[0.6 0 0 0.6 0 0] CT
0.873 GC
1 LJ
0.833 LW
N
362.5 467 M
362.5 39 L
S
GR
GS
[0.6 0 0 0.6 0 0] CT
0.873 GC
1 LJ
0.833 LW
N
416.8 467 M
416.8 39 L
S
GR
GS
[0.6 0 0 0.6 0 0] CT
0.873 GC
1 LJ
0.833 LW
N
471.1 467 M
471.1 39 L
S
GR
GS
[0.6 0 0 0.6 0 0] CT
0.873 GC
1 LJ
0.833 LW
N
525.4 467 M
525.4 39 L
S
GR
GS
[0.6 0 0 0.6 0 0] CT
0.873 GC
1 LJ
0.833 LW
N
579.7 467 M
579.7 39 L
S
GR
GS
[0.6 0 0 0.6 0 0] CT
0.873 GC
1 LJ
0.833 LW
N
634 467 M
634 39 L
S
GR
GS
[0.6 0 0 0.6 0 0] CT
0.873 GC
1 LJ
0.833 LW
N
634 467 M
91 467 L
S
GR
GS
[0.6 0 0 0.6 0 0] CT
0.873 GC
1 LJ
0.833 LW
N
634 405.857 M
91 405.857 L
S
GR
GS
[0.6 0 0 0.6 0 0] CT
0.873 GC
1 LJ
0.833 LW
N
634 344.714 M
91 344.714 L
S
GR
GS
[0.6 0 0 0.6 0 0] CT
0.873 GC
1 LJ
0.833 LW
N
634 283.571 M
91 283.571 L
S
GR
GS
[0.6 0 0 0.6 0 0] CT
0.873 GC
1 LJ
0.833 LW
N
634 222.429 M
91 222.429 L
S
GR
GS
[0.6 0 0 0.6 0 0] CT
0.873 GC
1 LJ
0.833 LW
N
634 161.286 M
91 161.286 L
S
GR
GS
[0.6 0 0 0.6 0 0] CT
0.873 GC
1 LJ
0.833 LW
N
634 100.143 M
91 100.143 L
S
GR
GS
[0.6 0 0 0.6 0 0] CT
0.873 GC
1 LJ
0.833 LW
N
634 39 M
91 39 L
S
GR
GS
[0.6 0 0 0.6 0 0] CT
0.149 GC
2 setlinecap
1 LJ
0.833 LW
N
91 467 M
634 467 L
S
GR
GS
[0.6 0 0 0.6 0 0] CT
0.149 GC
2 setlinecap
1 LJ
0.833 LW
N
91 39 M
634 39 L
S
GR
GS
[0.6 0 0 0.6 0 0] CT
0.149 GC
2 setlinecap
1 LJ
0.833 LW
N
91 467 M
91 461.57 L
S
GR
GS
[0.6 0 0 0.6 0 0] CT
0.149 GC
2 setlinecap
1 LJ
0.833 LW
N
145.3 467 M
145.3 461.57 L
S
GR
GS
[0.6 0 0 0.6 0 0] CT
0.149 GC
2 setlinecap
1 LJ
0.833 LW
N
199.6 467 M
199.6 461.57 L
S
GR
GS
[0.6 0 0 0.6 0 0] CT
0.149 GC
2 setlinecap
1 LJ
0.833 LW
N
253.9 467 M
253.9 461.57 L
S
GR
GS
[0.6 0 0 0.6 0 0] CT
0.149 GC
2 setlinecap
1 LJ
0.833 LW
N
308.2 467 M
308.2 461.57 L
S
GR
GS
[0.6 0 0 0.6 0 0] CT
0.149 GC
2 setlinecap
1 LJ
0.833 LW
N
362.5 467 M
362.5 461.57 L
S
GR
GS
[0.6 0 0 0.6 0 0] CT
0.149 GC
2 setlinecap
1 LJ
0.833 LW
N
416.8 467 M
416.8 461.57 L
S
GR
GS
[0.6 0 0 0.6 0 0] CT
0.149 GC
2 setlinecap
1 LJ
0.833 LW
N
471.1 467 M
471.1 461.57 L
S
GR
GS
[0.6 0 0 0.6 0 0] CT
0.149 GC
2 setlinecap
1 LJ
0.833 LW
N
525.4 467 M
525.4 461.57 L
S
GR
GS
[0.6 0 0 0.6 0 0] CT
0.149 GC
2 setlinecap
1 LJ
0.833 LW
N
579.7 467 M
579.7 461.57 L
S
GR
GS
[0.6 0 0 0.6 0 0] CT
0.149 GC
2 setlinecap
1 LJ
0.833 LW
N
634 467 M
634 461.57 L
S
GR
GS
[0.6 0 0 0.6 0 0] CT
0.149 GC
2 setlinecap
1 LJ
0.833 LW
N
91 39 M
91 44.43 L
S
GR
GS
[0.6 0 0 0.6 0 0] CT
0.149 GC
2 setlinecap
1 LJ
0.833 LW
N
145.3 39 M
145.3 44.43 L
S
GR
GS
[0.6 0 0 0.6 0 0] CT
0.149 GC
2 setlinecap
1 LJ
0.833 LW
N
199.6 39 M
199.6 44.43 L
S
GR
GS
[0.6 0 0 0.6 0 0] CT
0.149 GC
2 setlinecap
1 LJ
0.833 LW
N
253.9 39 M
253.9 44.43 L
S
GR
GS
[0.6 0 0 0.6 0 0] CT
0.149 GC
2 setlinecap
1 LJ
0.833 LW
N
308.2 39 M
308.2 44.43 L
S
GR
GS
[0.6 0 0 0.6 0 0] CT
0.149 GC
2 setlinecap
1 LJ
0.833 LW
N
362.5 39 M
362.5 44.43 L
S
GR
GS
[0.6 0 0 0.6 0 0] CT
0.149 GC
2 setlinecap
1 LJ
0.833 LW
N
416.8 39 M
416.8 44.43 L
S
GR
GS
[0.6 0 0 0.6 0 0] CT
0.149 GC
2 setlinecap
1 LJ
0.833 LW
N
471.1 39 M
471.1 44.43 L
S
GR
GS
[0.6 0 0 0.6 0 0] CT
0.149 GC
2 setlinecap
1 LJ
0.833 LW
N
525.4 39 M
525.4 44.43 L
S
GR
GS
[0.6 0 0 0.6 0 0] CT
0.149 GC
2 setlinecap
1 LJ
0.833 LW
N
579.7 39 M
579.7 44.43 L
S
GR
GS
[0.6 0 0 0.6 0 0] CT
0.149 GC
2 setlinecap
1 LJ
0.833 LW
N
634 39 M
634 44.43 L
S
GR
GS
[0.6 0 0 0.6 54.6 284.19999] CT
0.149 GC
/Helvetica 16.667 F
GS
[1 0 0 1 0 0] CT
-5 17 moveto 
1 -1 scale
(0) t 
GR
GR
GS
[0.6 0 0 0.6 87.18 284.19999] CT
0.149 GC
/Helvetica 16.667 F
GS
[1 0 0 1 0 0] CT
-5 17 moveto 
1 -1 scale
(5) t 
GR
GR
GS
[0.6 0 0 0.6 119.76 284.19999] CT
0.149 GC
/Helvetica 16.667 F
GS
[1 0 0 1 0 0] CT
-9.5 17 moveto 
1 -1 scale
(10) t 
GR
GR
GS
[0.6 0 0 0.6 152.34 284.19999] CT
0.149 GC
/Helvetica 16.667 F
GS
[1 0 0 1 0 0] CT
-9.5 17 moveto 
1 -1 scale
(15) t 
GR
GR
GS
[0.6 0 0 0.6 184.92001 284.19999] CT
0.149 GC
/Helvetica 16.667 F
GS
[1 0 0 1 0 0] CT
-9.5 17 moveto 
1 -1 scale
(20) t 
GR
GR
GS
[0.6 0 0 0.6 217.5 284.19999] CT
0.149 GC
/Helvetica 16.667 F
GS
[1 0 0 1 0 0] CT
-9.5 17 moveto 
1 -1 scale
(25) t 
GR
GR
GS
[0.6 0 0 0.6 250.07999 284.19999] CT
0.149 GC
/Helvetica 16.667 F
GS
[1 0 0 1 0 0] CT
-9.5 17 moveto 
1 -1 scale
(30) t 
GR
GR
GS
[0.6 0 0 0.6 282.66 284.19999] CT
0.149 GC
/Helvetica 16.667 F
GS
[1 0 0 1 0 0] CT
-9.5 17 moveto 
1 -1 scale
(35) t 
GR
GR
GS
[0.6 0 0 0.6 315.24001 284.19999] CT
0.149 GC
/Helvetica 16.667 F
GS
[1 0 0 1 0 0] CT
-9.5 17 moveto 
1 -1 scale
(40) t 
GR
GR
GS
[0.6 0 0 0.6 347.82001 284.19999] CT
0.149 GC
/Helvetica 16.667 F
GS
[1 0 0 1 0 0] CT
-9.5 17 moveto 
1 -1 scale
(45) t 
GR
GR
GS
[0.6 0 0 0.6 380.4 284.19999] CT
0.149 GC
/Helvetica 16.667 F
GS
[1 0 0 1 0 0] CT
-9.5 17 moveto 
1 -1 scale
(50) t 
GR
GR
GS
[0.6 0 0 0.6 217.50015 297.80001] CT
0.149 GC
/Helvetica 18.333 F
GS
[1 0 0 1 0 0] CT
-48 19 moveto 
1 -1 scale
(n \(samples\)) t 
GR
GR
GS
[0.6 0 0 0.6 0 0] CT
0.149 GC
2 setlinecap
1 LJ
0.833 LW
N
91 467 M
91 39 L
S
GR
GS
[0.6 0 0 0.6 0 0] CT
0.149 GC
2 setlinecap
1 LJ
0.833 LW
N
634 467 M
634 39 L
S
GR
GS
[0.6 0 0 0.6 0 0] CT
0.149 GC
2 setlinecap
1 LJ
0.833 LW
N
91 467 M
96.43 467 L
S
GR
GS
[0.6 0 0 0.6 0 0] CT
0.149 GC
2 setlinecap
1 LJ
0.833 LW
N
91 405.857 M
96.43 405.857 L
S
GR
GS
[0.6 0 0 0.6 0 0] CT
0.149 GC
2 setlinecap
1 LJ
0.833 LW
N
91 344.714 M
96.43 344.714 L
S
GR
GS
[0.6 0 0 0.6 0 0] CT
0.149 GC
2 setlinecap
1 LJ
0.833 LW
N
91 283.571 M
96.43 283.571 L
S
GR
GS
[0.6 0 0 0.6 0 0] CT
0.149 GC
2 setlinecap
1 LJ
0.833 LW
N
91 222.429 M
96.43 222.429 L
S
GR
GS
[0.6 0 0 0.6 0 0] CT
0.149 GC
2 setlinecap
1 LJ
0.833 LW
N
91 161.286 M
96.43 161.286 L
S
GR
GS
[0.6 0 0 0.6 0 0] CT
0.149 GC
2 setlinecap
1 LJ
0.833 LW
N
91 100.143 M
96.43 100.143 L
S
GR
GS
[0.6 0 0 0.6 0 0] CT
0.149 GC
2 setlinecap
1 LJ
0.833 LW
N
91 39 M
96.43 39 L
S
GR
GS
[0.6 0 0 0.6 0 0] CT
0.149 GC
2 setlinecap
1 LJ
0.833 LW
N
634 467 M
628.57 467 L
S
GR
GS
[0.6 0 0 0.6 0 0] CT
0.149 GC
2 setlinecap
1 LJ
0.833 LW
N
634 405.857 M
628.57 405.857 L
S
GR
GS
[0.6 0 0 0.6 0 0] CT
0.149 GC
2 setlinecap
1 LJ
0.833 LW
N
634 344.714 M
628.57 344.714 L
S
GR
GS
[0.6 0 0 0.6 0 0] CT
0.149 GC
2 setlinecap
1 LJ
0.833 LW
N
634 283.571 M
628.57 283.571 L
S
GR
GS
[0.6 0 0 0.6 0 0] CT
0.149 GC
2 setlinecap
1 LJ
0.833 LW
N
634 222.429 M
628.57 222.429 L
S
GR
GS
[0.6 0 0 0.6 0 0] CT
0.149 GC
2 setlinecap
1 LJ
0.833 LW
N
634 161.286 M
628.57 161.286 L
S
GR
GS
[0.6 0 0 0.6 0 0] CT
0.149 GC
2 setlinecap
1 LJ
0.833 LW
N
634 100.143 M
628.57 100.143 L
S
GR
GS
[0.6 0 0 0.6 0 0] CT
0.149 GC
2 setlinecap
1 LJ
0.833 LW
N
634 39 M
628.57 39 L
S
GR
GS
[0.6 0 0 0.6 50.6 280.2] CT
0.149 GC
/Helvetica 16.667 F
GS
[1 0 0 1 0 0] CT
-15 6.5 moveto 
1 -1 scale
(-3) t 
GR
GR
GS
[0.6 0 0 0.6 50.6 243.51429] CT
0.149 GC
/Helvetica 16.667 F
GS
[1 0 0 1 0 0] CT
-15 6.5 moveto 
1 -1 scale
(-2) t 
GR
GR
GS
[0.6 0 0 0.6 50.6 206.82858] CT
0.149 GC
/Helvetica 16.667 F
GS
[1 0 0 1 0 0] CT
-15 6.5 moveto 
1 -1 scale
(-1) t 
GR
GR
GS
[0.6 0 0 0.6 50.6 170.14286] CT
0.149 GC
/Helvetica 16.667 F
GS
[1 0 0 1 0 0] CT
-10 6.5 moveto 
1 -1 scale
(0) t 
GR
GR
GS
[0.6 0 0 0.6 50.6 133.45714] CT
0.149 GC
/Helvetica 16.667 F
GS
[1 0 0 1 0 0] CT
-10 6.5 moveto 
1 -1 scale
(1) t 
GR
GR
GS
[0.6 0 0 0.6 50.6 96.77143] CT
0.149 GC
/Helvetica 16.667 F
GS
[1 0 0 1 0 0] CT
-10 6.5 moveto 
1 -1 scale
(2) t 
GR
GR
GS
[0.6 0 0 0.6 50.6 60.08572] CT
0.149 GC
/Helvetica 16.667 F
GS
[1 0 0 1 0 0] CT
-10 6.5 moveto 
1 -1 scale
(3) t 
GR
GR
GS
[0.6 0 0 0.6 50.6 23.4] CT
0.149 GC
/Helvetica 16.667 F
GS
[1 0 0 1 0 0] CT
-10 6.5 moveto 
1 -1 scale
(4) t 
GR
GR
GS
[0 -0.6 0.6 0 38.6 151.79988] CT
0.149 GC
/Helvetica 18.333 F
GS
[1 0 0 1 0 0] CT
-41 -5 moveto 
1 -1 scale
(Amplitude) t 
GR
GR
GS
[0.6 0 0 0.6 0 0] CT
0.149 GC
1 LJ
0.833 LW
N
91 283.571 M
634 283.571 L
S
GR
GS
[0.6 0 0 0.6 61.116 150.41816] CT
0 0 1 RC
N
5 0 M
5 -2.761 2.761 -5 0 -5 C
-2.761 -5 -5 -2.761 -5 0 C
-5 2.761 -2.761 5 0 5 C
2.761 5 5 2.761 5 0 C
f
GR
GS
[0.6 0 0 0.6 61.116 150.41816] CT
0 0 1 RC
10.0 ML
N
5 0 M
5 -2.761 2.761 -5 0 -5 C
-2.761 -5 -5 -2.761 -5 0 C
-5 2.761 -2.761 5 0 5 C
2.761 5 5 2.761 5 0 C
S
GR
GS
[0.6 0 0 0.6 67.632 102.86548] CT
0 0 1 RC
N
/f1626255170{5 0 M
5 -2.761 2.761 -5 0 -5 C
-2.761 -5 -5 -2.761 -5 0 C
-5 2.761 -2.761 5 0 5 C
2.761 5 5 2.761 5 0 C}def
f1626255170
f
GR
GS
[0.6 0 0 0.6 67.632 102.86548] CT
0 0 1 RC
10.0 ML
N
5 0 M
5 -2.761 2.761 -5 0 -5 C
-2.761 -5 -5 -2.761 -5 0 C
-5 2.761 -2.761 5 0 5 C
2.761 5 5 2.761 5 0 C
S
GR
GS
[0.6 0 0 0.6 74.148 253.01027] CT
0 0 1 RC
N
f1626255170
f
GR
GS
[0.6 0 0 0.6 74.148 253.01027] CT
0 0 1 RC
10.0 ML
N
5 0 M
5 -2.761 2.761 -5 0 -5 C
-2.761 -5 -5 -2.761 -5 0 C
-5 2.761 -2.761 5 0 5 C
2.761 5 5 2.761 5 0 C
S
GR
GS
[0.6 0 0 0.6 80.664 138.51341] CT
0 0 1 RC
N
f1626255170
f
GR
GS
[0.6 0 0 0.6 80.664 138.51341] CT
0 0 1 RC
10.0 ML
N
5 0 M
5 -2.761 2.761 -5 0 -5 C
-2.761 -5 -5 -2.761 -5 0 C
-5 2.761 -2.761 5 0 5 C
2.761 5 5 2.761 5 0 C
S
GR
GS
[0.6 0 0 0.6 87.18 158.44872] CT
0 0 1 RC
N
f1626255170
f
GR
GS
[0.6 0 0 0.6 87.18 158.44872] CT
0 0 1 RC
10.0 ML
N
5 0 M
5 -2.761 2.761 -5 0 -5 C
-2.761 -5 -5 -2.761 -5 0 C
-5 2.761 -2.761 5 0 5 C
2.761 5 5 2.761 5 0 C
S
GR
GS
[0.6 0 0 0.6 93.696 218.11633] CT
0 0 1 RC
N
f1626255170
f
GR
GS
[0.6 0 0 0.6 93.696 218.11633] CT
0 0 1 RC
10.0 ML
N
5 0 M
5 -2.761 2.761 -5 0 -5 C
-2.761 -5 -5 -2.761 -5 0 C
-5 2.761 -2.761 5 0 5 C
2.761 5 5 2.761 5 0 C
S
GR
GS
[0.6 0 0 0.6 100.212 186.04949] CT
0 0 1 RC
N
f1626255170
f
GR
GS
[0.6 0 0 0.6 100.212 186.04949] CT
0 0 1 RC
10.0 ML
N
5 0 M
5 -2.761 2.761 -5 0 -5 C
-2.761 -5 -5 -2.761 -5 0 C
-5 2.761 -2.761 5 0 5 C
2.761 5 5 2.761 5 0 C
S
GR
GS
[0.6 0 0 0.6 106.728 157.57343] CT
0 0 1 RC
N
f1626255170
f
GR
GS
[0.6 0 0 0.6 106.728 157.57343] CT
0 0 1 RC
10.0 ML
N
5 0 M
5 -2.761 2.761 -5 0 -5 C
-2.761 -5 -5 -2.761 -5 0 C
-5 2.761 -2.761 5 0 5 C
2.761 5 5 2.761 5 0 C
S
GR
GS
[0.6 0 0 0.6 113.244 38.8668] CT
0 0 1 RC
N
f1626255170
f
GR
GS
[0.6 0 0 0.6 113.244 38.8668] CT
0 0 1 RC
10.0 ML
N
5 0 M
5 -2.761 2.761 -5 0 -5 C
-2.761 -5 -5 -2.761 -5 0 C
-5 2.761 -2.761 5 0 5 C
2.761 5 5 2.761 5 0 C
S
GR
GS
[0.6 0 0 0.6 119.76 68.54408] CT
0 0 1 RC
N
f1626255170
f
GR
GS
[0.6 0 0 0.6 119.76 68.54408] CT
0 0 1 RC
10.0 ML
N
5 0 M
5 -2.761 2.761 -5 0 -5 C
-2.761 -5 -5 -2.761 -5 0 C
-5 2.761 -2.761 5 0 5 C
2.761 5 5 2.761 5 0 C
S
GR
GS
[0.6 0 0 0.6 126.276 219.66442] CT
0 0 1 RC
N
f1626255170
f
GR
GS
[0.6 0 0 0.6 126.276 219.66442] CT
0 0 1 RC
10.0 ML
N
5 0 M
5 -2.761 2.761 -5 0 -5 C
-2.761 -5 -5 -2.761 -5 0 C
-5 2.761 -2.761 5 0 5 C
2.761 5 5 2.761 5 0 C
S
GR
GS
[0.6 0 0 0.6 132.792 58.80452] CT
0 0 1 RC
N
f1626255170
f
GR
GS
[0.6 0 0 0.6 132.792 58.80452] CT
0 0 1 RC
10.0 ML
N
5 0 M
5 -2.761 2.761 -5 0 -5 C
-2.761 -5 -5 -2.761 -5 0 C
-5 2.761 -2.761 5 0 5 C
2.761 5 5 2.761 5 0 C
S
GR
GS
[0.6 0 0 0.6 139.308 143.53088] CT
0 0 1 RC
N
f1626255170
f
GR
GS
[0.6 0 0 0.6 139.308 143.53088] CT
0 0 1 RC
10.0 ML
N
5 0 M
5 -2.761 2.761 -5 0 -5 C
-2.761 -5 -5 -2.761 -5 0 C
-5 2.761 -2.761 5 0 5 C
2.761 5 5 2.761 5 0 C
S
GR
GS
[0.6 0 0 0.6 145.824 172.45607] CT
0 0 1 RC
N
f1626255170
f
GR
GS
[0.6 0 0 0.6 145.824 172.45607] CT
0 0 1 RC
10.0 ML
N
5 0 M
5 -2.761 2.761 -5 0 -5 C
-2.761 -5 -5 -2.761 -5 0 C
-5 2.761 -2.761 5 0 5 C
2.761 5 5 2.761 5 0 C
S
GR
GS
[0.6 0 0 0.6 152.34 143.92201] CT
0 0 1 RC
N
f1626255170
f
GR
GS
[0.6 0 0 0.6 152.34 143.92201] CT
0 0 1 RC
10.0 ML
N
5 0 M
5 -2.761 2.761 -5 0 -5 C
-2.761 -5 -5 -2.761 -5 0 C
-5 2.761 -2.761 5 0 5 C
2.761 5 5 2.761 5 0 C
S
GR
GS
[0.6 0 0 0.6 158.85601 177.66218] CT
0 0 1 RC
N
f1626255170
f
GR
GS
[0.6 0 0 0.6 158.85601 177.66218] CT
0 0 1 RC
10.0 ML
N
5 0 M
5 -2.761 2.761 -5 0 -5 C
-2.761 -5 -5 -2.761 -5 0 C
-5 2.761 -2.761 5 0 5 C
2.761 5 5 2.761 5 0 C
S
GR
GS
[0.6 0 0 0.6 165.372 174.69717] CT
0 0 1 RC
N
f1626255170
f
GR
GS
[0.6 0 0 0.6 165.372 174.69717] CT
0 0 1 RC
10.0 ML
N
5 0 M
5 -2.761 2.761 -5 0 -5 C
-2.761 -5 -5 -2.761 -5 0 C
-5 2.761 -2.761 5 0 5 C
2.761 5 5 2.761 5 0 C
S
GR
GS
[0.6 0 0 0.6 171.88801 115.49224] CT
0 0 1 RC
N
f1626255170
f
GR
GS
[0.6 0 0 0.6 171.88801 115.49224] CT
0 0 1 RC
10.0 ML
N
5 0 M
5 -2.761 2.761 -5 0 -5 C
-2.761 -5 -5 -2.761 -5 0 C
-5 2.761 -2.761 5 0 5 C
2.761 5 5 2.761 5 0 C
S
GR
GS
[0.6 0 0 0.6 178.404 118.45142] CT
0 0 1 RC
N
f1626255170
f
GR
GS
[0.6 0 0 0.6 178.404 118.45142] CT
0 0 1 RC
10.0 ML
N
5 0 M
5 -2.761 2.761 -5 0 -5 C
-2.761 -5 -5 -2.761 -5 0 C
-5 2.761 -2.761 5 0 5 C
2.761 5 5 2.761 5 0 C
S
GR
GS
[0.6 0 0 0.6 184.92001 118.15214] CT
0 0 1 RC
N
f1626255170
f
GR
GS
[0.6 0 0 0.6 184.92001 118.15214] CT
0 0 1 RC
10.0 ML
N
5 0 M
5 -2.761 2.761 -5 0 -5 C
-2.761 -5 -5 -2.761 -5 0 C
-5 2.761 -2.761 5 0 5 C
2.761 5 5 2.761 5 0 C
S
GR
GS
[0.6 0 0 0.6 191.436 145.50851] CT
0 0 1 RC
N
f1626255170
f
GR
GS
[0.6 0 0 0.6 191.436 145.50851] CT
0 0 1 RC
10.0 ML
N
5 0 M
5 -2.761 2.761 -5 0 -5 C
-2.761 -5 -5 -2.761 -5 0 C
-5 2.761 -2.761 5 0 5 C
2.761 5 5 2.761 5 0 C
S
GR
GS
[0.6 0 0 0.6 197.95201 214.44038] CT
0 0 1 RC
N
f1626255170
f
GR
GS
[0.6 0 0 0.6 197.95201 214.44038] CT
0 0 1 RC
10.0 ML
N
5 0 M
5 -2.761 2.761 -5 0 -5 C
-2.761 -5 -5 -2.761 -5 0 C
-5 2.761 -2.761 5 0 5 C
2.761 5 5 2.761 5 0 C
S
GR
GS
[0.6 0 0 0.6 204.468 143.83044] CT
0 0 1 RC
N
f1626255170
f
GR
GS
[0.6 0 0 0.6 204.468 143.83044] CT
0 0 1 RC
10.0 ML
N
5 0 M
5 -2.761 2.761 -5 0 -5 C
-2.761 -5 -5 -2.761 -5 0 C
-5 2.761 -2.761 5 0 5 C
2.761 5 5 2.761 5 0 C
S
GR
GS
[0.6 0 0 0.6 210.98401 110.33651] CT
0 0 1 RC
N
f1626255170
f
GR
GS
[0.6 0 0 0.6 210.98401 110.33651] CT
0 0 1 RC
10.0 ML
N
5 0 M
5 -2.761 2.761 -5 0 -5 C
-2.761 -5 -5 -2.761 -5 0 C
-5 2.761 -2.761 5 0 5 C
2.761 5 5 2.761 5 0 C
S
GR
GS
[0.6 0 0 0.6 217.5 152.20744] CT
0 0 1 RC
N
f1626255170
f
GR
GS
[0.6 0 0 0.6 217.5 152.20744] CT
0 0 1 RC
10.0 ML
N
5 0 M
5 -2.761 2.761 -5 0 -5 C
-2.761 -5 -5 -2.761 -5 0 C
-5 2.761 -2.761 5 0 5 C
2.761 5 5 2.761 5 0 C
S
GR
GS
[0.6 0 0 0.6 224.01599 132.18441] CT
0 0 1 RC
N
f1626255170
f
GR
GS
[0.6 0 0 0.6 224.01599 132.18441] CT
0 0 1 RC
10.0 ML
N
5 0 M
5 -2.761 2.761 -5 0 -5 C
-2.761 -5 -5 -2.761 -5 0 C
-5 2.761 -2.761 5 0 5 C
2.761 5 5 2.761 5 0 C
S
GR
GS
[0.6 0 0 0.6 230.532 143.47656] CT
0 0 1 RC
N
f1626255170
f
GR
GS
[0.6 0 0 0.6 230.532 143.47656] CT
0 0 1 RC
10.0 ML
N
5 0 M
5 -2.761 2.761 -5 0 -5 C
-2.761 -5 -5 -2.761 -5 0 C
-5 2.761 -2.761 5 0 5 C
2.761 5 5 2.761 5 0 C
S
GR
GS
[0.6 0 0 0.6 237.04799 181.2748] CT
0 0 1 RC
N
f1626255170
f
GR
GS
[0.6 0 0 0.6 237.04799 181.2748] CT
0 0 1 RC
10.0 ML
N
5 0 M
5 -2.761 2.761 -5 0 -5 C
-2.761 -5 -5 -2.761 -5 0 C
-5 2.761 -2.761 5 0 5 C
2.761 5 5 2.761 5 0 C
S
GR
GS
[0.6 0 0 0.6 243.564 159.36198] CT
0 0 1 RC
N
f1626255170
f
GR
GS
[0.6 0 0 0.6 243.564 159.36198] CT
0 0 1 RC
10.0 ML
N
5 0 M
5 -2.761 2.761 -5 0 -5 C
-2.761 -5 -5 -2.761 -5 0 C
-5 2.761 -2.761 5 0 5 C
2.761 5 5 2.761 5 0 C
S
GR
GS
[0.6 0 0 0.6 250.07999 199.0249] CT
0 0 1 RC
N
f1626255170
f
GR
GS
[0.6 0 0 0.6 250.07999 199.0249] CT
0 0 1 RC
10.0 ML
N
5 0 M
5 -2.761 2.761 -5 0 -5 C
-2.761 -5 -5 -2.761 -5 0 C
-5 2.761 -2.761 5 0 5 C
2.761 5 5 2.761 5 0 C
S
GR
GS
[0.6 0 0 0.6 256.596 137.55143] CT
0 0 1 RC
N
f1626255170
f
GR
GS
[0.6 0 0 0.6 256.596 137.55143] CT
0 0 1 RC
10.0 ML
N
5 0 M
5 -2.761 2.761 -5 0 -5 C
-2.761 -5 -5 -2.761 -5 0 C
-5 2.761 -2.761 5 0 5 C
2.761 5 5 2.761 5 0 C
S
GR
GS
[0.6 0 0 0.6 263.11199 212.22394] CT
0 0 1 RC
N
f1626255170
f
GR
GS
[0.6 0 0 0.6 263.11199 212.22394] CT
0 0 1 RC
10.0 ML
N
5 0 M
5 -2.761 2.761 -5 0 -5 C
-2.761 -5 -5 -2.761 -5 0 C
-5 2.761 -2.761 5 0 5 C
2.761 5 5 2.761 5 0 C
S
GR
GS
[0.6 0 0 0.6 269.628 209.35514] CT
0 0 1 RC
N
f1626255170
f
GR
GS
[0.6 0 0 0.6 269.628 209.35514] CT
0 0 1 RC
10.0 ML
N
5 0 M
5 -2.761 2.761 -5 0 -5 C
-2.761 -5 -5 -2.761 -5 0 C
-5 2.761 -2.761 5 0 5 C
2.761 5 5 2.761 5 0 C
S
GR
GS
[0.6 0 0 0.6 276.14399 199.8399] CT
0 0 1 RC
N
f1626255170
f
GR
GS
[0.6 0 0 0.6 276.14399 199.8399] CT
0 0 1 RC
10.0 ML
N
5 0 M
5 -2.761 2.761 -5 0 -5 C
-2.761 -5 -5 -2.761 -5 0 C
-5 2.761 -2.761 5 0 5 C
2.761 5 5 2.761 5 0 C
S
GR
GS
[0.6 0 0 0.6 282.66 278.15603] CT
0 0 1 RC
N
f1626255170
f
GR
GS
[0.6 0 0 0.6 282.66 278.15603] CT
0 0 1 RC
10.0 ML
N
5 0 M
5 -2.761 2.761 -5 0 -5 C
-2.761 -5 -5 -2.761 -5 0 C
-5 2.761 -2.761 5 0 5 C
2.761 5 5 2.761 5 0 C
S
GR
GS
[0.6 0 0 0.6 289.17599 117.37485] CT
0 0 1 RC
N
f1626255170
f
GR
GS
[0.6 0 0 0.6 289.17599 117.37485] CT
0 0 1 RC
10.0 ML
N
5 0 M
5 -2.761 2.761 -5 0 -5 C
-2.761 -5 -5 -2.761 -5 0 C
-5 2.761 -2.761 5 0 5 C
2.761 5 5 2.761 5 0 C
S
GR
GS
[0.6 0 0 0.6 295.692 158.21301] CT
0 0 1 RC
N
f1626255170
f
GR
GS
[0.6 0 0 0.6 295.692 158.21301] CT
0 0 1 RC
10.0 ML
N
5 0 M
5 -2.761 2.761 -5 0 -5 C
-2.761 -5 -5 -2.761 -5 0 C
-5 2.761 -2.761 5 0 5 C
2.761 5 5 2.761 5 0 C
S
GR
GS
[0.6 0 0 0.6 302.208 197.83793] CT
0 0 1 RC
N
f1626255170
f
GR
GS
[0.6 0 0 0.6 302.208 197.83793] CT
0 0 1 RC
10.0 ML
N
5 0 M
5 -2.761 2.761 -5 0 -5 C
-2.761 -5 -5 -2.761 -5 0 C
-5 2.761 -2.761 5 0 5 C
2.761 5 5 2.761 5 0 C
S
GR
GS
[0.6 0 0 0.6 308.72399 119.87248] CT
0 0 1 RC
N
f1626255170
f
GR
GS
[0.6 0 0 0.6 308.72399 119.87248] CT
0 0 1 RC
10.0 ML
N
5 0 M
5 -2.761 2.761 -5 0 -5 C
-2.761 -5 -5 -2.761 -5 0 C
-5 2.761 -2.761 5 0 5 C
2.761 5 5 2.761 5 0 C
S
GR
GS
[0.6 0 0 0.6 315.24001 232.93107] CT
0 0 1 RC
N
f1626255170
f
GR
GS
[0.6 0 0 0.6 315.24001 232.93107] CT
0 0 1 RC
10.0 ML
N
5 0 M
5 -2.761 2.761 -5 0 -5 C
-2.761 -5 -5 -2.761 -5 0 C
-5 2.761 -2.761 5 0 5 C
2.761 5 5 2.761 5 0 C
S
GR
GS
[0.6 0 0 0.6 321.75601 173.89369] CT
0 0 1 RC
N
f1626255170
f
GR
GS
[0.6 0 0 0.6 321.75601 173.89369] CT
0 0 1 RC
10.0 ML
N
5 0 M
5 -2.761 2.761 -5 0 -5 C
-2.761 -5 -5 -2.761 -5 0 C
-5 2.761 -2.761 5 0 5 C
2.761 5 5 2.761 5 0 C
S
GR
GS
[0.6 0 0 0.6 328.272 179.00052] CT
0 0 1 RC
N
f1626255170
f
GR
GS
[0.6 0 0 0.6 328.272 179.00052] CT
0 0 1 RC
10.0 ML
N
5 0 M
5 -2.761 2.761 -5 0 -5 C
-2.761 -5 -5 -2.761 -5 0 C
-5 2.761 -2.761 5 0 5 C
2.761 5 5 2.761 5 0 C
S
GR
GS
[0.6 0 0 0.6 334.78799 158.43254] CT
0 0 1 RC
N
f1626255170
f
GR
GS
[0.6 0 0 0.6 334.78799 158.43254] CT
0 0 1 RC
10.0 ML
N
5 0 M
5 -2.761 2.761 -5 0 -5 C
-2.761 -5 -5 -2.761 -5 0 C
-5 2.761 -2.761 5 0 5 C
2.761 5 5 2.761 5 0 C
S
GR
GS
[0.6 0 0 0.6 341.30402 158.66541] CT
0 0 1 RC
N
f1626255170
f
GR
GS
[0.6 0 0 0.6 341.30402 158.66541] CT
0 0 1 RC
10.0 ML
N
5 0 M
5 -2.761 2.761 -5 0 -5 C
-2.761 -5 -5 -2.761 -5 0 C
-5 2.761 -2.761 5 0 5 C
2.761 5 5 2.761 5 0 C
S
GR
GS
[0.6 0 0 0.6 347.82001 201.8716] CT
0 0 1 RC
N
f1626255170
f
GR
GS
[0.6 0 0 0.6 347.82001 201.8716] CT
0 0 1 RC
10.0 ML
N
5 0 M
5 -2.761 2.761 -5 0 -5 C
-2.761 -5 -5 -2.761 -5 0 C
-5 2.761 -2.761 5 0 5 C
2.761 5 5 2.761 5 0 C
S
GR
GS
[0.6 0 0 0.6 354.336 171.24531] CT
0 0 1 RC
N
f1626255170
f
GR
GS
[0.6 0 0 0.6 354.336 171.24531] CT
0 0 1 RC
10.0 ML
N
5 0 M
5 -2.761 2.761 -5 0 -5 C
-2.761 -5 -5 -2.761 -5 0 C
-5 2.761 -2.761 5 0 5 C
2.761 5 5 2.761 5 0 C
S
GR
GS
[0.6 0 0 0.6 360.85199 176.19157] CT
0 0 1 RC
N
f1626255170
f
GR
GS
[0.6 0 0 0.6 360.85199 176.19157] CT
0 0 1 RC
10.0 ML
N
5 0 M
5 -2.761 2.761 -5 0 -5 C
-2.761 -5 -5 -2.761 -5 0 C
-5 2.761 -2.761 5 0 5 C
2.761 5 5 2.761 5 0 C
S
GR
GS
[0.6 0 0 0.6 367.36802 147.11496] CT
0 0 1 RC
N
f1626255170
f
GR
GS
[0.6 0 0 0.6 367.36802 147.11496] CT
0 0 1 RC
10.0 ML
N
5 0 M
5 -2.761 2.761 -5 0 -5 C
-2.761 -5 -5 -2.761 -5 0 C
-5 2.761 -2.761 5 0 5 C
2.761 5 5 2.761 5 0 C
S
GR
GS
[0.6 0 0 0.6 373.88401 130.03563] CT
0 0 1 RC
N
f1626255170
f
GR
GS
[0.6 0 0 0.6 373.88401 130.03563] CT
0 0 1 RC
10.0 ML
N
5 0 M
5 -2.761 2.761 -5 0 -5 C
-2.761 -5 -5 -2.761 -5 0 C
-5 2.761 -2.761 5 0 5 C
2.761 5 5 2.761 5 0 C
S
GR
GS
[0.6 0 0 0.6 380.4 129.44837] CT
0 0 1 RC
N
f1626255170
f
GR
GS
[0.6 0 0 0.6 380.4 129.44837] CT
0 0 1 RC
10.0 ML
N
5 0 M
5 -2.761 2.761 -5 0 -5 C
-2.761 -5 -5 -2.761 -5 0 C
-5 2.761 -2.761 5 0 5 C
2.761 5 5 2.761 5 0 C
S
GR
GS
[0.6 0 0 0.6 0 0] CT
0 0 1 RC
1 LJ
0.833 LW
N
101.86 283.571 M
101.86 250.697 L
S
GR
GS
[0.6 0 0 0.6 0 0] CT
0 0 1 RC
1 LJ
0.833 LW
N
112.72 283.571 M
112.72 171.442 L
S
GR
GS
[0.6 0 0 0.6 0 0] CT
0 0 1 RC
1 LJ
0.833 LW
N
123.58 283.571 M
123.58 421.684 L
S
GR
GS
[0.6 0 0 0.6 0 0] CT
0 0 1 RC
1 LJ
0.833 LW
N
134.44 283.571 M
134.44 230.856 L
S
GR
GS
[0.6 0 0 0.6 0 0] CT
0 0 1 RC
1 LJ
0.833 LW
N
145.3 283.571 M
145.3 264.081 L
S
GR
GS
[0.6 0 0 0.6 0 0] CT
0 0 1 RC
1 LJ
0.833 LW
N
156.16 283.571 M
156.16 363.527 L
S
GR
GS
[0.6 0 0 0.6 0 0] CT
0 0 1 RC
1 LJ
0.833 LW
N
167.02 283.571 M
167.02 310.082 L
S
GR
GS
[0.6 0 0 0.6 0 0] CT
0 0 1 RC
1 LJ
0.833 LW
N
177.88 283.571 M
177.88 262.622 L
S
GR
GS
[0.6 0 0 0.6 0 0] CT
0 0 1 RC
1 LJ
0.833 LW
N
188.74 283.571 M
188.74 64.778 L
S
GR
GS
[0.6 0 0 0.6 0 0] CT
0 0 1 RC
1 LJ
0.833 LW
N
199.6 283.571 M
199.6 114.24 L
S
GR
GS
[0.6 0 0 0.6 0 0] CT
0 0 1 RC
1 LJ
0.833 LW
N
210.46 283.571 M
210.46 366.107 L
S
GR
GS
[0.6 0 0 0.6 0 0] CT
0 0 1 RC
1 LJ
0.833 LW
N
221.32 283.571 M
221.32 98.008 L
S
GR
GS
[0.6 0 0 0.6 0 0] CT
0 0 1 RC
1 LJ
0.833 LW
N
232.18 283.571 M
232.18 239.218 L
S
GR
GS
[0.6 0 0 0.6 0 0] CT
0 0 1 RC
1 LJ
0.833 LW
N
243.04 283.571 M
243.04 287.427 L
S
GR
GS
[0.6 0 0 0.6 0 0] CT
0 0 1 RC
1 LJ
0.833 LW
N
253.9 283.571 M
253.9 239.87 L
S
GR
GS
[0.6 0 0 0.6 0 0] CT
0 0 1 RC
1 LJ
0.833 LW
N
264.76 283.571 M
264.76 296.104 L
S
GR
GS
[0.6 0 0 0.6 0 0] CT
0 0 1 RC
1 LJ
0.833 LW
N
275.62 283.571 M
275.62 291.162 L
S
GR
GS
[0.6 0 0 0.6 0 0] CT
0 0 1 RC
1 LJ
0.833 LW
N
286.48 283.571 M
286.48 192.487 L
S
GR
GS
[0.6 0 0 0.6 0 0] CT
0 0 1 RC
1 LJ
0.833 LW
N
297.34 283.571 M
297.34 197.419 L
S
GR
GS
[0.6 0 0 0.6 0 0] CT
0 0 1 RC
1 LJ
0.833 LW
N
308.2 283.571 M
308.2 196.92 L
S
GR
GS
[0.6 0 0 0.6 0 0] CT
0 0 1 RC
1 LJ
0.833 LW
N
319.06 283.571 M
319.06 242.514 L
S
GR
GS
[0.6 0 0 0.6 0 0] CT
0 0 1 RC
1 LJ
0.833 LW
N
329.92 283.571 M
329.92 357.401 L
S
GR
GS
[0.6 0 0 0.6 0 0] CT
0 0 1 RC
1 LJ
0.833 LW
N
340.78 283.571 M
340.78 239.717 L
S
GR
GS
[0.6 0 0 0.6 0 0] CT
0 0 1 RC
1 LJ
0.833 LW
N
351.64 283.571 M
351.64 183.894 L
S
GR
GS
[0.6 0 0 0.6 0 0] CT
0 0 1 RC
1 LJ
0.833 LW
N
362.5 283.571 M
362.5 253.679 L
S
GR
GS
[0.6 0 0 0.6 0 0] CT
0 0 1 RC
1 LJ
0.833 LW
N
373.36 283.571 M
373.36 220.307 L
S
GR
GS
[0.6 0 0 0.6 0 0] CT
0 0 1 RC
1 LJ
0.833 LW
N
384.22 283.571 M
384.22 239.128 L
S
GR
GS
[0.6 0 0 0.6 0 0] CT
0 0 1 RC
1 LJ
0.833 LW
N
395.08 283.571 M
395.08 302.125 L
S
GR
GS
[0.6 0 0 0.6 0 0] CT
0 0 1 RC
1 LJ
0.833 LW
N
405.94 283.571 M
405.94 265.603 L
S
GR
GS
[0.6 0 0 0.6 0 0] CT
0 0 1 RC
1 LJ
0.833 LW
N
416.8 283.571 M
416.8 331.708 L
S
GR
GS
[0.6 0 0 0.6 0 0] CT
0 0 1 RC
1 LJ
0.833 LW
N
427.66 283.571 M
427.66 229.252 L
S
GR
GS
[0.6 0 0 0.6 0 0] CT
0 0 1 RC
1 LJ
0.833 LW
N
438.52 283.571 M
438.52 353.707 L
S
GR
GS
[0.6 0 0 0.6 0 0] CT
0 0 1 RC
1 LJ
0.833 LW
N
449.38 283.571 M
449.38 348.925 L
S
GR
GS
[0.6 0 0 0.6 0 0] CT
0 0 1 RC
1 LJ
0.833 LW
N
460.24 283.571 M
460.24 333.066 L
S
GR
GS
[0.6 0 0 0.6 0 0] CT
0 0 1 RC
1 LJ
0.833 LW
N
471.1 283.571 M
471.1 463.593 L
S
GR
GS
[0.6 0 0 0.6 0 0] CT
0 0 1 RC
1 LJ
0.833 LW
N
481.96 283.571 M
481.96 195.625 L
S
GR
GS
[0.6 0 0 0.6 0 0] CT
0 0 1 RC
1 LJ
0.833 LW
N
492.82 283.571 M
492.82 263.688 L
S
GR
GS
[0.6 0 0 0.6 0 0] CT
0 0 1 RC
1 LJ
0.833 LW
N
503.68 283.571 M
503.68 329.73 L
S
GR
GS
[0.6 0 0 0.6 0 0] CT
0 0 1 RC
1 LJ
0.833 LW
N
514.54 283.571 M
514.54 199.787 L
S
GR
GS
[0.6 0 0 0.6 0 0] CT
0 0 1 RC
1 LJ
0.833 LW
N
525.4 283.571 M
525.4 388.218 L
S
GR
GS
[0.6 0 0 0.6 0 0] CT
0 0 1 RC
1 LJ
0.833 LW
N
536.26 283.571 M
536.26 289.823 L
S
GR
GS
[0.6 0 0 0.6 0 0] CT
0 0 1 RC
1 LJ
0.833 LW
N
547.12 283.571 M
547.12 298.334 L
S
GR
GS
[0.6 0 0 0.6 0 0] CT
0 0 1 RC
1 LJ
0.833 LW
N
557.98 283.571 M
557.98 264.054 L
S
GR
GS
[0.6 0 0 0.6 0 0] CT
0 0 1 RC
1 LJ
0.833 LW
N
568.84 283.571 M
568.84 264.442 L
S
GR
GS
[0.6 0 0 0.6 0 0] CT
0 0 1 RC
1 LJ
0.833 LW
N
579.7 283.571 M
579.7 336.453 L
S
GR
GS
[0.6 0 0 0.6 0 0] CT
0 0 1 RC
1 LJ
0.833 LW
N
590.56 283.571 M
590.56 285.409 L
S
GR
GS
[0.6 0 0 0.6 0 0] CT
0 0 1 RC
1 LJ
0.833 LW
N
601.42 283.571 M
601.42 293.653 L
S
GR
GS
[0.6 0 0 0.6 0 0] CT
0 0 1 RC
1 LJ
0.833 LW
N
612.28 283.571 M
612.28 245.192 L
S
GR
GS
[0.6 0 0 0.6 0 0] CT
0 0 1 RC
1 LJ
0.833 LW
N
623.14 283.571 M
623.14 216.726 L
S
GR
GS
[0.6 0 0 0.6 0 0] CT
0 0 1 RC
1 LJ
0.833 LW
N
634 283.571 M
634 215.747 L
S
GR
GS
[0.6 0 0 0.6 61.116 163.56795] CT
1 0 0 RC
N
f1626255170
f
GR
GS
[0.6 0 0 0.6 61.116 163.56795] CT
1 0 0 RC
10.0 ML
N
5 0 M
5 -2.761 2.761 -5 0 -5 C
-2.761 -5 -5 -2.761 -5 0 C
-5 2.761 -2.761 5 0 5 C
2.761 5 5 2.761 5 0 C
S
GR
GS
[0.6 0 0 0.6 67.632 141.14216] CT
1 0 0 RC
N
f1626255170
f
GR
GS
[0.6 0 0 0.6 67.632 141.14216] CT
1 0 0 RC
10.0 ML
N
5 0 M
5 -2.761 2.761 -5 0 -5 C
-2.761 -5 -5 -2.761 -5 0 C
-5 2.761 -2.761 5 0 5 C
2.761 5 5 2.761 5 0 C
S
GR
GS
[0.6 0 0 0.6 74.148 168.76463] CT
1 0 0 RC
N
f1626255170
f
GR
GS
[0.6 0 0 0.6 74.148 168.76463] CT
1 0 0 RC
10.0 ML
N
5 0 M
5 -2.761 2.761 -5 0 -5 C
-2.761 -5 -5 -2.761 -5 0 C
-5 2.761 -2.761 5 0 5 C
2.761 5 5 2.761 5 0 C
S
GR
GS
[0.6 0 0 0.6 80.664 164.79639] CT
1 0 0 RC
N
f1626255170
f
GR
GS
[0.6 0 0 0.6 80.664 164.79639] CT
1 0 0 RC
10.0 ML
N
5 0 M
5 -2.761 2.761 -5 0 -5 C
-2.761 -5 -5 -2.761 -5 0 C
-5 2.761 -2.761 5 0 5 C
2.761 5 5 2.761 5 0 C
S
GR
GS
[0.6 0 0 0.6 87.18 183.32413] CT
1 0 0 RC
N
f1626255170
f
GR
GS
[0.6 0 0 0.6 87.18 183.32413] CT
1 0 0 RC
10.0 ML
N
5 0 M
5 -2.761 2.761 -5 0 -5 C
-2.761 -5 -5 -2.761 -5 0 C
-5 2.761 -2.761 5 0 5 C
2.761 5 5 2.761 5 0 C
S
GR
GS
[0.6 0 0 0.6 93.696 171.69282] CT
1 0 0 RC
N
f1626255170
f
GR
GS
[0.6 0 0 0.6 93.696 171.69282] CT
1 0 0 RC
10.0 ML
N
5 0 M
5 -2.761 2.761 -5 0 -5 C
-2.761 -5 -5 -2.761 -5 0 C
-5 2.761 -2.761 5 0 5 C
2.761 5 5 2.761 5 0 C
S
GR
GS
[0.6 0 0 0.6 100.212 187.53818] CT
1 0 0 RC
N
f1626255170
f
GR
GS
[0.6 0 0 0.6 100.212 187.53818] CT
1 0 0 RC
10.0 ML
N
5 0 M
5 -2.761 2.761 -5 0 -5 C
-2.761 -5 -5 -2.761 -5 0 C
-5 2.761 -2.761 5 0 5 C
2.761 5 5 2.761 5 0 C
S
GR
GS
[0.6 0 0 0.6 106.728 187.24642] CT
1 0 0 RC
N
f1626255170
f
GR
GS
[0.6 0 0 0.6 106.728 187.24642] CT
1 0 0 RC
10.0 ML
N
5 0 M
5 -2.761 2.761 -5 0 -5 C
-2.761 -5 -5 -2.761 -5 0 C
-5 2.761 -2.761 5 0 5 C
2.761 5 5 2.761 5 0 C
S
GR
GS
[0.6 0 0 0.6 113.244 127.49658] CT
1 0 0 RC
N
f1626255170
f
GR
GS
[0.6 0 0 0.6 113.244 127.49658] CT
1 0 0 RC
10.0 ML
N
5 0 M
5 -2.761 2.761 -5 0 -5 C
-2.761 -5 -5 -2.761 -5 0 C
-5 2.761 -2.761 5 0 5 C
2.761 5 5 2.761 5 0 C
S
GR
GS
[0.6 0 0 0.6 119.76 88.32811] CT
1 0 0 RC
N
f1626255170
f
GR
GS
[0.6 0 0 0.6 119.76 88.32811] CT
1 0 0 RC
10.0 ML
N
5 0 M
5 -2.761 2.761 -5 0 -5 C
-2.761 -5 -5 -2.761 -5 0 C
-5 2.761 -2.761 5 0 5 C
2.761 5 5 2.761 5 0 C
S
GR
GS
[0.6 0 0 0.6 126.276 109.02511] CT
1 0 0 RC
N
f1626255170
f
GR
GS
[0.6 0 0 0.6 126.276 109.02511] CT
1 0 0 RC
10.0 ML
N
5 0 M
5 -2.761 2.761 -5 0 -5 C
-2.761 -5 -5 -2.761 -5 0 C
-5 2.761 -2.761 5 0 5 C
2.761 5 5 2.761 5 0 C
S
GR
GS
[0.6 0 0 0.6 132.792 115.67101] CT
1 0 0 RC
N
f1626255170
f
GR
GS
[0.6 0 0 0.6 132.792 115.67101] CT
1 0 0 RC
10.0 ML
N
5 0 M
5 -2.761 2.761 -5 0 -5 C
-2.761 -5 -5 -2.761 -5 0 C
-5 2.761 -2.761 5 0 5 C
2.761 5 5 2.761 5 0 C
S
GR
GS
[0.6 0 0 0.6 139.308 140.66661] CT
1 0 0 RC
N
f1626255170
f
GR
GS
[0.6 0 0 0.6 139.308 140.66661] CT
1 0 0 RC
10.0 ML
N
5 0 M
5 -2.761 2.761 -5 0 -5 C
-2.761 -5 -5 -2.761 -5 0 C
-5 2.761 -2.761 5 0 5 C
2.761 5 5 2.761 5 0 C
S
GR
GS
[0.6 0 0 0.6 145.824 124.93049] CT
1 0 0 RC
N
f1626255170
f
GR
GS
[0.6 0 0 0.6 145.824 124.93049] CT
1 0 0 RC
10.0 ML
N
5 0 M
5 -2.761 2.761 -5 0 -5 C
-2.761 -5 -5 -2.761 -5 0 C
-5 2.761 -2.761 5 0 5 C
2.761 5 5 2.761 5 0 C
S
GR
GS
[0.6 0 0 0.6 152.34 153.30298] CT
1 0 0 RC
N
f1626255170
f
GR
GS
[0.6 0 0 0.6 152.34 153.30298] CT
1 0 0 RC
10.0 ML
N
5 0 M
5 -2.761 2.761 -5 0 -5 C
-2.761 -5 -5 -2.761 -5 0 C
-5 2.761 -2.761 5 0 5 C
2.761 5 5 2.761 5 0 C
S
GR
GS
[0.6 0 0 0.6 158.85601 164.68008] CT
1 0 0 RC
N
f1626255170
f
GR
GS
[0.6 0 0 0.6 158.85601 164.68008] CT
1 0 0 RC
10.0 ML
N
5 0 M
5 -2.761 2.761 -5 0 -5 C
-2.761 -5 -5 -2.761 -5 0 C
-5 2.761 -2.761 5 0 5 C
2.761 5 5 2.761 5 0 C
S
GR
GS
[0.6 0 0 0.6 165.372 165.42713] CT
1 0 0 RC
N
f1626255170
f
GR
GS
[0.6 0 0 0.6 165.372 165.42713] CT
1 0 0 RC
10.0 ML
N
5 0 M
5 -2.761 2.761 -5 0 -5 C
-2.761 -5 -5 -2.761 -5 0 C
-5 2.761 -2.761 5 0 5 C
2.761 5 5 2.761 5 0 C
S
GR
GS
[0.6 0 0 0.6 171.88801 155.95052] CT
1 0 0 RC
N
f1626255170
f
GR
GS
[0.6 0 0 0.6 171.88801 155.95052] CT
1 0 0 RC
10.0 ML
N
5 0 M
5 -2.761 2.761 -5 0 -5 C
-2.761 -5 -5 -2.761 -5 0 C
-5 2.761 -2.761 5 0 5 C
2.761 5 5 2.761 5 0 C
S
GR
GS
[0.6 0 0 0.6 178.404 136.21361] CT
1 0 0 RC
N
f1626255170
f
GR
GS
[0.6 0 0 0.6 178.404 136.21361] CT
1 0 0 RC
10.0 ML
N
5 0 M
5 -2.761 2.761 -5 0 -5 C
-2.761 -5 -5 -2.761 -5 0 C
-5 2.761 -2.761 5 0 5 C
2.761 5 5 2.761 5 0 C
S
GR
GS
[0.6 0 0 0.6 184.92001 117.36527] CT
1 0 0 RC
N
f1626255170
f
GR
GS
[0.6 0 0 0.6 184.92001 117.36527] CT
1 0 0 RC
10.0 ML
N
5 0 M
5 -2.761 2.761 -5 0 -5 C
-2.761 -5 -5 -2.761 -5 0 C
-5 2.761 -2.761 5 0 5 C
2.761 5 5 2.761 5 0 C
S
GR
GS
[0.6 0 0 0.6 191.436 127.37069] CT
1 0 0 RC
N
f1626255170
f
GR
GS
[0.6 0 0 0.6 191.436 127.37069] CT
1 0 0 RC
10.0 ML
N
5 0 M
5 -2.761 2.761 -5 0 -5 C
-2.761 -5 -5 -2.761 -5 0 C
-5 2.761 -2.761 5 0 5 C
2.761 5 5 2.761 5 0 C
S
GR
GS
[0.6 0 0 0.6 197.95201 159.367] CT
1 0 0 RC
N
f1626255170
f
GR
GS
[0.6 0 0 0.6 197.95201 159.367] CT
1 0 0 RC
10.0 ML
N
5 0 M
5 -2.761 2.761 -5 0 -5 C
-2.761 -5 -5 -2.761 -5 0 C
-5 2.761 -2.761 5 0 5 C
2.761 5 5 2.761 5 0 C
S
GR
GS
[0.6 0 0 0.6 204.468 167.92645] CT
1 0 0 RC
N
f1626255170
f
GR
GS
[0.6 0 0 0.6 204.468 167.92645] CT
1 0 0 RC
10.0 ML
N
5 0 M
5 -2.761 2.761 -5 0 -5 C
-2.761 -5 -5 -2.761 -5 0 C
-5 2.761 -2.761 5 0 5 C
2.761 5 5 2.761 5 0 C
S
GR
GS
[0.6 0 0 0.6 210.98401 156.20244] CT
1 0 0 RC
N
f1626255170
f
GR
GS
[0.6 0 0 0.6 210.98401 156.20244] CT
1 0 0 RC
10.0 ML
N
5 0 M
5 -2.761 2.761 -5 0 -5 C
-2.761 -5 -5 -2.761 -5 0 C
-5 2.761 -2.761 5 0 5 C
2.761 5 5 2.761 5 0 C
S
GR
GS
[0.6 0 0 0.6 217.5 135.45813] CT
1 0 0 RC
N
f1626255170
f
GR
GS
[0.6 0 0 0.6 217.5 135.45813] CT
1 0 0 RC
10.0 ML
N
5 0 M
5 -2.761 2.761 -5 0 -5 C
-2.761 -5 -5 -2.761 -5 0 C
-5 2.761 -2.761 5 0 5 C
2.761 5 5 2.761 5 0 C
S
GR
GS
[0.6 0 0 0.6 224.01599 131.57612] CT
1 0 0 RC
N
f1626255170
f
GR
GS
[0.6 0 0 0.6 224.01599 131.57612] CT
1 0 0 RC
10.0 ML
N
5 0 M
5 -2.761 2.761 -5 0 -5 C
-2.761 -5 -5 -2.761 -5 0 C
-5 2.761 -2.761 5 0 5 C
2.761 5 5 2.761 5 0 C
S
GR
GS
[0.6 0 0 0.6 230.532 142.6228] CT
1 0 0 RC
N
f1626255170
f
GR
GS
[0.6 0 0 0.6 230.532 142.6228] CT
1 0 0 RC
10.0 ML
N
5 0 M
5 -2.761 2.761 -5 0 -5 C
-2.761 -5 -5 -2.761 -5 0 C
-5 2.761 -2.761 5 0 5 C
2.761 5 5 2.761 5 0 C
S
GR
GS
[0.6 0 0 0.6 237.04799 152.31193] CT
1 0 0 RC
N
f1626255170
f
GR
GS
[0.6 0 0 0.6 237.04799 152.31193] CT
1 0 0 RC
10.0 ML
N
5 0 M
5 -2.761 2.761 -5 0 -5 C
-2.761 -5 -5 -2.761 -5 0 C
-5 2.761 -2.761 5 0 5 C
2.761 5 5 2.761 5 0 C
S
GR
GS
[0.6 0 0 0.6 243.564 161.37111] CT
1 0 0 RC
N
f1626255170
f
GR
GS
[0.6 0 0 0.6 243.564 161.37111] CT
1 0 0 RC
10.0 ML
N
5 0 M
5 -2.761 2.761 -5 0 -5 C
-2.761 -5 -5 -2.761 -5 0 C
-5 2.761 -2.761 5 0 5 C
2.761 5 5 2.761 5 0 C
S
GR
GS
[0.6 0 0 0.6 250.07999 179.88723] CT
1 0 0 RC
N
f1626255170
f
GR
GS
[0.6 0 0 0.6 250.07999 179.88723] CT
1 0 0 RC
10.0 ML
N
5 0 M
5 -2.761 2.761 -5 0 -5 C
-2.761 -5 -5 -2.761 -5 0 C
-5 2.761 -2.761 5 0 5 C
2.761 5 5 2.761 5 0 C
S
GR
GS
[0.6 0 0 0.6 256.596 165.31276] CT
1 0 0 RC
N
f1626255170
f
GR
GS
[0.6 0 0 0.6 256.596 165.31276] CT
1 0 0 RC
10.0 ML
N
5 0 M
5 -2.761 2.761 -5 0 -5 C
-2.761 -5 -5 -2.761 -5 0 C
-5 2.761 -2.761 5 0 5 C
2.761 5 5 2.761 5 0 C
S
GR
GS
[0.6 0 0 0.6 263.11199 182.93342] CT
1 0 0 RC
N
f1626255170
f
GR
GS
[0.6 0 0 0.6 263.11199 182.93342] CT
1 0 0 RC
10.0 ML
N
5 0 M
5 -2.761 2.761 -5 0 -5 C
-2.761 -5 -5 -2.761 -5 0 C
-5 2.761 -2.761 5 0 5 C
2.761 5 5 2.761 5 0 C
S
GR
GS
[0.6 0 0 0.6 269.628 186.37683] CT
1 0 0 RC
N
f1626255170
f
GR
GS
[0.6 0 0 0.6 269.628 186.37683] CT
1 0 0 RC
10.0 ML
N
5 0 M
5 -2.761 2.761 -5 0 -5 C
-2.761 -5 -5 -2.761 -5 0 C
-5 2.761 -2.761 5 0 5 C
2.761 5 5 2.761 5 0 C
S
GR
GS
[0.6 0 0 0.6 276.14399 207.13965] CT
1 0 0 RC
N
f1626255170
f
GR
GS
[0.6 0 0 0.6 276.14399 207.13965] CT
1 0 0 RC
10.0 ML
N
5 0 M
5 -2.761 2.761 -5 0 -5 C
-2.761 -5 -5 -2.761 -5 0 C
-5 2.761 -2.761 5 0 5 C
2.761 5 5 2.761 5 0 C
S
GR
GS
[0.6 0 0 0.6 282.66 229.11702] CT
1 0 0 RC
N
f1626255170
f
GR
GS
[0.6 0 0 0.6 282.66 229.11702] CT
1 0 0 RC
10.0 ML
N
5 0 M
5 -2.761 2.761 -5 0 -5 C
-2.761 -5 -5 -2.761 -5 0 C
-5 2.761 -2.761 5 0 5 C
2.761 5 5 2.761 5 0 C
S
GR
GS
[0.6 0 0 0.6 289.17599 198.45692] CT
1 0 0 RC
N
f1626255170
f
GR
GS
[0.6 0 0 0.6 289.17599 198.45692] CT
1 0 0 RC
10.0 ML
N
5 0 M
5 -2.761 2.761 -5 0 -5 C
-2.761 -5 -5 -2.761 -5 0 C
-5 2.761 -2.761 5 0 5 C
2.761 5 5 2.761 5 0 C
S
GR
GS
[0.6 0 0 0.6 295.692 184.5813] CT
1 0 0 RC
N
f1626255170
f
GR
GS
[0.6 0 0 0.6 295.692 184.5813] CT
1 0 0 RC
10.0 ML
N
5 0 M
5 -2.761 2.761 -5 0 -5 C
-2.761 -5 -5 -2.761 -5 0 C
-5 2.761 -2.761 5 0 5 C
2.761 5 5 2.761 5 0 C
S
GR
GS
[0.6 0 0 0.6 302.208 157.80861] CT
1 0 0 RC
N
f1626255170
f
GR
GS
[0.6 0 0 0.6 302.208 157.80861] CT
1 0 0 RC
10.0 ML
N
5 0 M
5 -2.761 2.761 -5 0 -5 C
-2.761 -5 -5 -2.761 -5 0 C
-5 2.761 -2.761 5 0 5 C
2.761 5 5 2.761 5 0 C
S
GR
GS
[0.6 0 0 0.6 308.72399 158.64115] CT
1 0 0 RC
N
f1626255170
f
GR
GS
[0.6 0 0 0.6 308.72399 158.64115] CT
1 0 0 RC
10.0 ML
N
5 0 M
5 -2.761 2.761 -5 0 -5 C
-2.761 -5 -5 -2.761 -5 0 C
-5 2.761 -2.761 5 0 5 C
2.761 5 5 2.761 5 0 C
S
GR
GS
[0.6 0 0 0.6 315.24001 183.54716] CT
1 0 0 RC
N
f1626255170
f
GR
GS
[0.6 0 0 0.6 315.24001 183.54716] CT
1 0 0 RC
10.0 ML
N
5 0 M
5 -2.761 2.761 -5 0 -5 C
-2.761 -5 -5 -2.761 -5 0 C
-5 2.761 -2.761 5 0 5 C
2.761 5 5 2.761 5 0 C
S
GR
GS
[0.6 0 0 0.6 321.75601 175.56573] CT
1 0 0 RC
N
f1626255170
f
GR
GS
[0.6 0 0 0.6 321.75601 175.56573] CT
1 0 0 RC
10.0 ML
N
5 0 M
5 -2.761 2.761 -5 0 -5 C
-2.761 -5 -5 -2.761 -5 0 C
-5 2.761 -2.761 5 0 5 C
2.761 5 5 2.761 5 0 C
S
GR
GS
[0.6 0 0 0.6 328.272 195.27508] CT
1 0 0 RC
N
f1626255170
f
GR
GS
[0.6 0 0 0.6 328.272 195.27508] CT
1 0 0 RC
10.0 ML
N
5 0 M
5 -2.761 2.761 -5 0 -5 C
-2.761 -5 -5 -2.761 -5 0 C
-5 2.761 -2.761 5 0 5 C
2.761 5 5 2.761 5 0 C
S
GR
GS
[0.6 0 0 0.6 334.78799 170.44224] CT
1 0 0 RC
N
f1626255170
f
GR
GS
[0.6 0 0 0.6 334.78799 170.44224] CT
1 0 0 RC
10.0 ML
N
5 0 M
5 -2.761 2.761 -5 0 -5 C
-2.761 -5 -5 -2.761 -5 0 C
-5 2.761 -2.761 5 0 5 C
2.761 5 5 2.761 5 0 C
S
GR
GS
[0.6 0 0 0.6 341.30402 165.36616] CT
1 0 0 RC
N
f1626255170
f
GR
GS
[0.6 0 0 0.6 341.30402 165.36616] CT
1 0 0 RC
10.0 ML
N
5 0 M
5 -2.761 2.761 -5 0 -5 C
-2.761 -5 -5 -2.761 -5 0 C
-5 2.761 -2.761 5 0 5 C
2.761 5 5 2.761 5 0 C
S
GR
GS
[0.6 0 0 0.6 347.82001 172.98984] CT
1 0 0 RC
N
f1626255170
f
GR
GS
[0.6 0 0 0.6 347.82001 172.98984] CT
1 0 0 RC
10.0 ML
N
5 0 M
5 -2.761 2.761 -5 0 -5 C
-2.761 -5 -5 -2.761 -5 0 C
-5 2.761 -2.761 5 0 5 C
2.761 5 5 2.761 5 0 C
S
GR
GS
[0.6 0 0 0.6 354.336 177.26078] CT
1 0 0 RC
N
f1626255170
f
GR
GS
[0.6 0 0 0.6 354.336 177.26078] CT
1 0 0 RC
10.0 ML
N
5 0 M
5 -2.761 2.761 -5 0 -5 C
-2.761 -5 -5 -2.761 -5 0 C
-5 2.761 -2.761 5 0 5 C
2.761 5 5 2.761 5 0 C
S
GR
GS
[0.6 0 0 0.6 360.85199 183.10281] CT
1 0 0 RC
N
f1626255170
f
GR
GS
[0.6 0 0 0.6 360.85199 183.10281] CT
1 0 0 RC
10.0 ML
N
5 0 M
5 -2.761 2.761 -5 0 -5 C
-2.761 -5 -5 -2.761 -5 0 C
-5 2.761 -2.761 5 0 5 C
2.761 5 5 2.761 5 0 C
S
GR
GS
[0.6 0 0 0.6 367.36802 164.8506] CT
1 0 0 RC
N
f1626255170
f
GR
GS
[0.6 0 0 0.6 367.36802 164.8506] CT
1 0 0 RC
10.0 ML
N
5 0 M
5 -2.761 2.761 -5 0 -5 C
-2.761 -5 -5 -2.761 -5 0 C
-5 2.761 -2.761 5 0 5 C
2.761 5 5 2.761 5 0 C
S
GR
GS
[0.6 0 0 0.6 373.88401 151.11405] CT
1 0 0 RC
N
f1626255170
f
GR
GS
[0.6 0 0 0.6 373.88401 151.11405] CT
1 0 0 RC
10.0 ML
N
5 0 M
5 -2.761 2.761 -5 0 -5 C
-2.761 -5 -5 -2.761 -5 0 C
-5 2.761 -2.761 5 0 5 C
2.761 5 5 2.761 5 0 C
S
GR
GS
[0.6 0 0 0.6 380.4 135.53299] CT
1 0 0 RC
N
f1626255170
f
GR
GS
[0.6 0 0 0.6 380.4 135.53299] CT
1 0 0 RC
10.0 ML
N
5 0 M
5 -2.761 2.761 -5 0 -5 C
-2.761 -5 -5 -2.761 -5 0 C
-5 2.761 -2.761 5 0 5 C
2.761 5 5 2.761 5 0 C
S
GR
GS
[0.6 0 0 0.6 0 0] CT
1 0 0 RC
1 LJ
0.833 LW
N
101.86 283.571 M
101.86 272.613 L
S
GR
GS
[0.6 0 0 0.6 0 0] CT
1 0 0 RC
1 LJ
0.833 LW
N
112.72 283.571 M
112.72 235.237 L
S
GR
GS
[0.6 0 0 0.6 0 0] CT
1 0 0 RC
1 LJ
0.833 LW
N
123.58 283.571 M
123.58 281.274 L
S
GR
GS
[0.6 0 0 0.6 0 0] CT
1 0 0 RC
1 LJ
0.833 LW
N
134.44 283.571 M
134.44 274.661 L
S
GR
GS
[0.6 0 0 0.6 0 0] CT
1 0 0 RC
1 LJ
0.833 LW
N
145.3 283.571 M
145.3 305.54 L
S
GR
GS
[0.6 0 0 0.6 0 0] CT
1 0 0 RC
1 LJ
0.833 LW
N
156.16 283.571 M
156.16 286.155 L
S
GR
GS
[0.6 0 0 0.6 0 0] CT
1 0 0 RC
1 LJ
0.833 LW
N
167.02 283.571 M
167.02 312.564 L
S
GR
GS
[0.6 0 0 0.6 0 0] CT
1 0 0 RC
1 LJ
0.833 LW
N
177.88 283.571 M
177.88 312.077 L
S
GR
GS
[0.6 0 0 0.6 0 0] CT
1 0 0 RC
1 LJ
0.833 LW
N
188.74 283.571 M
188.74 212.494 L
S
GR
GS
[0.6 0 0 0.6 0 0] CT
1 0 0 RC
1 LJ
0.833 LW
N
199.6 283.571 M
199.6 147.214 L
S
GR
GS
[0.6 0 0 0.6 0 0] CT
1 0 0 RC
1 LJ
0.833 LW
N
210.46 283.571 M
210.46 181.709 L
S
GR
GS
[0.6 0 0 0.6 0 0] CT
1 0 0 RC
1 LJ
0.833 LW
N
221.32 283.571 M
221.32 192.785 L
S
GR
GS
[0.6 0 0 0.6 0 0] CT
1 0 0 RC
1 LJ
0.833 LW
N
232.18 283.571 M
232.18 234.444 L
S
GR
GS
[0.6 0 0 0.6 0 0] CT
1 0 0 RC
1 LJ
0.833 LW
N
243.04 283.571 M
243.04 208.217 L
S
GR
GS
[0.6 0 0 0.6 0 0] CT
1 0 0 RC
1 LJ
0.833 LW
N
253.9 283.571 M
253.9 255.505 L
S
GR
GS
[0.6 0 0 0.6 0 0] CT
1 0 0 RC
1 LJ
0.833 LW
N
264.76 283.571 M
264.76 274.467 L
S
GR
GS
[0.6 0 0 0.6 0 0] CT
1 0 0 RC
1 LJ
0.833 LW
N
275.62 283.571 M
275.62 275.712 L
S
GR
GS
[0.6 0 0 0.6 0 0] CT
1 0 0 RC
1 LJ
0.833 LW
N
286.48 283.571 M
286.48 259.918 L
S
GR
GS
[0.6 0 0 0.6 0 0] CT
1 0 0 RC
1 LJ
0.833 LW
N
297.34 283.571 M
297.34 227.023 L
S
GR
GS
[0.6 0 0 0.6 0 0] CT
1 0 0 RC
1 LJ
0.833 LW
N
308.2 283.571 M
308.2 195.609 L
S
GR
GS
[0.6 0 0 0.6 0 0] CT
1 0 0 RC
1 LJ
0.833 LW
N
319.06 283.571 M
319.06 212.284 L
S
GR
GS
[0.6 0 0 0.6 0 0] CT
1 0 0 RC
1 LJ
0.833 LW
N
329.92 283.571 M
329.92 265.612 L
S
GR
GS
[0.6 0 0 0.6 0 0] CT
1 0 0 RC
1 LJ
0.833 LW
N
340.78 283.571 M
340.78 279.877 L
S
GR
GS
[0.6 0 0 0.6 0 0] CT
1 0 0 RC
1 LJ
0.833 LW
N
351.64 283.571 M
351.64 260.337 L
S
GR
GS
[0.6 0 0 0.6 0 0] CT
1 0 0 RC
1 LJ
0.833 LW
N
362.5 283.571 M
362.5 225.764 L
S
GR
GS
[0.6 0 0 0.6 0 0] CT
1 0 0 RC
1 LJ
0.833 LW
N
373.36 283.571 M
373.36 219.294 L
S
GR
GS
[0.6 0 0 0.6 0 0] CT
1 0 0 RC
1 LJ
0.833 LW
N
384.22 283.571 M
384.22 237.705 L
S
GR
GS
[0.6 0 0 0.6 0 0] CT
1 0 0 RC
1 LJ
0.833 LW
N
395.08 283.571 M
395.08 253.853 L
S
GR
GS
[0.6 0 0 0.6 0 0] CT
1 0 0 RC
1 LJ
0.833 LW
N
405.94 283.571 M
405.94 268.952 L
S
GR
GS
[0.6 0 0 0.6 0 0] CT
1 0 0 RC
1 LJ
0.833 LW
N
416.8 283.571 M
416.8 299.812 L
S
GR
GS
[0.6 0 0 0.6 0 0] CT
1 0 0 RC
1 LJ
0.833 LW
N
427.66 283.571 M
427.66 275.521 L
S
GR
GS
[0.6 0 0 0.6 0 0] CT
1 0 0 RC
1 LJ
0.833 LW
N
438.52 283.571 M
438.52 304.889 L
S
GR
GS
[0.6 0 0 0.6 0 0] CT
1 0 0 RC
1 LJ
0.833 LW
N
449.38 283.571 M
449.38 310.628 L
S
GR
GS
[0.6 0 0 0.6 0 0] CT
1 0 0 RC
1 LJ
0.833 LW
N
460.24 283.571 M
460.24 345.233 L
S
GR
GS
[0.6 0 0 0.6 0 0] CT
1 0 0 RC
1 LJ
0.833 LW
N
471.1 283.571 M
471.1 381.862 L
S
GR
GS
[0.6 0 0 0.6 0 0] CT
1 0 0 RC
1 LJ
0.833 LW
N
481.96 283.571 M
481.96 330.762 L
S
GR
GS
[0.6 0 0 0.6 0 0] CT
1 0 0 RC
1 LJ
0.833 LW
N
492.82 283.571 M
492.82 307.635 L
S
GR
GS
[0.6 0 0 0.6 0 0] CT
1 0 0 RC
1 LJ
0.833 LW
N
503.68 283.571 M
503.68 263.014 L
S
GR
GS
[0.6 0 0 0.6 0 0] CT
1 0 0 RC
1 LJ
0.833 LW
N
514.54 283.571 M
514.54 264.402 L
S
GR
GS
[0.6 0 0 0.6 0 0] CT
1 0 0 RC
1 LJ
0.833 LW
N
525.4 283.571 M
525.4 305.912 L
S
GR
GS
[0.6 0 0 0.6 0 0] CT
1 0 0 RC
1 LJ
0.833 LW
N
536.26 283.571 M
536.26 292.61 L
S
GR
GS
[0.6 0 0 0.6 0 0] CT
1 0 0 RC
1 LJ
0.833 LW
N
547.12 283.571 M
547.12 325.458 L
S
GR
GS
[0.6 0 0 0.6 0 0] CT
1 0 0 RC
1 LJ
0.833 LW
N
557.98 283.571 M
557.98 284.07 L
S
GR
GS
[0.6 0 0 0.6 0 0] CT
1 0 0 RC
1 LJ
0.833 LW
N
568.84 283.571 M
568.84 275.61 L
S
GR
GS
[0.6 0 0 0.6 0 0] CT
1 0 0 RC
1 LJ
0.833 LW
N
579.7 283.571 M
579.7 288.316 L
S
GR
GS
[0.6 0 0 0.6 0 0] CT
1 0 0 RC
1 LJ
0.833 LW
N
590.56 283.571 M
590.56 295.435 L
S
GR
GS
[0.6 0 0 0.6 0 0] CT
1 0 0 RC
1 LJ
0.833 LW
N
601.42 283.571 M
601.42 305.171 L
S
GR
GS
[0.6 0 0 0.6 0 0] CT
1 0 0 RC
1 LJ
0.833 LW
N
612.28 283.571 M
612.28 274.751 L
S
GR
GS
[0.6 0 0 0.6 0 0] CT
1 0 0 RC
1 LJ
0.833 LW
N
623.14 283.571 M
623.14 251.857 L
S
GR
GS
[0.6 0 0 0.6 0 0] CT
1 0 0 RC
1 LJ
0.833 LW
N
634 283.571 M
634 225.888 L
S
GR
GS
[0.6 0 0 0.6 0 0] CT
1 GC
N
/f2110605804{617 101 M
617 56 L
546 56 L
546 101 L
cp}def
f2110605804
f
GR
GS
[0.6 0 0 0.6 362.48152 40.99726] CT
/Helvetica 15 F
GS
[1 0 0 1 0 0] CT
0 6 moveto 
1 -1 scale
(x) t 
GR
GR
GS
[0.6 0 0 0.6 0 0] CT
0 0 1 RC
1 LJ
0.833 LW
N
550.948 68.329 M
585.582 68.329 L
S
GR
GS
[0.6 0 0 0.6 351.34915 40.99726] CT
0 0 1 RC
N
f1626255170
f
GR
GS
[0.6 0 0 0.6 351.34915 40.99726] CT
0 0 1 RC
10.0 ML
N
5 0 M
5 -2.761 2.761 -5 0 -5 C
-2.761 -5 -5 -2.761 -5 0 C
-5 2.761 -2.761 5 0 5 C
2.761 5 5 2.761 5 0 C
S
GR
GS
[0.6 0 0 0.6 362.48152 53.20274] CT
/Helvetica 15 F
GS
[1 0 0 1 0 0] CT
0 6 moveto 
1 -1 scale
(y) t 
GR
GR
GS
[0.6 0 0 0.6 0 0] CT
1 0 0 RC
1 LJ
0.833 LW
N
550.948 88.671 M
585.582 88.671 L
S
GR
GS
[0.6 0 0 0.6 351.34915 53.20274] CT
1 0 0 RC
N
f1626255170
f
GR
GS
[0.6 0 0 0.6 351.34915 53.20274] CT
1 0 0 RC
10.0 ML
N
5 0 M
5 -2.761 2.761 -5 0 -5 C
-2.761 -5 -5 -2.761 -5 0 C
-5 2.761 -2.761 5 0 5 C
2.761 5 5 2.761 5 0 C
S
GR
GS
[0.6 0 0 0.6 0 0] CT
0.149 GC
10.0 ML
0.833 LW
N
546 101 M
546 56 L
617 56 L
617 101 L
cp
S
GR
%%Trailer
%%Pages: 1
%%EOF
